# 3ds Max Wavefront OBJ Exporter v0.97b - (c)2007 guruware
# File Created: 20.03.2020 15:43:52

mtllib Tree3_low.mtl

#
# object Tree_03
#

v  0.8289 -0.0000 -0.0000
v  0.5861 0.0000 -0.5861
v  0.5686 0.6804 -0.5182
v  0.7839 0.6979 0.0035
v  -0.0000 -0.0000 -0.8289
v  0.0478 0.6383 -0.7355
v  -0.5861 0.0000 -0.5861
v  -0.4750 0.5965 -0.5201
v  -0.8289 -0.0000 0.0000
v  -0.6921 0.5793 0.0034
v  -0.5861 -0.0000 0.5861
v  -0.4750 0.5963 0.5269
v  0.0000 -0.0000 0.8289
v  0.0477 0.6380 0.7425
v  0.5861 -0.0000 0.5861
v  0.5686 0.6802 0.5252
v  0.5484 1.0968 -0.5022
v  0.5137 1.6429 -0.5186
v  0.6546 1.6849 -0.1795
v  0.7405 1.1073 -0.0449
v  0.0969 1.0500 -0.6861
v  0.1736 1.6009 -0.6569
v  -0.3639 0.9967 -0.4976
v  -0.1665 1.5836 -0.5134
v  -0.5661 0.9726 -0.0347
v  -0.3074 1.6011 -0.1722
v  -0.3806 0.9888 0.4347
v  -0.1665 1.6431 0.1668
v  0.0858 1.0334 0.6278
v  0.1736 1.6851 0.3051
v  0.5523 1.0812 0.4268
v  0.5137 1.7024 0.1616
v  0.2970 2.3009 -0.3909
v  0.4349 2.3198 -0.1502
v  0.0294 2.3087 -0.4652
v  -0.2112 2.3387 -0.3295
v  -0.2838 2.3733 -0.0633
v  -0.1459 2.3921 0.1774
v  0.1217 2.3843 0.2516
v  0.3623 2.3543 0.1159
v  0.1381 3.0532 -0.1987
v  0.0708 3.0680 -0.3598
v  0.1997 3.5721 -0.1715
v  0.2358 3.5690 -0.0840
v  -0.0921 3.0818 -0.4277
v  0.1126 3.5798 -0.2077
v  -0.2560 3.0866 -0.3612
v  0.0254 3.5874 -0.1715
v  -0.3238 3.0789 -0.1987
v  -0.0107 3.5905 -0.0840
v  -0.2552 3.0630 -0.0366
v  0.0254 3.5874 0.0035
v  -0.0912 3.0490 0.0295
v  0.1126 3.5798 0.0397
v  0.0713 3.0452 -0.0380
v  0.1997 3.5721 0.0035
v  0.0949 2.7820 -0.4079
v  0.1851 2.7681 -0.2130
v  -0.1056 2.7979 -0.4817
v  -0.2998 2.8054 -0.3903
v  -0.3731 2.8011 -0.1859
v  -0.2816 2.7885 0.0106
v  -0.0801 2.7740 0.0828
v  0.1128 2.7651 -0.0102
v  0.4603 4.1193 0.0873
v  0.4721 4.1125 0.1202
v  0.4318 4.1358 0.0737
v  0.4033 4.1522 0.0873
v  0.3915 4.1591 0.1202
v  0.4033 4.1522 0.1531
v  0.4318 4.1358 0.1668
v  0.4603 4.1193 0.1531
v  0.6232 4.3209 0.1996
v  0.2173 1.6926 0.1197
v  0.2937 1.8104 0.0326
v  0.3306 1.9469 0.5335
v  0.2757 1.8624 0.5960
v  0.2490 1.9561 -0.0312
v  0.2985 2.0515 0.4876
v  0.1093 2.0443 -0.0345
v  0.1982 2.1149 0.4853
v  -0.0435 2.0234 0.0248
v  0.0885 2.0998 0.5278
v  -0.1200 1.9055 0.1118
v  0.0336 2.0152 0.5903
v  -0.0752 1.7599 0.1757
v  0.0657 1.9106 0.6362
v  0.0644 1.6717 0.1789
v  0.1660 1.8473 0.6385
v  0.4085 2.0401 0.8086
v  0.3575 1.9629 0.8749
v  0.3738 2.1308 0.7495
v  0.2737 2.1820 0.7321
v  0.1669 2.1637 0.7666
v  0.1159 2.0865 0.8328
v  0.1506 1.9957 0.8920
v  0.2507 1.9445 0.9094
v  0.5013 2.2102 1.0376
v  0.4579 2.1451 1.0956
v  0.4711 2.2855 0.9839
v  0.3849 2.3269 0.9659
v  0.2933 2.3101 0.9941
v  0.2498 2.2451 1.0521
v  0.2800 2.1698 1.1058
v  0.3662 2.1284 1.1238
v  0.5266 2.3212 1.1825
v  0.5613 2.3744 1.1402
v  0.6655 2.4803 1.2738
v  0.6386 2.4387 1.3239
v  0.5391 2.4387 1.1055
v  0.6449 2.5389 1.2420
v  0.4731 2.4764 1.0988
v  0.5888 2.5800 1.2470
v  0.4019 2.4655 1.1241
v  0.5301 2.5797 1.2861
v  0.3672 2.4123 1.1664
v  0.5031 2.5381 1.3362
v  0.3893 2.3480 1.2011
v  0.5238 2.4795 1.3681
v  0.4554 2.3102 1.2078
v  0.5799 2.4383 1.3630
v  0.6646 2.5993 1.4299
v  0.6366 2.5550 1.4497
v  0.6509 2.6517 1.4158
v  0.6035 2.6816 1.4156
v  0.5502 2.6714 1.4294
v  0.5222 2.6271 1.4491
v  0.5359 2.5746 1.4633
v  0.5833 2.5448 1.4635
v  0.6880 2.6841 1.6171
v  0.6780 2.6674 1.6203
v  0.6832 2.7031 1.6149
v  0.6663 2.7133 1.6153
v  0.6473 2.7087 1.6178
v  0.6372 2.6920 1.6211
v  0.6421 2.6730 1.6232
v  0.6590 2.6628 1.6229
v  0.6856 2.7228 1.6881
v  0.3528 2.0564 0.8925
v  0.3656 2.0189 0.8637
v  0.5418 2.0958 0.8029
v  0.5288 2.1289 0.8292
v  0.3601 2.0086 0.8199
v  0.5374 2.0869 0.7632
v  0.3395 2.0317 0.7868
v  0.5182 2.1074 0.7335
v  0.3158 2.0745 0.7838
v  0.4954 2.1453 0.7311
v  0.3030 2.1121 0.8126
v  0.4824 2.1784 0.7574
v  0.3084 2.1223 0.8564
v  0.4868 2.1873 0.7971
v  0.3291 2.0993 0.8895
v  0.5060 2.1668 0.8268
v  0.7375 2.2292 0.7457
v  0.7335 2.2603 0.7640
v  0.7268 2.2174 0.7137
v  0.7163 2.2359 0.6870
v  0.7086 2.2721 0.6811
v  0.7082 2.3049 0.6995
v  0.7153 2.3150 0.7314
v  0.7257 2.2965 0.7581
v  0.9864 2.4120 0.6862
v  0.9854 2.4288 0.6933
v  0.9801 2.4036 0.6724
v  0.9703 2.4086 0.6602
v  0.9626 2.4241 0.6565
v  0.9617 2.4410 0.6637
v  0.9679 2.4493 0.6774
v  0.9778 2.4443 0.6897
v  1.1971 2.5088 0.6177
v  1.1894 2.5180 0.6248
v  1.1991 2.5057 0.6053
v  1.1943 2.5106 0.5950
v  1.1855 2.5205 0.5927
v  1.1779 2.5297 0.5998
v  1.1758 2.5327 0.6122
v  1.1806 2.5279 0.6225
v  1.2841 2.5517 0.5783
v  0.2308 2.1459 -0.4333
v  0.1014 2.1557 -0.4755
v  0.1677 2.4801 -0.7469
v  0.2583 2.4853 -0.7346
v  -0.0052 2.2401 -0.4470
v  0.0946 2.5318 -0.7211
v  -0.0266 2.3497 -0.3643
v  0.0819 2.6101 -0.6723
v  0.0497 2.4204 -0.2759
v  0.1370 2.6692 -0.6291
v  0.1792 2.4106 -0.2337
v  0.2276 2.6744 -0.6168
v  0.2858 2.3262 -0.2623
v  0.3007 2.6227 -0.6425
v  0.3072 2.2166 -0.3449
v  0.3134 2.5443 -0.6913
v  0.3132 2.5648 -0.9362
v  0.3885 2.5736 -0.9224
v  0.2475 2.6146 -0.9269
v  0.2369 2.6938 -0.9150
v  0.2848 2.7559 -0.9012
v  0.3630 2.7647 -0.8936
v  0.4258 2.7149 -0.8967
v  0.4363 2.6357 -0.9086
v  0.3549 2.7834 -1.1943
v  0.4158 2.7992 -1.1939
v  0.3022 2.8060 -1.1662
v  0.2885 2.8537 -1.1261
v  0.3220 2.8985 -1.0974
v  0.3829 2.9143 -1.0970
v  0.4356 2.8918 -1.1251
v  0.4492 2.8441 -1.1652
v  0.4486 2.9640 -1.2910
v  0.3986 2.9538 -1.3021
v  0.4469 3.0662 -1.4301
v  0.4860 3.0771 -1.4219
v  0.3520 2.9726 -1.2852
v  0.4095 3.0790 -1.4170
v  0.3359 3.0093 -1.2501
v  0.3957 3.1080 -1.3902
v  0.3599 3.0424 -1.2174
v  0.4136 3.1363 -1.3654
v  0.4098 3.0525 -1.2063
v  0.4527 3.1471 -1.3572
v  0.4564 3.0338 -1.2232
v  0.4901 3.1343 -1.3703
v  0.4725 2.9971 -1.2583
v  0.5039 3.1053 -1.3971
v  0.5050 3.2375 -1.5673
v  0.5329 3.2368 -1.5562
v  0.4774 3.2435 -1.5555
v  0.4662 3.2511 -1.5279
v  0.4780 3.2559 -1.5004
v  0.5059 3.2552 -1.4893
v  0.5335 3.2492 -1.5011
v  0.5447 3.2416 -1.5288
v  0.5328 3.3915 -1.6545
v  0.5411 3.3916 -1.6493
v  0.5238 3.3953 -1.6533
v  0.5192 3.4008 -1.6464
v  0.5217 3.4048 -1.6378
v  0.5299 3.4050 -1.6325
v  0.5390 3.4012 -1.6337
v  0.5436 3.3957 -1.6406
v  0.5521 3.4527 -1.6700
v  -0.0735 2.1357 -0.2326
v  -0.0600 2.1460 -0.0670
v  -0.5602 2.5351 -0.1783
v  -0.5814 2.5351 -0.3015
v  0.0168 2.2493 0.0387
v  -0.4980 2.6092 -0.0996
v  0.1119 2.3850 0.0225
v  -0.4314 2.7140 -0.1114
v  0.1696 2.4737 -0.1061
v  -0.3994 2.7882 -0.2068
v  0.1561 2.4633 -0.2717
v  -0.4207 2.7881 -0.3300
v  0.0793 2.3601 -0.3774
v  -0.4828 2.7140 -0.4087
v  -0.0158 2.2244 -0.3612
v  -0.5494 2.6092 -0.3969
v  -0.8512 2.8348 -0.2881
v  -0.8757 2.8388 -0.3960
v  -0.8024 2.9036 -0.2175
v  -0.7579 3.0048 -0.2256
v  -0.7437 3.0793 -0.3076
v  -0.7682 3.0833 -0.4155
v  -0.8170 3.0146 -0.4861
v  -0.8615 2.9133 -0.4780
v  -1.3344 3.0789 -0.1973
v  -1.4009 3.1089 -0.2496
v  -1.2698 3.1098 -0.1624
v  -1.2450 3.1835 -0.1652
v  -1.2745 3.2568 -0.2041
v  -1.3410 3.2867 -0.2564
v  -1.4056 3.2558 -0.2914
v  -1.4304 3.1822 -0.2886
v  -1.7782 3.4128 -0.0277
v  -1.7719 3.4024 -0.0750
v  -1.7637 3.4483 0.0022
v  -1.7370 3.4879 -0.0029
v  -1.7136 3.5086 -0.0399
v  -1.7073 3.4982 -0.0873
v  -1.7218 3.4628 -0.1171
v  -1.7485 3.4231 -0.1120
v  -2.0284 3.6646 -0.0452
v  -2.0270 3.6617 -0.0615
v  -2.0244 3.6771 -0.0350
v  -2.0174 3.6919 -0.0368
v  -2.0115 3.7004 -0.0495
v  -2.0102 3.6976 -0.0658
v  -2.0142 3.6850 -0.0760
v  -2.0211 3.6702 -0.0742
v  -2.0744 3.7526 -0.0678
v  -0.6008 2.5828 -0.3382
v  -0.5367 2.5448 -0.2823
v  -0.8046 2.4660 -0.0760
v  -0.8539 2.5037 -0.1314
v  -0.4903 2.5685 -0.2059
v  -0.7744 2.4814 -0.0002
v  -0.4888 2.6400 -0.1538
v  -0.7810 2.5410 0.0514
v  -0.5330 2.7174 -0.1564
v  -0.8205 2.6099 0.0487
v  -0.5971 2.7554 -0.2123
v  -0.8698 2.6476 -0.0068
v  -0.6435 2.7317 -0.2887
v  -0.9000 2.6322 -0.0825
v  -0.6450 2.6603 -0.3409
v  -0.8934 2.5726 -0.1342
v  -1.1007 2.3128 0.1242
v  -1.1500 2.3417 0.0844
v  -1.0549 2.3343 0.1726
v  -1.0393 2.3937 0.2012
v  -1.0631 2.4561 0.1933
v  -1.1123 2.4850 0.1534
v  -1.1582 2.4635 0.1050
v  -1.1738 2.4041 0.0764
v  -1.3432 2.4120 0.3485
v  -1.3663 2.4181 0.3133
v  -1.3080 2.4266 0.3653
v  -1.2814 2.4534 0.3537
v  -1.2790 2.4767 0.3206
v  -1.3021 2.4829 0.2854
v  -1.3373 2.4683 0.2687
v  -1.3639 2.4415 0.2802
v  -1.4141 2.5315 0.4709
v  -1.4367 2.5341 0.4541
v  -1.3887 2.5426 0.4748
v  -1.3753 2.5608 0.4637
v  -1.3818 2.5756 0.4440
v  -1.4044 2.5782 0.4273
v  -1.4298 2.5672 0.4233
v  -1.4432 2.5489 0.4344
v  -1.4838 2.6253 0.5613
v  -1.4940 2.6265 0.5539
v  -1.4740 2.6357 0.5658
v  -1.4726 2.6413 0.5646
v  -1.4750 2.6496 0.5568
v  -1.4832 2.6499 0.5487
v  -1.4938 2.6432 0.5460
v  -1.4954 2.6348 0.5434
v  -1.4979 2.6694 0.5976
# 342 vertices

vn 0.9979 0.0644 -0.0012
vn 0.6956 0.0891 -0.7129
vn 0.7092 0.0743 -0.7011
vn 0.9961 0.0865 0.0147
vn -0.0169 0.1459 -0.9891
vn -0.0106 0.1343 -0.9909
vn -0.7001 0.2061 -0.6837
vn -0.7018 0.2203 -0.6774
vn -0.9732 0.2298 -0.0012
vn -0.9641 0.2653 0.0092
vn -0.7024 0.1987 0.6834
vn -0.6860 0.2538 0.6819
vn -0.0170 0.1354 0.9906
vn -0.0111 0.2046 0.9788
vn 0.6972 0.0817 0.7122
vn 0.6892 0.1419 0.7105
vn 0.7064 0.0421 -0.7066
vn 0.6807 0.1789 -0.7104
vn 0.9718 0.2302 -0.0516
vn 0.9916 0.1296 0.0052
vn -0.0104 0.0887 -0.9960
vn 0.0208 0.1483 -0.9887
vn -0.6941 0.2268 -0.6832
vn -0.6593 0.1705 -0.7323
vn -0.9406 0.3393 -0.0114
vn -0.9739 0.2187 -0.0608
vn -0.6701 0.3826 0.6361
vn -0.7095 0.2562 0.6564
vn -0.0198 0.3576 0.9336
vn 0.0102 0.2720 0.9622
vn 0.6751 0.2649 0.6886
vn 0.7154 0.2638 0.6470
vn 0.5914 0.2914 -0.7519
vn 0.9101 0.3913 -0.1366
vn -0.1148 0.0967 -0.9887
vn -0.8078 -0.0725 -0.5850
vn -0.9791 -0.0750 0.1891
vn -0.5618 0.0922 0.8221
vn 0.1623 0.2825 0.9454
vn 0.7498 0.3831 0.5394
vn 0.9997 -0.0047 -0.0219
vn 0.6791 0.1450 -0.7196
vn 0.7000 0.0584 -0.7118
vn 0.9569 -0.2895 -0.0218
vn -0.0102 0.2970 -0.9548
vn 0.0432 0.4124 -0.9100
vn -0.6608 0.3631 -0.6569
vn -0.5484 0.5809 -0.6015
vn -0.9401 0.3409 -0.0009
vn -0.8365 0.5479 0.0051
vn -0.6973 0.2487 0.6722
vn -0.6678 0.2979 0.6821
vn -0.0363 0.1026 0.9941
vn -0.0323 -0.1005 0.9944
vn 0.6935 -0.0207 0.7201
vn 0.6437 -0.3543 0.6783
vn 0.6381 0.2019 -0.7430
vn 0.9382 0.3418 -0.0533
vn -0.0766 0.0603 -0.9952
vn -0.7443 -0.0167 -0.6676
vn -0.9997 -0.0155 0.0190
vn -0.7084 0.0966 0.6992
vn 0.0084 0.2921 0.9563
vn 0.6772 0.3878 0.6252
vn 0.7230 -0.0929 -0.6845
vn 0.8671 -0.4982 0.0043
vn 0.1936 0.3783 -0.9052
vn -0.3819 0.6775 -0.6286
vn -0.7150 0.6990 0.0135
vn -0.6048 0.3946 0.6917
vn -0.1063 -0.1112 0.9881
vn 0.4958 -0.4988 0.7109
vn 0.6857 0.6720 0.2796
vn 0.6398 -0.7454 0.1871
vn 0.9951 -0.0847 -0.0502
vn 0.9743 -0.1958 -0.1113
vn 0.5731 -0.8025 0.1663
vn 0.7798 0.5982 -0.1845
vn 0.7930 0.5437 -0.2748
vn 0.2006 0.9656 -0.1654
vn 0.1650 0.9596 -0.2277
vn -0.4780 0.8783 -0.0081
vn -0.5418 0.8404 -0.0157
vn -0.9241 0.3082 0.2259
vn -0.9388 0.2423 0.2448
vn -0.7923 -0.4653 0.3948
vn -0.7719 -0.4878 0.4076
vn -0.1250 -0.9173 0.3782
vn -0.1483 -0.9138 0.3780
vn 0.9448 -0.2713 -0.1838
vn 0.5810 -0.7784 0.2377
vn 0.7646 0.4377 -0.4731
vn 0.1047 0.9012 -0.4205
vn -0.5880 0.8036 -0.0915
vn -0.9236 0.2506 0.2901
vn -0.7218 -0.4274 0.5444
vn -0.0999 -0.8402 0.5331
vn 0.9519 -0.2679 -0.1489
vn 0.6317 -0.6285 0.4538
vn 0.7221 0.2967 -0.6249
vn 0.0620 0.7459 -0.6632
vn -0.6233 0.7493 -0.2237
vn -0.8772 0.3269 0.3517
vn -0.6320 -0.2179 0.7437
vn -0.0277 -0.6036 0.7968
vn 0.6551 -0.6681 0.3527
vn 0.9017 -0.2763 -0.3326
vn 0.9587 -0.2093 -0.1924
vn 0.6967 -0.6461 0.3119
vn 0.6263 0.3041 -0.7179
vn 0.7448 0.3859 -0.5444
vn 0.0273 0.7424 -0.6694
vn 0.1361 0.8124 -0.5670
vn -0.5957 0.7666 -0.2397
vn -0.5790 0.7720 -0.2624
vn -0.8560 0.3770 0.3538
vn -0.9400 0.2481 0.2343
vn -0.6059 -0.1603 0.7792
vn -0.6487 -0.3931 0.6517
vn -0.0117 -0.5818 0.8133
vn 0.0671 -0.7292 0.6810
vn 0.9935 -0.1138 0.0030
vn 0.6160 -0.6476 0.4484
vn 0.7615 0.5573 -0.3310
vn 0.0999 0.9270 -0.3614
vn -0.5939 0.7940 -0.1299
vn -0.9405 0.2535 0.2261
vn -0.7372 -0.3714 0.5645
vn -0.0943 -0.7267 0.6805
vn 0.9897 -0.1411 0.0250
vn 0.6102 -0.6902 0.3889
vn 0.7952 0.5634 -0.2242
vn 0.1424 0.9728 -0.1828
vn -0.5609 0.8168 0.1353
vn -0.8413 0.2086 0.4988
vn -0.6041 -0.4109 0.6828
vn -0.0478 -0.7644 0.6430
vn 0.2717 0.4097 0.8708
vn 0.3721 -0.0972 0.9231
vn 0.4864 -0.6992 0.5239
vn 0.5365 -0.6983 0.4738
vn 0.3820 -0.1401 0.9135
vn 0.3235 -0.9129 -0.2488
vn 0.4047 -0.8691 -0.2843
vn -0.0434 -0.5050 -0.8621
vn 0.0317 -0.4957 -0.8679
vn -0.3395 0.1733 -0.9245
vn -0.3169 0.1355 -0.9387
vn -0.4306 0.7588 -0.4887
vn -0.4757 0.7122 -0.5162
vn -0.2555 0.9328 0.2540
vn -0.3320 0.9064 0.2611
vn 0.0834 0.5514 0.8300
vn 0.0443 0.5070 0.8608
vn 0.5914 -0.6555 0.4696
vn 0.3527 -0.1104 0.9292
vn 0.5100 -0.8094 -0.2913
vn 0.1566 -0.4679 -0.8698
vn -0.2427 0.1437 -0.9594
vn -0.4828 0.6983 -0.5284
vn -0.4166 0.8760 0.2430
vn -0.0513 0.5106 0.8583
vn 0.5181 -0.6015 0.6081
vn 0.2947 -0.0045 0.9556
vn 0.4778 -0.8625 -0.1669
vn 0.1493 -0.5350 -0.8316
vn -0.2172 0.0655 -0.9739
vn -0.4499 0.6511 -0.6113
vn -0.3894 0.9105 0.1392
vn -0.0557 0.6075 0.7924
vn 0.5228 -0.5857 0.6194
vn 0.3561 0.0707 0.9318
vn 0.4183 -0.9003 -0.1203
vn 0.0900 -0.6012 -0.7940
vn -0.2250 0.0625 -0.9724
vn -0.3658 0.7004 -0.6128
vn -0.2560 0.9616 0.0992
vn 0.0475 0.6836 0.7283
vn 0.9065 0.3146 -0.2816
vn 0.5732 -0.5694 -0.5892
vn -0.1544 -0.6152 -0.7731
vn -0.3037 -0.6503 -0.6964
vn 0.4642 -0.7849 -0.4103
vn -0.7957 -0.2474 -0.5529
vn -0.8125 -0.1433 -0.5651
vn -0.9406 0.3362 -0.0472
vn -0.8856 0.4310 -0.1731
vn -0.4660 0.7734 0.4297
vn -0.4730 0.8458 0.2468
vn 0.3076 0.7651 0.5657
vn 0.2297 0.8452 0.4826
vn 0.8752 0.3644 0.3183
vn 0.8218 0.3716 0.4318
vn 0.9755 -0.1683 -0.1418
vn 0.9428 -0.3210 0.0897
vn -0.1294 -0.8184 -0.5599
vn 0.5603 -0.7913 -0.2447
vn -0.7160 -0.3744 -0.5892
vn -0.9208 0.2748 -0.2766
vn -0.4972 0.8293 0.2552
vn 0.2659 0.8130 0.5180
vn 0.8407 0.3594 0.4050
vn 0.9503 -0.2977 0.0915
vn -0.2088 -0.6213 -0.7552
vn 0.5296 -0.5879 -0.6114
vn -0.7994 -0.2841 -0.5293
vn -0.9690 0.2369 -0.0701
vn -0.5894 0.6620 0.4631
vn 0.2014 0.6847 0.7004
vn 0.8376 0.3191 0.4433
vn 0.9751 -0.1931 -0.1090
vn 0.6550 -0.5779 -0.4869
vn -0.1065 -0.6202 -0.7772
vn -0.0544 -0.6812 -0.7301
vn 0.6530 -0.6220 -0.4322
vn -0.7596 -0.2501 -0.6005
vn -0.7095 -0.3195 -0.6281
vn -0.9540 0.2739 -0.1216
vn -0.9423 0.2453 -0.2279
vn -0.6126 0.6801 0.4028
vn -0.6502 0.7143 0.2589
vn 0.0889 0.7309 0.6767
vn 0.0532 0.8049 0.5910
vn 0.7394 0.3931 0.5466
vn 0.7456 0.4075 0.5272
vn 0.9869 -0.1386 0.0827
vn 0.9786 -0.1815 0.0970
vn -0.0642 -0.5438 -0.8367
vn 0.6373 -0.5068 -0.5805
vn -0.7272 -0.2273 -0.6478
vn -0.9435 0.3207 -0.0832
vn -0.5337 0.7067 0.4645
vn 0.1214 0.7129 0.6907
vn 0.7523 0.3706 0.5447
vn 0.9897 -0.1430 0.0048
vn 0.1110 -0.4008 -0.9094
vn 0.7706 -0.3442 -0.5363
vn -0.5734 -0.1458 -0.8062
vn -0.9162 0.2599 -0.3050
vn -0.7261 0.5993 0.3372
vn -0.0709 0.6670 0.7417
vn 0.6472 0.4139 0.6402
vn 0.9940 -0.0012 0.1097
vn 0.3220 0.8505 -0.4159
vn -0.5758 -0.7764 -0.2562
vn -0.5979 -0.6250 0.5018
vn -0.6567 -0.5861 0.4745
vn -0.6167 -0.7406 -0.2668
vn -0.3223 -0.0994 0.9414
vn -0.3724 -0.0976 0.9229
vn 0.0823 0.4891 0.8683
vn 0.0791 0.4680 0.8802
vn 0.4133 0.8513 0.3231
vn 0.4838 0.8172 0.3131
vn 0.4745 0.7644 -0.4365
vn 0.5583 0.6796 -0.4759
vn 0.2009 0.2348 -0.9511
vn 0.2547 0.1547 -0.9546
vn -0.2422 -0.4172 -0.8760
vn -0.2309 -0.4316 -0.8720
vn -0.5598 -0.6973 0.4477
vn -0.5504 -0.7549 -0.3565
vn -0.2435 -0.1846 0.9522
vn 0.2062 0.4522 0.8678
vn 0.4881 0.8346 0.2553
vn 0.4208 0.7706 -0.4787
vn 0.1124 0.3080 -0.9447
vn -0.2592 -0.3160 -0.9127
vn -0.3482 -0.8137 0.4654
vn -0.5828 -0.7690 -0.2626
vn 0.0070 -0.3433 0.9392
vn 0.3056 0.2610 0.9157
vn 0.4604 0.7983 0.3883
vn 0.2565 0.8642 -0.4329
vn -0.1809 0.4038 -0.8968
vn -0.5313 -0.2639 -0.8050
vn -0.5099 -0.7007 0.4989
vn -0.6706 -0.6930 -0.2646
vn -0.1194 -0.2597 0.9583
vn 0.3112 0.3307 0.8910
vn 0.5452 0.7731 0.3243
vn 0.3742 0.8002 -0.4686
vn -0.0845 0.3627 -0.9281
vn -0.4929 -0.2233 -0.8409
vn -0.7602 -0.5141 0.3972
vn -0.7636 -0.5789 -0.2860
vn -0.4354 -0.1025 0.8944
vn 0.1017 0.4509 0.8868
vn 0.5280 0.7881 0.3165
vn 0.5277 0.7104 -0.4656
vn 0.0837 0.2481 -0.9651
vn -0.4548 -0.2881 -0.8427
vn -0.6206 0.7721 -0.1367
vn -0.3317 -0.6713 -0.6628
vn 0.1278 -0.9704 -0.2049
vn 0.1872 -0.9458 -0.2653
vn -0.3020 -0.6178 -0.7260
vn 0.5082 -0.7760 0.3736
vn 0.5589 -0.7421 0.3701
vn 0.5987 -0.1290 0.7905
vn 0.5665 -0.0831 0.8199
vn 0.3003 0.6044 0.7379
vn 0.2044 0.5980 0.7750
vn -0.1802 0.9490 0.2586
vn -0.2611 0.9123 0.3155
vn -0.5769 0.7308 -0.3648
vn -0.6082 0.7319 -0.3072
vn -0.6457 0.0306 -0.7629
vn -0.6426 0.0904 -0.7608
vn 0.0020 -0.9945 -0.1051
vn -0.4364 -0.6947 -0.5718
vn 0.3988 -0.8048 0.4396
vn 0.5328 -0.1850 0.8258
vn 0.3035 0.5614 0.7699
vn -0.1491 0.9578 0.2459
vn -0.5552 0.7226 -0.4118
vn -0.6741 0.0041 -0.7386
vn -0.2807 -0.8673 0.4111
vn -0.7118 -0.6949 -0.1017
vn 0.2920 -0.6001 0.7447
vn 0.6882 0.1460 0.7106
vn 0.5026 0.8360 0.2204
vn 0.0389 0.9624 -0.2687
vn -0.4732 0.6151 -0.6306
vn -0.8052 -0.1246 -0.5798
vn -0.1382 -0.7429 0.6550
vn -0.7016 -0.6790 0.2161
vn 0.4752 -0.3796 0.7938
vn 0.8225 0.2925 0.4878
vn 0.6028 0.7938 -0.0802
vn 0.0581 0.8612 -0.5049
vn -0.5545 0.5272 -0.6438
vn -0.9241 -0.1461 -0.3530
vn -0.1486 -0.6979 0.7006
vn -0.8168 -0.5249 0.2395
vn 0.5171 -0.3318 0.7890
vn 0.8259 0.2408 0.5097
vn 0.6161 0.7874 -0.0188
vn -0.0410 0.8916 -0.4509
vn -0.6984 0.5484 -0.4599
vn -0.9451 0.0297 -0.3255
vn -0.2751 0.5685 0.7754
# 342 vertex normals

vt 0.5954 0.0891 -2.5777
vt 0.6733 0.1306 2.5777
vt 0.6218 0.2106 -2.5777
vt 0.5529 0.1750 -2.5777
vt 0.0200 0.1306 2.5777
vt 0.0952 0.0873 -2.5777
vt 0.1310 0.1695 -2.5777
vt 0.0651 0.2127 -2.5777
vt 0.1742 0.0510 -2.5777
vt 0.1998 0.1310 -2.5777
vt 0.2577 0.0273 -2.5777
vt 0.2727 0.1061 -2.5777
vt 0.3437 0.0200 -2.5777
vt 0.3474 0.1009 -2.5777
vt 0.4300 0.0299 -2.5777
vt 0.4189 0.1148 -2.5777
vt 0.5141 0.0543 -2.5777
vt 0.4864 0.1416 -2.5777
vt 0.5919 0.2606 -2.5777
vt 0.5552 0.3273 -2.5777
vt 0.5100 0.3051 -2.5777
vt 0.5325 0.2270 -2.5777
vt 0.1520 0.2249 -2.5777
vt 0.1761 0.3007 -2.5777
vt 0.1318 0.3290 -2.5777
vt 0.0935 0.2627 -2.5777
vt 0.2136 0.1878 -2.5777
vt 0.2266 0.2794 -2.5777
vt 0.2795 0.1622 -2.5777
vt 0.2843 0.2681 -2.5777
vt 0.3474 0.1554 -2.5777
vt 0.3450 0.2681 -2.5777
vt 0.4126 0.1679 -2.5777
vt 0.4045 0.2744 -2.5777
vt 0.4735 0.1940 -2.5777
vt 0.4605 0.2877 -2.5777
vt 0.4980 0.4053 -2.5777
vt 0.4667 0.3839 -2.5777
vt 0.2336 0.3963 -2.5777
vt 0.1938 0.4088 -2.5777
vt 0.2770 0.3902 -2.5777
vt 0.3198 0.3868 -2.5777
vt 0.3598 0.3816 -2.5777
vt 0.3965 0.3764 -2.5777
vt 0.4316 0.3751 -2.5777
vt 0.4205 0.4980 -2.5777
vt 0.4458 0.5076 -2.5777
vt 0.4034 0.5762 -2.5777
vt 0.3895 0.5766 -2.5777
vt 0.2605 0.5054 -2.5777
vt 0.2810 0.4924 -2.5777
vt 0.3079 0.5673 -2.5777
vt 0.2981 0.5771 -2.5777
vt 0.3002 0.4839 -2.5777
vt 0.3204 0.5610 -2.5777
vt 0.3202 0.4791 -2.5777
vt 0.3343 0.5596 -2.5777
vt 0.3424 0.4779 -2.5777
vt 0.3482 0.5633 -2.5777
vt 0.3674 0.4812 -2.5777
vt 0.3614 0.5696 -2.5777
vt 0.3942 0.4886 -2.5777
vt 0.3752 0.5746 -2.5777
vt 0.4661 0.4725 -2.5777
vt 0.4395 0.4553 -2.5777
vt 0.2675 0.4595 -2.5777
vt 0.2404 0.4681 -2.5777
vt 0.2931 0.4532 -2.5777
vt 0.3176 0.4469 -2.5777
vt 0.3439 0.4413 -2.5777
vt 0.3740 0.4385 -2.5777
vt 0.4074 0.4428 -2.5777
vt 0.3697 0.6665 -2.5777
vt 0.3644 0.6664 -2.5777
vt 0.3350 0.6643 -2.5777
vt 0.3309 0.6673 -2.5777
vt 0.3398 0.6629 -2.5777
vt 0.3448 0.6631 -2.5777
vt 0.3496 0.6642 -2.5777
vt 0.3543 0.6656 -2.5777
vt 0.3593 0.6664 -2.5777
vt 0.3510 0.7045 -2.5777
vt 0.8524 0.4287 -0.7393
vt 0.8767 0.4299 0.7393
vt 0.8509 0.5020 -0.7393
vt 0.8336 0.5009 -0.7393
vt 0.6893 0.4299 0.7393
vt 0.7102 0.4190 -0.7393
vt 0.7290 0.4959 -0.7393
vt 0.7126 0.5025 -0.7393
vt 0.7332 0.4131 -0.7393
vt 0.7466 0.4918 -0.7393
vt 0.7570 0.4131 -0.7393
vt 0.7648 0.4911 -0.7393
vt 0.7806 0.4176 -0.7393
vt 0.7823 0.4933 -0.7393
vt 0.8042 0.4231 -0.7393
vt 0.7993 0.4966 -0.7393
vt 0.8283 0.4270 -0.7393
vt 0.8163 0.4993 -0.7393
vt 0.8413 0.5449 -0.7393
vt 0.8257 0.5424 -0.7393
vt 0.7346 0.5400 -0.7393
vt 0.7186 0.5460 -0.7393
vt 0.7512 0.5338 -0.7393
vt 0.7681 0.5303 -0.7393
vt 0.7845 0.5308 -0.7393
vt 0.7987 0.5341 -0.7393
vt 0.8120 0.5384 -0.7393
vt 0.8310 0.5856 -0.7393
vt 0.8192 0.5800 -0.7393
vt 0.7425 0.5859 -0.7393
vt 0.7281 0.5892 -0.7393
vt 0.7567 0.5804 -0.7393
vt 0.7705 0.5746 -0.7393
vt 0.7839 0.5712 -0.7393
vt 0.7967 0.5714 -0.7393
vt 0.8083 0.5748 -0.7393
vt 0.8161 0.6107 -0.7393
vt 0.8269 0.6162 -0.7393
vt 0.8231 0.6451 -0.7393
vt 0.8136 0.6427 -0.7393
vt 0.7405 0.6163 -0.7393
vt 0.7516 0.6154 -0.7393
vt 0.7530 0.6426 -0.7393
vt 0.7438 0.6449 -0.7393
vt 0.7617 0.6123 -0.7393
vt 0.7623 0.6417 -0.7393
vt 0.7713 0.6081 -0.7393
vt 0.7724 0.6418 -0.7393
vt 0.7815 0.6046 -0.7393
vt 0.7832 0.6421 -0.7393
vt 0.7928 0.6035 -0.7393
vt 0.7939 0.6421 -0.7393
vt 0.8046 0.6057 -0.7393
vt 0.8040 0.6419 -0.7393
vt 0.8091 0.6695 -0.7393
vt 0.8032 0.6643 -0.7393
vt 0.7644 0.6668 -0.7393
vt 0.7572 0.6692 -0.7393
vt 0.7709 0.6647 -0.7393
vt 0.7769 0.6627 -0.7393
vt 0.7827 0.6611 -0.7393
vt 0.7891 0.6600 -0.7393
vt 0.7962 0.6608 -0.7393
vt 0.7918 0.6915 -0.7393
vt 0.7904 0.6892 -0.7393
vt 0.7769 0.6906 -0.7393
vt 0.7745 0.6918 -0.7393
vt 0.7791 0.6893 -0.7393
vt 0.7813 0.6880 -0.7393
vt 0.7836 0.6869 -0.7393
vt 0.7861 0.6867 -0.7393
vt 0.7885 0.6875 -0.7393
vt 0.7833 0.6987 -0.7393
vt 0.5354 0.4906 -0.2125
vt 0.5424 0.4919 0.2125
vt 0.5405 0.5208 -0.2125
vt 0.5341 0.5197 -0.2125
vt 0.4885 0.4919 0.2125
vt 0.4951 0.4919 -0.2125
vt 0.4969 0.5207 -0.2125
vt 0.4910 0.5209 -0.2125
vt 0.5017 0.4916 -0.2125
vt 0.5026 0.5203 -0.2125
vt 0.5087 0.4908 -0.2125
vt 0.5089 0.5197 -0.2125
vt 0.5157 0.4899 -0.2125
vt 0.5154 0.5190 -0.2125
vt 0.5221 0.4893 -0.2125
vt 0.5215 0.5187 -0.2125
vt 0.5285 0.4896 -0.2125
vt 0.5276 0.5189 -0.2125
vt 0.5350 0.5554 -0.2125
vt 0.5297 0.5559 -0.2125
vt 0.5005 0.5533 -0.2125
vt 0.4959 0.5553 -0.2125
vt 0.5052 0.5536 -0.2125
vt 0.5101 0.5552 -0.2125
vt 0.5150 0.5569 -0.2125
vt 0.5197 0.5577 -0.2125
vt 0.5246 0.5572 -0.2125
vt 0.5246 0.5995 -0.2125
vt 0.5221 0.6000 -0.2125
vt 0.5077 0.5985 -0.2125
vt 0.5055 0.5997 -0.2125
vt 0.5099 0.5977 -0.2125
vt 0.5125 0.5977 -0.2125
vt 0.5151 0.5984 -0.2125
vt 0.5173 0.5993 -0.2125
vt 0.5196 0.5999 -0.2125
vt 0.5220 0.6324 -0.2125
vt 0.5204 0.6313 -0.2125
vt 0.5106 0.6328 -0.2125
vt 0.5088 0.6327 -0.2125
vt 0.5123 0.6325 -0.2125
vt 0.5139 0.6318 -0.2125
vt 0.5155 0.6309 -0.2125
vt 0.5171 0.6304 -0.2125
vt 0.5188 0.6305 -0.2125
vt 0.5156 0.6461 -0.2125
vt 0.8179 0.7215 -0.5709
vt 0.8340 0.7291 0.5709
vt 0.8153 0.7859 -0.5709
vt 0.8012 0.7860 -0.5709
vt 0.6893 0.7291 0.5709
vt 0.7077 0.7252 -0.5709
vt 0.7245 0.7773 -0.5709
vt 0.7131 0.7820 -0.5709
vt 0.7265 0.7217 -0.5709
vt 0.7362 0.7754 -0.5709
vt 0.7456 0.7183 -0.5709
vt 0.7476 0.7764 -0.5709
vt 0.7644 0.7156 -0.5709
vt 0.7593 0.7790 -0.5709
vt 0.7830 0.7147 -0.5709
vt 0.7721 0.7825 -0.5709
vt 0.8009 0.7165 -0.5709
vt 0.7863 0.7851 -0.5709
vt 0.8025 0.8206 -0.5709
vt 0.7924 0.8211 -0.5709
vt 0.7232 0.8159 -0.5709
vt 0.7110 0.8179 -0.5709
vt 0.7359 0.8191 -0.5709
vt 0.7483 0.8238 -0.5709
vt 0.7606 0.8268 -0.5709
vt 0.7722 0.8265 -0.5709
vt 0.7826 0.8240 -0.5709
vt 0.7952 0.8673 -0.5709
vt 0.7862 0.8682 -0.5709
vt 0.7304 0.8626 -0.5709
vt 0.7220 0.8662 -0.5709
vt 0.7394 0.8617 -0.5709
vt 0.7487 0.8635 -0.5709
vt 0.7581 0.8665 -0.5709
vt 0.7677 0.8688 -0.5709
vt 0.7772 0.8692 -0.5709
vt 0.7777 0.8946 -0.5709
vt 0.7852 0.8949 -0.5709
vt 0.7794 0.9192 -0.5709
vt 0.7737 0.9196 -0.5709
vt 0.7298 0.8939 -0.5709
vt 0.7367 0.8913 -0.5709
vt 0.7388 0.9159 -0.5709
vt 0.7334 0.9184 -0.5709
vt 0.7437 0.8900 -0.5709
vt 0.7444 0.9146 -0.5709
vt 0.7504 0.8902 -0.5709
vt 0.7503 0.9148 -0.5709
vt 0.7567 0.8915 -0.5709
vt 0.7561 0.9163 -0.5709
vt 0.7632 0.8931 -0.5709
vt 0.7619 0.9182 -0.5709
vt 0.7702 0.8941 -0.5709
vt 0.7678 0.9194 -0.5709
vt 0.7714 0.9496 -0.5709
vt 0.7675 0.9481 -0.5709
vt 0.7453 0.9474 -0.5709
vt 0.7416 0.9497 -0.5709
vt 0.7488 0.9446 -0.5709
vt 0.7527 0.9425 -0.5709
vt 0.7569 0.9421 -0.5709
vt 0.7608 0.9435 -0.5709
vt 0.7642 0.9458 -0.5709
vt 0.7613 0.9724 -0.5709
vt 0.7601 0.9718 -0.5709
vt 0.7521 0.9720 -0.5709
vt 0.7509 0.9725 -0.5709
vt 0.7534 0.9715 -0.5709
vt 0.7547 0.9712 -0.5709
vt 0.7560 0.9710 -0.5709
vt 0.7574 0.9711 -0.5709
vt 0.7588 0.9713 -0.5709
vt 0.7561 0.9800 -0.5709
vt 0.8623 0.0309 -0.7826
vt 0.8876 0.0321 0.7826
vt 0.8638 0.1272 -0.7826
vt 0.8449 0.1283 -0.7826
vt 0.6893 0.0321 0.7826
vt 0.7130 0.0238 -0.7826
vt 0.7293 0.1192 -0.7826
vt 0.7121 0.1255 -0.7826
vt 0.7379 0.0200 -0.7826
vt 0.7479 0.1183 -0.7826
vt 0.7628 0.0207 -0.7826
vt 0.7670 0.1220 -0.7826
vt 0.7872 0.0240 -0.7826
vt 0.7864 0.1272 -0.7826
vt 0.8115 0.0276 -0.7826
vt 0.8063 0.1303 -0.7826
vt 0.8367 0.0300 -0.7826
vt 0.8260 0.1305 -0.7826
vt 0.8434 0.1895 -0.7826
vt 0.8276 0.1895 -0.7826
vt 0.7436 0.1847 -0.7826
vt 0.7279 0.1884 -0.7826
vt 0.7596 0.1852 -0.7826
vt 0.7737 0.1882 -0.7826
vt 0.7866 0.1909 -0.7826
vt 0.7994 0.1921 -0.7826
vt 0.8130 0.1913 -0.7826
vt 0.8275 0.2666 -0.7826
vt 0.8168 0.2722 -0.7826
vt 0.7524 0.2599 -0.7826
vt 0.7427 0.2665 -0.7826
vt 0.7637 0.2601 -0.7826
vt 0.7752 0.2662 -0.7826
vt 0.7856 0.2738 -0.7826
vt 0.7957 0.2782 -0.7826
vt 0.8061 0.2771 -0.7826
vt 0.8103 0.3439 -0.7826
vt 0.8051 0.3398 -0.7826
vt 0.7680 0.3446 -0.7826
vt 0.7617 0.3444 -0.7826
vt 0.7743 0.3436 -0.7826
vt 0.7800 0.3412 -0.7826
vt 0.7858 0.3382 -0.7826
vt 0.7923 0.3362 -0.7826
vt 0.7991 0.3368 -0.7826
vt 0.7946 0.3864 -0.7826
vt 0.7928 0.3853 -0.7826
vt 0.7803 0.3864 -0.7826
vt 0.7781 0.3867 -0.7826
vt 0.7824 0.3864 -0.7826
vt 0.7845 0.3863 -0.7826
vt 0.7866 0.3859 -0.7826
vt 0.7887 0.3853 -0.7826
vt 0.7907 0.3850 -0.7826
vt 0.7865 0.3970 -0.7826
vt 0.1074 0.4898 -0.3963
vt 0.1204 0.4905 0.3963
vt 0.1139 0.5387 -0.3963
vt 0.1021 0.5367 -0.3963
vt 0.0200 0.4905 0.3963
vt 0.0327 0.4893 -0.3963
vt 0.0382 0.5387 -0.3963
vt 0.0265 0.5379 -0.3963
vt 0.0447 0.4896 -0.3963
vt 0.0488 0.5397 -0.3963
vt 0.0570 0.4905 -0.3963
vt 0.0591 0.5400 -0.3963
vt 0.0700 0.4912 -0.3963
vt 0.0697 0.5392 -0.3963
vt 0.0829 0.4911 -0.3963
vt 0.0804 0.5377 -0.3963
vt 0.0951 0.4904 -0.3963
vt 0.0909 0.5365 -0.3963
vt 0.1093 0.5929 -0.3963
vt 0.0996 0.5924 -0.3963
vt 0.0388 0.5883 -0.3963
vt 0.0293 0.5915 -0.3963
vt 0.0479 0.5866 -0.3963
vt 0.0580 0.5869 -0.3963
vt 0.0692 0.5886 -0.3963
vt 0.0801 0.5906 -0.3963
vt 0.0900 0.5918 -0.3963
vt 0.0930 0.6390 -0.3963
vt 0.0877 0.6361 -0.3963
vt 0.0538 0.6364 -0.3963
vt 0.0483 0.6388 -0.3963
vt 0.0589 0.6329 -0.3963
vt 0.0648 0.6296 -0.3963
vt 0.0719 0.6283 -0.3963
vt 0.0784 0.6297 -0.3963
vt 0.0832 0.6329 -0.3963
vt 0.0850 0.6628 -0.3963
vt 0.0815 0.6614 -0.3963
vt 0.0611 0.6597 -0.3963
vt 0.0577 0.6612 -0.3963
vt 0.0642 0.6585 -0.3963
vt 0.0675 0.6579 -0.3963
vt 0.0713 0.6580 -0.3963
vt 0.0749 0.6588 -0.3963
vt 0.0782 0.6600 -0.3963
vt 0.0758 0.6801 -0.3963
vt 0.0745 0.6791 -0.3963
vt 0.0668 0.6794 -0.3963
vt 0.0648 0.6796 -0.3963
vt 0.0676 0.6794 -0.3963
vt 0.0691 0.6791 -0.3963
vt 0.0705 0.6787 -0.3963
vt 0.0721 0.6787 -0.3963
vt 0.0731 0.6782 -0.3963
vt 0.0700 0.6859 -0.3963
# 384 texture coords

o Tree_03
g Tree_03
usemtl wire_225088199
s 2
f 1/1/1 2/2/2 3/3/3 4/4/4 
s 4
f 2/5/2 5/6/5 6/7/6 3/8/3 
s 8
f 5/6/5 7/9/7 8/10/8 6/7/6 
s 16
f 7/9/7 9/11/9 10/12/10 8/10/8 
s 32
f 9/11/9 11/13/11 12/14/12 10/12/10 
s 64
f 11/13/11 13/15/13 14/16/14 12/14/12 
s 128
f 13/15/13 15/17/15 16/18/16 14/16/14 
s 256
f 15/17/15 1/1/1 4/4/4 16/18/16 
s 2
f 17/19/17 18/20/18 19/21/19 20/22/20 
s 4
f 21/23/21 22/24/22 18/25/18 17/26/17 
s 8
f 23/27/23 24/28/24 22/24/22 21/23/21 
s 16
f 25/29/25 26/30/26 24/28/24 23/27/23 
s 32
f 27/31/27 28/32/28 26/30/26 25/29/25 
s 64
f 29/33/29 30/34/30 28/32/28 27/31/27 
s 128
f 31/35/31 32/36/32 30/34/30 29/33/29 
s 256
f 20/22/20 19/21/19 32/36/32 31/35/31 
s 2
f 19/21/19 18/20/18 33/37/33 34/38/34 
s 4
f 18/25/18 22/24/22 35/39/35 33/40/33 
s 8
f 22/24/22 24/28/24 36/41/36 35/39/35 
s 16
f 24/28/24 26/30/26 37/42/37 36/41/36 
s 32
f 26/30/26 28/32/28 38/43/38 37/42/37 
s 64
f 28/32/28 30/34/30 39/44/39 38/43/38 
s 128
f 30/34/30 32/36/32 40/45/40 39/44/39 
s 256
f 32/36/32 19/21/19 34/38/34 40/45/40 
s 2
f 41/46/41 42/47/42 43/48/43 44/49/44 
s 4
f 42/50/42 45/51/45 46/52/46 43/53/43 
s 8
f 45/51/45 47/54/47 48/55/48 46/52/46 
s 16
f 47/54/47 49/56/49 50/57/50 48/55/48 
s 32
f 49/56/49 51/58/51 52/59/52 50/57/50 
s 64
f 51/58/51 53/60/53 54/61/54 52/59/52 
s 128
f 53/60/53 55/62/55 56/63/56 54/61/54 
s 256
f 55/62/55 41/46/41 44/49/44 56/63/56 
s 2
f 33/37/33 57/64/57 58/65/58 34/38/34 
s 4
f 35/39/35 59/66/59 57/67/57 33/40/33 
s 8
f 36/41/36 60/68/60 59/66/59 35/39/35 
s 16
f 37/42/37 61/69/61 60/68/60 36/41/36 
s 32
f 38/43/38 62/70/62 61/69/61 37/42/37 
s 64
f 39/44/39 63/71/63 62/70/62 38/43/38 
s 128
f 40/45/40 64/72/64 63/71/63 39/44/39 
s 256
f 34/38/34 58/65/58 64/72/64 40/45/40 
s 2
f 44/49/44 43/48/43 65/73/65 66/74/66 
s 4
f 43/53/43 46/52/46 67/75/67 65/76/65 
s 8
f 46/52/46 48/55/48 68/77/68 67/75/67 
s 16
f 48/55/48 50/57/50 69/78/69 68/77/68 
s 32
f 50/57/50 52/59/52 70/79/70 69/78/69 
s 64
f 52/59/52 54/61/54 71/80/71 70/79/70 
s 128
f 54/61/54 56/63/56 72/81/72 71/80/71 
s 256
f 56/63/56 44/49/44 66/74/66 72/81/72 
s 2
f 65/73/65 73/82/73 66/74/66 
s 4
f 67/75/67 73/82/73 65/76/65 
s 8
f 68/77/68 73/82/73 67/75/67 
s 16
f 69/78/69 73/82/73 68/77/68 
s 32
f 70/79/70 73/82/73 69/78/69 
s 64
f 71/80/71 73/82/73 70/79/70 
s 128
f 72/81/72 73/82/73 71/80/71 
s 256
f 66/74/66 73/82/73 72/81/72 
s 2
f 57/64/57 42/47/42 41/46/41 58/65/58 
s 4
f 59/66/59 45/51/45 42/50/42 57/67/57 
s 8
f 60/68/60 47/54/47 45/51/45 59/66/59 
s 16
f 61/69/61 49/56/49 47/54/47 60/68/60 
s 32
f 62/70/62 51/58/51 49/56/49 61/69/61 
s 64
f 63/71/63 53/60/53 51/58/51 62/70/62 
s 128
f 64/72/64 55/62/55 53/60/53 63/71/63 
s 256
f 58/65/58 41/46/41 55/62/55 64/72/64 
s 2
f 3/3/3 17/19/17 20/22/20 4/4/4 
s 4
f 6/7/6 21/23/21 17/26/17 3/8/3 
s 8
f 8/10/8 23/27/23 21/23/21 6/7/6 
s 16
f 10/12/10 25/29/25 23/27/23 8/10/8 
s 32
f 12/14/12 27/31/27 25/29/25 10/12/10 
s 64
f 14/16/14 29/33/29 27/31/27 12/14/12 
s 128
f 16/18/16 31/35/31 29/33/29 14/16/14 
s 256
f 4/4/4 20/22/20 31/35/31 16/18/16 
s 8
f 74/83/74 75/84/75 76/85/76 77/86/77 
f 75/87/75 78/88/78 79/89/79 76/90/76 
f 78/88/78 80/91/80 81/92/81 79/89/79 
f 80/91/80 82/93/82 83/94/83 81/92/81 
f 82/93/82 84/95/84 85/96/85 83/94/83 
f 84/95/84 86/97/86 87/98/87 85/96/85 
f 86/97/86 88/99/88 89/100/89 87/98/87 
f 88/99/88 74/83/74 77/86/77 89/100/89 
f 76/85/76 90/101/90 91/102/91 77/86/77 
f 79/89/79 92/103/92 90/104/90 76/90/76 
f 81/92/81 93/105/93 92/103/92 79/89/79 
f 83/94/83 94/106/94 93/105/93 81/92/81 
f 85/96/85 95/107/95 94/106/94 83/94/83 
f 87/98/87 96/108/96 95/107/95 85/96/85 
f 89/100/89 97/109/97 96/108/96 87/98/87 
f 77/86/77 91/102/91 97/109/97 89/100/89 
s off
f 91/102/91 90/101/90 98/110/98 99/111/99 
f 90/104/90 92/103/92 100/112/100 98/113/98 
f 92/103/92 93/105/93 101/114/101 100/112/100 
f 93/105/93 94/106/94 102/115/102 101/114/101 
f 94/106/94 95/107/95 103/116/103 102/115/102 
f 95/107/95 96/108/96 104/117/104 103/116/103 
f 96/108/96 97/109/97 105/118/105 104/117/104 
f 97/109/97 91/102/91 99/111/99 105/118/105 
f 106/119/106 107/120/107 108/121/108 109/122/109 
f 107/123/107 110/124/110 111/125/111 108/126/108 
f 110/124/110 112/127/112 113/128/113 111/125/111 
f 112/127/112 114/129/114 115/130/115 113/128/113 
f 114/129/114 116/131/116 117/132/117 115/130/115 
f 116/131/116 118/133/118 119/134/119 117/132/117 
f 118/133/118 120/135/120 121/136/121 119/134/119 
f 120/135/120 106/119/106 109/122/109 121/136/121 
f 98/110/98 107/120/107 106/119/106 99/111/99 
f 100/112/100 110/124/110 107/123/107 98/113/98 
f 101/114/101 112/127/112 110/124/110 100/112/100 
f 102/115/102 114/129/114 112/127/112 101/114/101 
f 103/116/103 116/131/116 114/129/114 102/115/102 
f 104/117/104 118/133/118 116/131/116 103/116/103 
f 105/118/105 120/135/120 118/133/118 104/117/104 
f 99/111/99 106/119/106 120/135/120 105/118/105 
f 108/121/108 122/137/122 123/138/123 109/122/109 
f 111/125/111 124/139/124 122/140/122 108/126/108 
f 113/128/113 125/141/125 124/139/124 111/125/111 
f 115/130/115 126/142/126 125/141/125 113/128/113 
f 117/132/117 127/143/127 126/142/126 115/130/115 
f 119/134/119 128/144/128 127/143/127 117/132/117 
f 121/136/121 129/145/129 128/144/128 119/134/119 
f 109/122/109 123/138/123 129/145/129 121/136/121 
f 123/138/123 122/137/122 130/146/130 131/147/131 
f 122/140/122 124/139/124 132/148/132 130/149/130 
f 124/139/124 125/141/125 133/150/133 132/148/132 
f 125/141/125 126/142/126 134/151/134 133/150/133 
f 126/142/126 127/143/127 135/152/135 134/151/134 
f 127/143/127 128/144/128 136/153/136 135/152/135 
f 128/144/128 129/145/129 137/154/137 136/153/136 
f 129/145/129 123/138/123 131/147/131 137/154/137 
f 130/146/130 138/155/138 131/147/131 
f 132/148/132 138/155/138 130/149/130 
f 133/150/133 138/155/138 132/148/132 
f 134/151/134 138/155/138 133/150/133 
f 135/152/135 138/155/138 134/151/134 
f 136/153/136 138/155/138 135/152/135 
f 137/154/137 138/155/138 136/153/136 
f 131/147/131 138/155/138 137/154/137 
s 8
f 139/156/139 140/157/140 141/158/141 142/159/142 
f 140/160/140 143/161/143 144/162/144 141/163/141 
f 143/161/143 145/164/145 146/165/146 144/162/144 
f 145/164/145 147/166/147 148/167/148 146/165/146 
f 147/166/147 149/168/149 150/169/150 148/167/148 
f 149/168/149 151/170/151 152/171/152 150/169/150 
f 151/170/151 153/172/153 154/173/154 152/171/152 
f 153/172/153 139/156/139 142/159/142 154/173/154 
f 141/158/141 155/174/155 156/175/156 142/159/142 
f 144/162/144 157/176/157 155/177/155 141/163/141 
f 146/165/146 158/178/158 157/176/157 144/162/144 
f 148/167/148 159/179/159 158/178/158 146/165/146 
f 150/169/150 160/180/160 159/179/159 148/167/148 
f 152/171/152 161/181/161 160/180/160 150/169/150 
f 154/173/154 162/182/162 161/181/161 152/171/152 
f 142/159/142 156/175/156 162/182/162 154/173/154 
s off
f 156/175/156 155/174/155 163/183/163 164/184/164 
f 155/177/155 157/176/157 165/185/165 163/186/163 
f 157/176/157 158/178/158 166/187/166 165/185/165 
f 158/178/158 159/179/159 167/188/167 166/187/166 
f 159/179/159 160/180/160 168/189/168 167/188/167 
f 160/180/160 161/181/161 169/190/169 168/189/168 
f 161/181/161 162/182/162 170/191/170 169/190/169 
f 162/182/162 156/175/156 164/184/164 170/191/170 
f 164/184/164 163/183/163 171/192/171 172/193/172 
f 163/186/163 165/185/165 173/194/173 171/195/171 
f 165/185/165 166/187/166 174/196/174 173/194/173 
f 166/187/166 167/188/167 175/197/175 174/196/174 
f 167/188/167 168/189/168 176/198/176 175/197/175 
f 168/189/168 169/190/169 177/199/177 176/198/176 
f 169/190/169 170/191/170 178/200/178 177/199/177 
f 170/191/170 164/184/164 172/193/172 178/200/178 
f 172/193/172 171/192/171 179/201/179 
f 171/195/171 173/194/173 179/201/179 
f 173/194/173 174/196/174 179/201/179 
f 174/196/174 175/197/175 179/201/179 
f 175/197/175 176/198/176 179/201/179 
f 176/198/176 177/199/177 179/201/179 
f 177/199/177 178/200/178 179/201/179 
f 178/200/178 172/193/172 179/201/179 
s 8
f 180/202/180 181/203/181 182/204/182 183/205/183 
f 181/206/181 184/207/184 185/208/185 182/209/182 
f 184/207/184 186/210/186 187/211/187 185/208/185 
f 186/210/186 188/212/188 189/213/189 187/211/187 
f 188/212/188 190/214/190 191/215/191 189/213/189 
f 190/214/190 192/216/192 193/217/193 191/215/191 
f 192/216/192 194/218/194 195/219/195 193/217/193 
f 194/218/194 180/202/180 183/205/183 195/219/195 
f 182/204/182 196/220/196 197/221/197 183/205/183 
f 185/208/185 198/222/198 196/223/196 182/209/182 
f 187/211/187 199/224/199 198/222/198 185/208/185 
f 189/213/189 200/225/200 199/224/199 187/211/187 
f 191/215/191 201/226/201 200/225/200 189/213/189 
f 193/217/193 202/227/202 201/226/201 191/215/191 
f 195/219/195 203/228/203 202/227/202 193/217/193 
f 183/205/183 197/221/197 203/228/203 195/219/195 
s off
f 197/221/197 196/220/196 204/229/204 205/230/205 
f 196/223/196 198/222/198 206/231/206 204/232/204 
f 198/222/198 199/224/199 207/233/207 206/231/206 
f 199/224/199 200/225/200 208/234/208 207/233/207 
f 200/225/200 201/226/201 209/235/209 208/234/208 
f 201/226/201 202/227/202 210/236/210 209/235/209 
f 202/227/202 203/228/203 211/237/211 210/236/210 
f 203/228/203 197/221/197 205/230/205 211/237/211 
f 212/238/212 213/239/213 214/240/214 215/241/215 
f 213/242/213 216/243/216 217/244/217 214/245/214 
f 216/243/216 218/246/218 219/247/219 217/244/217 
f 218/246/218 220/248/220 221/249/221 219/247/219 
f 220/248/220 222/250/222 223/251/223 221/249/221 
f 222/250/222 224/252/224 225/253/225 223/251/223 
f 224/252/224 226/254/226 227/255/227 225/253/225 
f 226/254/226 212/238/212 215/241/215 227/255/227 
f 204/229/204 213/239/213 212/238/212 205/230/205 
f 206/231/206 216/243/216 213/242/213 204/232/204 
f 207/233/207 218/246/218 216/243/216 206/231/206 
f 208/234/208 220/248/220 218/246/218 207/233/207 
f 209/235/209 222/250/222 220/248/220 208/234/208 
f 210/236/210 224/252/224 222/250/222 209/235/209 
f 211/237/211 226/254/226 224/252/224 210/236/210 
f 205/230/205 212/238/212 226/254/226 211/237/211 
f 214/240/214 228/256/228 229/257/229 215/241/215 
f 217/244/217 230/258/230 228/259/228 214/245/214 
f 219/247/219 231/260/231 230/258/230 217/244/217 
f 221/249/221 232/261/232 231/260/231 219/247/219 
f 223/251/223 233/262/233 232/261/232 221/249/221 
f 225/253/225 234/263/234 233/262/233 223/251/223 
f 227/255/227 235/264/235 234/263/234 225/253/225 
f 215/241/215 229/257/229 235/264/235 227/255/227 
f 229/257/229 228/256/228 236/265/236 237/266/237 
f 228/259/228 230/258/230 238/267/238 236/268/236 
f 230/258/230 231/260/231 239/269/239 238/267/238 
f 231/260/231 232/261/232 240/270/240 239/269/239 
f 232/261/232 233/262/233 241/271/241 240/270/240 
f 233/262/233 234/263/234 242/272/242 241/271/241 
f 234/263/234 235/264/235 243/273/243 242/272/242 
f 235/264/235 229/257/229 237/266/237 243/273/243 
f 236/265/236 244/274/244 237/266/237 
f 238/267/238 244/274/244 236/268/236 
f 239/269/239 244/274/244 238/267/238 
f 240/270/240 244/274/244 239/269/239 
f 241/271/241 244/274/244 240/270/240 
f 242/272/242 244/274/244 241/271/241 
f 243/273/243 244/274/244 242/272/242 
f 237/266/237 244/274/244 243/273/243 
s 8
f 245/275/245 246/276/246 247/277/247 248/278/248 
f 246/279/246 249/280/249 250/281/250 247/282/247 
f 249/280/249 251/283/251 252/284/252 250/281/250 
f 251/283/251 253/285/253 254/286/254 252/284/252 
f 253/285/253 255/287/255 256/288/256 254/286/254 
f 255/287/255 257/289/257 258/290/258 256/288/256 
f 257/289/257 259/291/259 260/292/260 258/290/258 
f 259/291/259 245/275/245 248/278/248 260/292/260 
f 247/277/247 261/293/261 262/294/262 248/278/248 
f 250/281/250 263/295/263 261/296/261 247/282/247 
f 252/284/252 264/297/264 263/295/263 250/281/250 
f 254/286/254 265/298/265 264/297/264 252/284/252 
f 256/288/256 266/299/266 265/298/265 254/286/254 
f 258/290/258 267/300/267 266/299/266 256/288/256 
f 260/292/260 268/301/268 267/300/267 258/290/258 
f 248/278/248 262/294/262 268/301/268 260/292/260 
s off
f 262/294/262 261/293/261 269/302/269 270/303/270 
f 261/296/261 263/295/263 271/304/271 269/305/269 
f 263/295/263 264/297/264 272/306/272 271/304/271 
f 264/297/264 265/298/265 273/307/273 272/306/272 
f 265/298/265 266/299/266 274/308/274 273/307/273 
f 266/299/266 267/300/267 275/309/275 274/308/274 
f 267/300/267 268/301/268 276/310/276 275/309/275 
f 268/301/268 262/294/262 270/303/270 276/310/276 
f 270/303/270 269/302/269 277/311/277 278/312/278 
f 269/305/269 271/304/271 279/313/279 277/314/277 
f 271/304/271 272/306/272 280/315/280 279/313/279 
f 272/306/272 273/307/273 281/316/281 280/315/280 
f 273/307/273 274/308/274 282/317/282 281/316/281 
f 274/308/274 275/309/275 283/318/283 282/317/282 
f 275/309/275 276/310/276 284/319/284 283/318/283 
f 276/310/276 270/303/270 278/312/278 284/319/284 
f 278/312/278 277/311/277 285/320/285 286/321/286 
f 277/314/277 279/313/279 287/322/287 285/323/285 
f 279/313/279 280/315/280 288/324/288 287/322/287 
f 280/315/280 281/316/281 289/325/289 288/324/288 
f 281/316/281 282/317/282 290/326/290 289/325/289 
f 282/317/282 283/318/283 291/327/291 290/326/290 
f 283/318/283 284/319/284 292/328/292 291/327/291 
f 284/319/284 278/312/278 286/321/286 292/328/292 
f 285/320/285 293/329/293 286/321/286 
f 287/322/287 293/329/293 285/323/285 
f 288/324/288 293/329/293 287/322/287 
f 289/325/289 293/329/293 288/324/288 
f 290/326/290 293/329/293 289/325/289 
f 291/327/291 293/329/293 290/326/290 
f 292/328/292 293/329/293 291/327/291 
f 286/321/286 293/329/293 292/328/292 
s 8
f 294/330/294 295/331/295 296/332/296 297/333/297 
f 295/334/295 298/335/298 299/336/299 296/337/296 
f 298/335/298 300/338/300 301/339/301 299/336/299 
f 300/338/300 302/340/302 303/341/303 301/339/301 
f 302/340/302 304/342/304 305/343/305 303/341/303 
f 304/342/304 306/344/306 307/345/307 305/343/305 
f 306/344/306 308/346/308 309/347/309 307/345/307 
f 308/346/308 294/330/294 297/333/297 309/347/309 
f 296/332/296 310/348/310 311/349/311 297/333/297 
f 299/336/299 312/350/312 310/351/310 296/337/296 
f 301/339/301 313/352/313 312/350/312 299/336/299 
f 303/341/303 314/353/314 313/352/313 301/339/301 
f 305/343/305 315/354/315 314/353/314 303/341/303 
f 307/345/307 316/355/316 315/354/315 305/343/305 
f 309/347/309 317/356/317 316/355/316 307/345/307 
f 297/333/297 311/349/311 317/356/317 309/347/309 
s off
f 311/349/311 310/348/310 318/357/318 319/358/319 
f 310/351/310 312/350/312 320/359/320 318/360/318 
f 312/350/312 313/352/313 321/361/321 320/359/320 
f 313/352/313 314/353/314 322/362/322 321/361/321 
f 314/353/314 315/354/315 323/363/323 322/362/322 
f 315/354/315 316/355/316 324/364/324 323/363/323 
f 316/355/316 317/356/317 325/365/325 324/364/324 
f 317/356/317 311/349/311 319/358/319 325/365/325 
f 319/358/319 318/357/318 326/366/326 327/367/327 
f 318/360/318 320/359/320 328/368/328 326/369/326 
f 320/359/320 321/361/321 329/370/329 328/368/328 
f 321/361/321 322/362/322 330/371/330 329/370/329 
f 322/362/322 323/363/323 331/372/331 330/371/330 
f 323/363/323 324/364/324 332/373/332 331/372/331 
f 324/364/324 325/365/325 333/374/333 332/373/332 
f 325/365/325 319/358/319 327/367/327 333/374/333 
f 327/367/327 326/366/326 334/375/334 335/376/335 
f 326/369/326 328/368/328 336/377/336 334/378/334 
f 328/368/328 329/370/329 337/379/337 336/377/336 
f 329/370/329 330/371/330 338/380/338 337/379/337 
f 330/371/330 331/372/331 339/381/339 338/380/338 
f 331/372/331 332/373/332 340/382/340 339/381/339 
f 332/373/332 333/374/333 341/383/341 340/382/340 
f 333/374/333 327/367/327 335/376/335 341/383/341 
f 334/375/334 342/384/342 335/376/335 
f 336/377/336 342/384/342 334/378/334 
f 337/379/337 342/384/342 336/377/336 
f 338/380/338 342/384/342 337/379/337 
f 339/381/339 342/384/342 338/380/338 
f 340/382/340 342/384/342 339/381/339 
f 341/383/341 342/384/342 340/382/340 
f 335/376/335 342/384/342 341/383/341 
# 288 polygons - 48 triangles

