# 3ds Max Wavefront OBJ Exporter v0.97b - (c)2007 guruware
# File Created: 05.03.2020 12:12:10

mtllib SmallRock_low.mtl

#
# object SmallRock_Low
#

v  -0.2652 0.0179 0.0824
v  -0.2737 0.0289 0.1000
v  -0.3004 0.0367 0.0333
v  -0.2845 0.0208 0.0349
v  -0.2525 0.0150 0.0456
v  -0.2754 0.0208 -0.1460
v  -0.2670 0.0185 -0.1071
v  -0.2893 0.0305 -0.1034
v  -0.3145 0.0900 -0.1193
v  -0.2942 0.0761 -0.1830
v  0.2463 0.0177 0.0687
v  0.2283 0.0148 0.0917
v  0.2294 0.0154 0.0508
v  0.2461 0.0210 0.0439
v  0.2511 0.0200 0.0863
v  0.2372 0.0169 0.1102
v  0.2620 0.0339 0.0387
v  -0.2754 0.2090 -0.2235
v  -0.3082 0.2287 -0.1491
v  -0.2178 0.3297 -0.1573
v  -0.2108 0.2974 -0.2204
v  -0.2318 0.1964 -0.2398
v  -0.3235 0.2070 0.0720
v  -0.3237 0.1787 0.0197
v  -0.3224 0.1291 0.0446
v  -0.3258 0.1873 0.1105
v  -0.3155 0.2568 0.0813
v  -0.3105 0.2472 0.0091
v  -0.3204 0.2514 0.1342
v  -0.2853 0.0922 0.1362
v  -0.3139 0.0990 -0.0436
v  -0.2893 0.0332 -0.0359
v  -0.3219 0.1628 -0.0600
v  -0.3030 0.1637 0.1667
v  -0.2196 0.0901 0.1757
v  -0.1482 0.1726 0.1962
v  -0.1925 0.1951 0.2032
v  -0.2698 0.1643 0.1883
v  -0.0716 0.0546 0.1740
v  -0.0568 0.1340 0.1801
v  -0.2134 0.0261 0.1312
v  -0.0761 0.0182 0.1464
v  0.0967 0.0133 -0.0195
v  0.1024 0.0133 0.0484
v  0.0293 0.0133 0.0398
v  0.0457 0.0133 -0.0396
v  0.1322 0.0135 -0.0399
v  0.1668 0.0135 0.0248
v  0.0823 0.0135 -0.1062
v  -0.2050 0.2768 0.2030
v  -0.2118 0.3020 0.1944
v  -0.3082 0.2336 0.1830
v  -0.2839 0.2263 0.1993
v  -0.1975 0.2413 0.2051
v  0.1333 0.1061 0.1531
v  0.1802 0.1068 0.1442
v  0.1584 0.1592 0.1409
v  0.1222 0.1527 0.1494
v  0.2294 0.1702 0.0086
v  0.2473 0.1426 -0.0028
v  0.2097 0.1904 -0.0679
v  0.1940 0.2182 -0.0190
v  0.2356 0.1531 0.0578
v  0.2612 0.1071 0.0564
v  0.1920 0.2184 0.0408
v  -0.1315 0.2321 0.1964
v  -0.1297 0.2759 0.1946
v  -0.1310 0.3068 0.1889
v  -0.1377 0.3357 0.1475
v  -0.2215 0.3309 0.1488
v  -0.2227 0.3379 0.1016
v  -0.2180 0.3387 0.0156
v  -0.2155 0.3368 -0.0802
v  -0.3097 0.2376 -0.0737
v  -0.3216 0.1537 -0.1370
v  -0.2941 0.1338 -0.2065
v  -0.2502 0.1230 -0.2268
v  -0.2578 0.0720 -0.2067
v  -0.2412 0.0170 -0.1586
v  -0.1827 0.0594 -0.2336
v  -0.1735 0.0150 -0.1734
v  -0.1662 0.0135 -0.1075
v  -0.2296 0.0140 -0.1074
v  -0.1768 0.0133 -0.0165
v  -0.2345 0.0141 -0.0271
v  -0.2658 0.0189 -0.0321
v  -0.1891 0.0135 0.0635
v  -0.0774 0.0133 0.0089
v  -0.0783 0.0133 0.0814
v  -0.0774 0.0142 0.1223
v  -0.2020 0.0162 0.1056
v  0.0417 0.0150 0.1432
v  0.0466 0.0401 0.1673
v  0.0534 0.0941 0.1649
v  -0.0394 0.1923 0.1776
v  -0.0172 0.2398 0.1718
v  -0.0023 0.2731 0.1648
v  0.0059 0.3085 0.1273
v  0.0012 0.3178 0.0892
v  -0.1453 0.3420 0.1033
v  -0.1527 0.3433 0.0218
v  -0.1529 0.3406 -0.0808
v  -0.1487 0.3330 -0.1526
v  -0.1403 0.2945 -0.2146
v  0.0113 0.3073 -0.1396
v  0.0052 0.2647 -0.1967
v  -0.0165 0.1401 -0.2298
v  -0.1585 0.1774 -0.2460
v  -0.1755 0.1054 -0.2463
v  -0.0130 0.0814 -0.2307
v  -0.0130 0.0420 -0.2222
v  -0.0352 0.0138 -0.1549
v  -0.0577 0.0134 -0.0891
v  0.0353 0.0133 0.0939
v  0.0389 0.0135 0.1223
v  0.1107 0.0134 0.0903
v  0.1146 0.0135 0.1148
v  0.1178 0.0146 0.1342
v  0.1813 0.0138 0.1047
v  0.1846 0.0149 0.1253
v  0.1882 0.0319 0.1503
v  0.1233 0.0353 0.1604
v  0.1887 0.0687 0.1485
v  0.1286 0.0754 0.1574
v  0.0664 0.1399 0.1603
v  0.0852 0.1831 0.1535
v  0.1056 0.2175 0.1444
v  0.1866 0.1938 0.1094
v  0.1274 0.2598 0.1104
v  0.1916 0.2061 0.0846
v  0.1259 0.2695 0.0835
v  0.1224 0.2795 0.0243
v  -0.0063 0.3243 0.0194
v  -0.0008 0.3214 -0.0699
v  0.1300 0.2779 -0.0542
v  0.1416 0.2468 -0.1178
v  0.1359 0.2047 -0.1808
v  0.1279 0.1197 -0.1954
v  0.1226 0.0680 -0.1810
v  0.2040 0.0924 -0.1166
v  0.1923 0.0556 -0.1065
v  0.1799 0.0279 -0.0920
v  0.1178 0.0346 -0.1650
v  0.2189 0.0194 -0.0144
v  0.1763 0.0136 0.0757
v  0.2521 0.0374 0.1228
v  0.2409 0.0815 0.1210
v  0.2223 0.1266 0.1161
v  0.2549 0.0911 0.0962
v  0.2330 0.1362 0.0929
v  0.2700 0.0468 0.0928
v  0.2760 0.0674 0.0454
v  0.2642 0.1031 -0.0268
v  0.2163 0.1483 -0.1098
v  0.2486 0.0595 -0.0318
v  0.2345 0.0355 -0.0266
# 156 vertices

vn -0.3099 -0.9250 0.2197
vn -0.6070 -0.6439 0.4659
vn -0.8843 -0.4615 0.0716
vn -0.5132 -0.8578 0.0283
vn -0.1026 -0.9946 0.0150
vn -0.5238 -0.7894 -0.3200
vn -0.2870 -0.9579 0.0064
vn -0.7522 -0.6582 -0.0305
vn -0.9583 -0.2692 -0.0954
vn -0.7734 -0.3799 -0.5074
vn 0.3735 -0.9229 -0.0935
vn 0.0937 -0.9953 0.0265
vn 0.1666 -0.9850 -0.0452
vn 0.4262 -0.8857 -0.1839
vn 0.6069 -0.7857 0.1196
vn 0.3408 -0.8593 0.3814
vn 0.7821 -0.5943 -0.1874
vn -0.6353 0.2133 -0.7422
vn -0.8807 0.3938 -0.2632
vn -0.4113 0.8725 -0.2639
vn -0.2675 0.6093 -0.7464
vn -0.2003 0.0531 -0.9783
vn -0.9909 0.1293 -0.0363
vn -0.9973 0.0657 -0.0338
vn -0.9814 -0.1765 0.0761
vn -0.9828 -0.0974 0.1570
vn -0.8538 0.5144 -0.0804
vn -0.8788 0.4682 -0.0917
vn -0.8820 0.4398 0.1693
vn -0.7272 -0.4255 0.5386
vn -0.9690 -0.2465 0.0138
vn -0.7611 -0.6479 -0.0317
vn -0.9998 0.0122 -0.0149
vn -0.7619 -0.3118 0.5677
vn -0.2382 -0.4161 0.8776
vn 0.0911 -0.1612 0.9827
vn -0.0126 -0.1592 0.9872
vn -0.3330 -0.3098 0.8906
vn -0.0343 -0.3598 0.9324
vn 0.1355 -0.0510 0.9895
vn -0.2243 -0.7764 0.5890
vn -0.0593 -0.8456 0.5305
vn 0.0028 -1.0000 -0.0019
vn 0.0016 -1.0000 0.0008
vn 0.0002 -1.0000 0.0001
vn 0.0003 -1.0000 -0.0014
vn 0.0948 -0.9938 -0.0588
vn 0.0513 -0.9986 -0.0152
vn 0.1101 -0.9844 -0.1370
vn -0.0228 0.2098 0.9775
vn -0.2170 0.5937 0.7749
vn -0.7769 0.2251 0.5880
vn -0.3681 0.0639 0.9276
vn 0.0381 0.0196 0.9991
vn 0.1747 0.1150 0.9779
vn 0.3373 0.1873 0.9226
vn 0.3800 0.2407 0.8931
vn 0.2081 0.1243 0.9702
vn 0.8116 0.5830 0.0376
vn 0.8763 0.4812 -0.0240
vn 0.8029 0.5476 -0.2355
vn 0.7481 0.6619 -0.0472
vn 0.8221 0.5315 0.2040
vn 0.9061 0.3889 0.1667
vn 0.7277 0.6769 0.1108
vn 0.1670 -0.0031 0.9859
vn 0.1748 0.1169 0.9776
vn 0.1598 0.5640 0.8102
vn 0.0870 0.9308 0.3550
vn -0.3508 0.8671 0.3537
vn -0.3822 0.9215 0.0693
vn -0.4070 0.9132 -0.0214
vn -0.4147 0.9086 -0.0499
vn -0.8965 0.4383 -0.0645
vn -0.9819 -0.0010 -0.1893
vn -0.7437 -0.1118 -0.6591
vn -0.3710 -0.1822 -0.9106
vn -0.4516 -0.4679 -0.7597
vn -0.1771 -0.8982 -0.4024
vn -0.1937 -0.5389 -0.8198
vn -0.0276 -0.9367 -0.3489
vn -0.0035 -0.9999 -0.0130
vn -0.0588 -0.9980 -0.0236
vn -0.0066 -1.0000 -0.0010
vn -0.0776 -0.9970 -0.0052
vn -0.3225 -0.9462 -0.0263
vn -0.0187 -0.9994 0.0291
vn -0.0003 -1.0000 -0.0001
vn -0.0023 -0.9999 0.0107
vn -0.0179 -0.9950 0.0978
vn -0.0678 -0.9777 0.1986
vn 0.0158 -0.9028 0.4298
vn 0.0353 -0.3621 0.9315
vn 0.1319 0.0440 0.9903
vn 0.1859 0.0095 0.9825
vn 0.2148 0.0665 0.9744
vn 0.3159 0.4049 0.8581
vn 0.3104 0.8365 0.4517
vn 0.2688 0.9548 0.1272
vn 0.0542 0.9958 0.0738
vn 0.0264 0.9996 -0.0052
vn 0.0326 0.9973 -0.0653
vn 0.0736 0.9467 -0.3135
vn 0.1567 0.5976 -0.7863
vn 0.3174 0.8724 -0.3718
vn 0.2704 0.5263 -0.8062
vn 0.1898 0.1170 -0.9748
vn 0.0488 0.1236 -0.9911
vn -0.1023 -0.1142 -0.9882
vn 0.2102 -0.0911 -0.9734
vn 0.1485 -0.6202 -0.7702
vn 0.0476 -0.9784 -0.2012
vn 0.0001 -1.0000 -0.0037
vn 0.0003 -1.0000 0.0035
vn -0.0007 -0.9992 0.0400
vn 0.0025 -1.0000 0.0034
vn 0.0062 -0.9995 0.0307
vn 0.0438 -0.9363 0.3484
vn 0.0185 -0.9994 0.0292
vn 0.0864 -0.9445 0.3171
vn 0.2468 -0.4498 0.8583
vn 0.0872 -0.4103 0.9078
vn 0.3118 0.1008 0.9448
vn 0.1381 0.0846 0.9868
vn 0.1678 0.0667 0.9836
vn 0.2098 0.0974 0.9729
vn 0.3496 0.2928 0.8900
vn 0.6356 0.4635 0.6174
vn 0.5283 0.6650 0.5279
vn 0.7398 0.6024 0.2998
vn 0.5291 0.8280 0.1857
vn 0.4842 0.8719 0.0733
vn 0.2236 0.9744 0.0235
vn 0.2241 0.9706 -0.0874
vn 0.5138 0.8456 -0.1449
vn 0.6003 0.7018 -0.3837
vn 0.5160 0.3993 -0.7578
vn 0.4646 -0.0856 -0.8814
vn 0.4835 -0.3551 -0.8001
vn 0.7378 -0.2395 -0.6312
vn 0.6679 -0.4721 -0.5753
vn 0.4421 -0.8183 -0.3674
vn 0.3858 -0.7265 -0.5686
vn 0.3636 -0.9137 -0.1812
vn 0.0192 -0.9998 0.0017
vn 0.6809 -0.2835 0.6753
vn 0.6229 0.2544 0.7398
vn 0.6153 0.3601 0.7012
vn 0.8382 0.3390 0.4272
vn 0.7898 0.4591 0.4066
vn 0.9499 -0.1876 0.2499
vn 0.9993 -0.0227 -0.0304
vn 0.9492 0.0974 -0.2992
vn 0.8100 0.2018 -0.5506
vn 0.8084 -0.3957 -0.4358
vn 0.6585 -0.6547 -0.3712
# 156 vertex normals

vt 0.9132 0.1417 -0.0224
vt 0.9127 0.1442 -0.0224
vt 0.9068 0.1381 0.0224
vt 0.9092 0.1373 -0.0224
vt 0.9132 0.1372 -0.0224
vt 0.9032 0.1171 -0.0224
vt 0.9056 0.1211 -0.0224
vt 0.9029 0.1224 -0.0224
vt 0.7857 0.2253 0.0424
vt 0.7935 0.2271 0.0424
vt 0.7930 0.2361 0.0424
vt 0.7852 0.2326 0.0424
vt 0.8850 0.1844 0.0424
vt 0.8859 0.1810 0.0424
vt 0.8885 0.1879 0.0424
vt 0.8868 0.1885 0.0424
vt 0.8834 0.1818 0.0424
vt 0.8810 0.1771 0.0424
vt 0.8852 0.1888 0.0424
vt 0.8117 0.2425 0.0424
vt 0.8110 0.2331 0.0424
vt 0.8275 0.2363 0.0424
vt 0.8292 0.2454 0.0424
vt 0.8117 0.2479 0.0424
vt 0.8067 0.2071 0.0424
vt 0.8028 0.2116 0.0424
vt 0.7989 0.2048 0.0424
vt 0.8066 0.2019 0.0424
vt 0.8114 0.2085 0.0424
vt 0.8103 0.2156 0.0424
vt 0.8118 0.2042 0.0424
vt 0.7899 0.2002 0.0424
vt 0.7978 0.1862 0.0424
vt 0.8044 0.1901 0.0424
vt 0.7939 0.2165 0.0424
vt 0.7858 0.2138 0.0424
vt 0.8013 0.2208 0.0424
vt 0.8097 0.1948 0.0424
vt 0.8139 0.1824 0.0424
vt 0.8262 0.1869 0.0424
vt 0.8226 0.1912 0.0424
vt 0.8132 0.1923 0.0424
vt 0.8321 0.1720 0.0424
vt 0.8361 0.1799 0.0424
vt 0.8092 0.1759 0.0424
vt 0.8300 0.1673 0.0424
vt 0.9494 0.1169 -0.0224
vt 0.9526 0.1242 -0.0224
vt 0.9442 0.1260 -0.0224
vt 0.9430 0.1167 -0.0224
vt 0.9525 0.1134 -0.0224
vt 0.9589 0.1192 -0.0224
vt 0.9444 0.1080 -0.0224
vt 0.8242 0.1994 0.0424
vt 0.8244 0.2012 0.0424
vt 0.8127 0.2002 0.0424
vt 0.8143 0.1988 0.0424
vt 0.8237 0.1960 0.0424
vt 0.8605 0.1774 0.0424
vt 0.8662 0.1791 0.0424
vt 0.8628 0.1838 0.0424
vt 0.8588 0.1823 0.0424
vt 0.8730 0.1973 0.0424
vt 0.8764 0.1971 0.0424
vt 0.8734 0.2067 0.0424
vt 0.8689 0.2031 0.0424
vt 0.8726 0.1911 0.0424
vt 0.8774 0.1892 0.0424
vt 0.8667 0.1972 0.0424
vt 0.8299 0.1921 0.0424
vt 0.8309 0.1958 0.0424
vt 0.8311 0.1982 0.0424
vt 0.8314 0.2031 0.0424
vt 0.8245 0.2057 0.0424
vt 0.8244 0.2090 0.0424
vt 0.8250 0.2172 0.0424
vt 0.8263 0.2274 0.0424
vt 0.8102 0.2245 0.0424
vt 0.8014 0.2302 0.0424
vt 0.8008 0.2394 0.0424
vt 0.7996 0.2451 0.0424
vt 0.7919 0.2413 0.0424
vt 0.7832 0.2370 -0.0424
vt 0.8644 0.2674 0.0424
vt 0.8678 0.2583 0.0424
vt 0.8769 0.2608 0.0424
vt 0.8739 0.2692 -0.0424
vt 0.9136 0.1102 -0.0224
vt 0.9169 0.1172 -0.0224
vt 0.9098 0.1196 -0.0224
vt 0.9066 0.1144 -0.0224
vt 0.9192 0.1276 -0.0224
vt 0.9123 0.1286 -0.0224
vt 0.9085 0.1293 -0.0224
vt 0.9053 0.1299 -0.0224
vt 0.9209 0.1368 -0.0224
vt 0.9312 0.1266 -0.0224
vt 0.9338 0.1346 -0.0224
vt 0.9354 0.1391 -0.0224
vt 0.9210 0.1419 -0.0224
vt 0.9365 0.1417 -0.0224
vt 0.9207 0.1453 -0.0224
vt 0.8482 0.1652 0.0424
vt 0.8488 0.1691 0.0424
vt 0.8501 0.1749 0.0424
vt 0.8394 0.1855 0.0424
vt 0.8425 0.1901 0.0424
vt 0.8442 0.1933 0.0424
vt 0.8456 0.1986 0.0424
vt 0.8456 0.2027 0.0424
vt 0.8310 0.2072 0.0424
vt 0.8311 0.2157 0.0424
vt 0.8330 0.2266 0.0424
vt 0.8356 0.2342 0.0424
vt 0.8403 0.2411 0.0424
vt 0.8523 0.2247 0.0424
vt 0.8558 0.2302 0.0424
vt 0.8670 0.2391 0.0424
vt 0.8525 0.2507 0.0424
vt 0.8457 0.2573 0.0424
vt 0.8614 0.2559 0.0424
vt 0.8565 0.2639 0.0424
vt 0.8740 0.2402 0.0424
vt 0.8788 0.2406 0.0424
vt 0.8868 0.2443 0.0424
vt 0.9296 0.1071 -0.0224
vt 0.9296 0.1151 -0.0224
vt 0.9469 0.1317 -0.0224
vt 0.9483 0.1347 -0.0224
vt 0.9551 0.1285 -0.0224
vt 0.9565 0.1311 -0.0224
vt 0.9575 0.1332 -0.0224
vt 0.9494 0.1370 -0.0224
vt 0.9635 0.1276 -0.0224
vt 0.9646 0.1297 -0.0224
vt 0.8718 0.1702 0.0424
vt 0.8698 0.1727 0.0424
vt 0.8603 0.1700 0.0424
vt 0.8608 0.1663 0.0424
vt 0.8682 0.1759 0.0424
vt 0.8602 0.1742 0.0424
vt 0.8521 0.1800 0.0424
vt 0.8544 0.1850 0.0424
vt 0.8565 0.1891 0.0424
vt 0.8654 0.1895 0.0424
vt 0.8587 0.1953 0.0424
vt 0.8659 0.1923 0.0424
vt 0.8586 0.1980 0.0424
vt 0.8594 0.2039 0.0424
vt 0.8461 0.2102 0.0424
vt 0.8489 0.2190 0.0424
vt 0.8623 0.2111 0.0424
vt 0.8666 0.2158 0.0424
vt 0.8704 0.2212 0.0424
vt 0.8779 0.2241 0.0424
vt 0.8828 0.2243 0.0424
vt 0.8835 0.2113 0.0424
vt 0.8870 0.2114 0.0424
vt 0.8899 0.2117 0.0424
vt 0.8862 0.2242 0.0424
vt 0.8980 0.2128 0.0424
vt 0.8939 0.2261 0.0424
vt 0.8919 0.1994 0.0424
vt 0.9005 0.2027 0.0424
vt 0.9634 0.1130 -0.0224
vt 0.9669 0.1199 -0.0224
vt 0.9619 0.1245 -0.0224
vt 0.9683 0.1244 -0.0224
vt 0.9699 0.1262 0.0136
vt 0.8781 0.1781 0.0424
vt 0.8743 0.1808 0.0424
vt 0.8707 0.1838 0.0424
vt 0.8762 0.1841 0.0424
vt 0.8721 0.1866 0.0424
vt 0.8804 0.1826 0.0424
vt 0.8816 0.1888 0.0424
vt 0.8813 0.1983 0.0424
vt 0.8782 0.2099 0.0424
vt 0.8860 0.1987 0.0424
vt 0.8888 0.1989 0.0424
# 180 texture coords

o SmallRock_Low
g SmallRock_Low
usemtl default
s 1
f 1/1/1 2/2/2 3/3/3 4/4/4 
f 4/4/4 5/5/5 1/1/1 
f 6/6/6 7/7/7 8/8/8 
f 8/9/8 9/10/9 10/11/10 6/12/6 
f 11/13/11 12/14/12 13/15/13 14/16/14 
f 15/17/15 16/18/16 12/14/12 11/13/11 
f 11/13/11 14/16/14 17/19/17 15/17/15 
f 18/20/18 19/21/19 20/22/20 21/23/21 
f 21/23/21 22/24/22 18/20/18 
f 23/25/23 24/26/24 25/27/25 26/28/26 
f 23/25/23 27/29/27 28/30/28 24/26/24 
f 26/28/26 29/31/29 27/29/27 23/25/23 
f 3/32/3 2/33/2 30/34/30 25/27/25 
f 31/35/31 32/36/32 3/32/3 25/27/25 
f 24/26/24 33/37/33 31/35/31 25/27/25 
f 30/34/30 34/38/34 26/28/26 25/27/25 
f 35/39/35 36/40/36 37/41/37 38/42/38 
f 39/43/39 40/44/40 36/40/36 35/39/35 
f 41/45/41 42/46/42 39/43/39 35/39/35 
f 38/42/38 34/38/34 30/34/30 35/39/35 
f 43/47/43 44/48/44 45/49/45 46/50/46 
f 43/47/43 47/51/47 48/52/48 44/48/44 
f 46/50/46 49/53/49 47/51/47 43/47/43 
f 50/54/50 51/55/51 52/56/52 53/57/53 
f 53/57/53 54/58/54 50/54/50 
f 55/59/55 56/60/56 57/61/57 58/62/58 
f 59/63/59 60/64/60 61/65/61 62/66/62 
f 63/67/63 64/68/64 60/64/60 59/63/59 
f 59/63/59 62/66/62 65/69/65 63/67/63 
f 37/41/37 36/40/36 66/70/66 54/58/54 
f 37/41/37 54/58/54 53/57/53 38/42/38 
f 54/58/54 66/70/66 67/71/67 50/54/50 
f 50/54/50 67/71/67 68/72/68 51/55/51 
f 51/55/51 68/72/68 69/73/69 70/74/70 
f 70/74/70 29/31/29 52/56/52 51/55/51 
f 34/38/34 52/56/52 29/31/29 26/28/26 
f 70/74/70 71/75/71 27/29/27 29/31/29 
f 71/75/71 72/76/72 28/30/28 27/29/27 
f 72/76/72 73/77/73 74/78/74 28/30/28 
f 74/78/74 19/21/19 75/79/75 33/37/33 
f 33/37/33 24/26/24 28/30/28 74/78/74 
f 19/21/19 18/20/18 76/80/76 75/79/75 
f 75/79/75 76/80/76 10/11/10 9/10/9 
f 9/10/9 31/35/31 33/37/33 75/79/75 
f 8/9/8 32/36/32 31/35/31 9/10/9 
f 76/80/76 77/81/77 78/82/78 10/11/10 
f 10/11/10 78/82/78 79/83/79 6/12/6 
f 78/84/78 80/85/80 81/86/81 79/87/79 
f 81/88/81 82/89/82 83/90/83 79/91/79 
f 79/91/79 83/90/83 7/7/7 6/6/6 
f 82/89/82 84/92/84 85/93/85 83/90/83 
f 83/90/83 85/93/85 86/94/86 7/7/7 
f 86/94/86 85/93/85 5/5/5 4/4/4 
f 4/4/4 3/3/3 32/95/32 86/94/86 
f 32/95/32 8/8/8 7/7/7 86/94/86 
f 84/92/84 87/96/87 5/5/5 85/93/85 
f 87/96/87 84/92/84 88/97/88 89/98/89 
f 89/98/89 90/99/90 91/100/91 87/96/87 
f 91/100/91 1/1/1 5/5/5 87/96/87 
f 91/100/91 90/99/90 42/101/42 41/102/41 
f 41/102/41 2/2/2 1/1/1 91/100/91 
f 41/45/41 35/39/35 30/34/30 2/33/2 
f 42/46/42 92/103/92 93/104/93 39/43/39 
f 93/104/93 94/105/94 40/44/40 39/43/39 
f 40/44/40 95/106/95 66/70/66 36/40/36 
f 95/106/95 96/107/96 67/71/67 66/70/66 
f 96/107/96 97/108/97 68/72/68 67/71/67 
f 97/108/97 98/109/98 69/73/69 68/72/68 
f 69/73/69 98/109/98 99/110/99 100/111/100 
f 100/111/100 71/75/71 70/74/70 69/73/69 
f 71/75/71 100/111/100 101/112/101 72/76/72 
f 72/76/72 101/112/101 102/113/102 73/77/73 
f 73/77/73 102/113/102 103/114/103 20/22/20 
f 20/22/20 19/21/19 74/78/74 73/77/73 
f 103/114/103 104/115/104 21/23/21 20/22/20 
f 103/114/103 105/116/105 106/117/106 104/115/104 
f 106/117/106 107/118/107 108/119/108 104/115/104 
f 108/119/108 22/120/22 21/23/21 104/115/104 
f 22/120/22 108/119/108 109/121/109 77/122/77 
f 77/81/77 76/80/76 18/20/18 22/24/22 
f 109/121/109 108/119/108 107/118/107 110/123/110 
f 110/123/110 111/124/111 80/85/80 109/121/109 
f 80/85/80 78/84/78 77/122/77 109/121/109 
f 111/124/111 112/125/112 81/86/81 80/85/80 
f 112/126/112 113/127/113 82/89/82 81/88/81 
f 113/127/113 88/97/88 84/92/84 82/89/82 
f 88/97/88 113/127/113 46/50/46 45/49/45 
f 45/49/45 114/128/114 89/98/89 88/97/88 
f 114/128/114 115/129/115 90/99/90 89/98/89 
f 115/129/115 114/128/114 116/130/116 117/131/117 
f 117/131/117 118/132/118 92/133/92 115/129/115 
f 92/133/92 42/101/42 90/99/90 115/129/115 
f 118/132/118 117/131/117 119/134/119 120/135/120 
f 120/136/120 121/137/121 122/138/122 118/139/118 
f 118/139/118 122/138/122 93/104/93 92/103/92 
f 121/137/121 123/140/123 124/141/124 122/138/122 
f 122/138/122 124/141/124 94/105/94 93/104/93 
f 124/141/124 123/140/123 56/60/56 55/59/55 
f 55/59/55 125/142/125 94/105/94 124/141/124 
f 125/142/125 55/59/55 58/62/58 126/143/126 
f 126/143/126 96/107/96 95/106/95 125/142/125 
f 125/142/125 95/106/95 40/44/40 94/105/94 
f 58/62/58 57/61/57 127/144/127 126/143/126 
f 127/144/127 97/108/97 96/107/96 126/143/126 
f 127/144/127 57/61/57 128/145/128 129/146/129 
f 129/146/129 98/109/98 97/108/97 127/144/127 
f 129/146/129 128/145/128 130/147/130 131/148/131 
f 131/148/131 99/110/99 98/109/98 129/146/129 
f 99/110/99 131/148/131 132/149/132 133/150/133 
f 133/150/133 101/112/101 100/111/100 99/110/99 
f 133/150/133 134/151/134 102/113/102 101/112/101 
f 134/151/134 105/116/105 103/114/103 102/113/102 
f 105/116/105 134/151/134 135/152/135 136/153/136 
f 136/153/136 137/154/137 106/117/106 105/116/105 
f 137/154/137 138/155/138 107/118/107 106/117/106 
f 138/155/138 139/156/139 110/123/110 107/118/107 
f 139/156/139 138/155/138 140/157/140 141/158/141 
f 141/158/141 142/159/142 143/160/143 139/156/139 
f 139/156/139 143/160/143 111/124/111 110/123/110 
f 142/159/142 47/161/47 49/162/49 143/160/143 
f 143/160/143 49/162/49 112/125/112 111/124/111 
f 142/159/142 144/163/144 48/164/48 47/161/47 
f 144/165/144 13/166/13 145/167/145 48/52/48 
f 145/167/145 13/166/13 12/168/12 119/134/119 
f 119/134/119 117/131/117 116/130/116 145/167/145 
f 145/167/145 116/130/116 44/48/44 48/52/48 
f 12/168/12 16/169/16 120/135/120 119/134/119 
f 16/18/16 146/170/146 121/137/121 120/136/120 
f 146/170/146 147/171/147 123/140/123 121/137/121 
f 147/171/147 148/172/148 56/60/56 123/140/123 
f 148/172/148 128/145/128 57/61/57 56/60/56 
f 148/172/148 147/171/147 149/173/149 150/174/150 
f 150/174/150 130/147/130 128/145/128 148/172/148 
f 150/174/150 149/173/149 64/68/64 63/67/63 
f 63/67/63 65/69/65 130/147/130 150/174/150 
f 147/171/147 146/170/146 151/175/151 149/173/149 
f 149/173/149 151/175/151 152/176/152 64/68/64 
f 152/176/152 153/177/153 60/64/60 64/68/64 
f 153/177/153 154/178/154 61/65/61 60/64/60 
f 154/178/154 137/154/137 136/153/136 61/65/61 
f 153/177/153 155/179/155 140/157/140 154/178/154 
f 140/157/140 138/155/138 137/154/137 154/178/154 
f 155/179/155 153/177/153 152/176/152 17/19/17 
f 17/19/17 14/16/14 156/180/156 155/179/155 
f 155/179/155 156/180/156 141/158/141 140/157/140 
f 14/16/14 13/15/13 144/163/144 156/180/156 
f 156/180/156 144/163/144 142/159/142 141/158/141 
f 152/176/152 151/175/151 15/17/15 17/19/17 
f 151/175/151 146/170/146 16/18/16 15/17/15 
f 136/153/136 135/152/135 62/66/62 61/65/61 
f 132/149/132 65/69/65 62/66/62 135/152/135 
f 135/152/135 134/151/134 133/150/133 132/149/132 
f 131/148/131 130/147/130 65/69/65 132/149/132 
f 114/128/114 45/49/45 44/48/44 116/130/116 
f 113/127/113 112/126/112 49/53/49 46/50/46 
f 53/57/53 52/56/52 34/38/34 38/42/38 
# 152 polygons - 4 triangles

