%YAML 1.1
%TAG !u! tag:unity3d.com,2011:
--- !u!21 &2100000
Material:
  serializedVersion: 6
  m_ObjectHideFlags: 0
  m_CorrespondingSourceObject: {fileID: 0}
  m_PrefabInstance: {fileID: 0}
  m_PrefabAsset: {fileID: 0}
  m_Name: Shader Graphs_Water
  m_Shader: {fileID: -6465566751694194690, guid: aecc69f7bf3da8243b27a47fb9941033,
    type: 3}
  m_ShaderKeywords: 
  m_LightmapFlags: 4
  m_EnableInstancingVariants: 0
  m_DoubleSidedGI: 0
  m_CustomRenderQueue: -1
  stringTagMap: {}
  disabledShaderPasses: []
  m_SavedProperties:
    serializedVersion: 3
    m_TexEnvs:
    - Texture2D_DF26D6A6:
        m_Texture: {fileID: 2800000, guid: ee4175736c140504d870251f8296194c, type: 3}
        m_Scale: {x: 1, y: 1}
        m_Offset: {x: 0, y: 0}
    m_Floats:
    - Vector1_16C66B48: 0.15
    - Vector1_213D055: 71.2
    - Vector1_8BFA297F: 10.36
    - Vector1_ADE3AA4E: 1.75
    m_Colors:
    - Color_D24D3862: {r: 1, g: 1, b: 1, a: 0}
    - Color_E396721F: {r: 1, g: 1, b: 1, a: 0}
