%YAML 1.1
%TAG !u! tag:unity3d.com,2011:
--- !u!29 &1
OcclusionCullingSettings:
  m_ObjectHideFlags: 0
  serializedVersion: 2
  m_OcclusionBakeSettings:
    smallestOccluder: 5
    smallestHole: 0.25
    backfaceThreshold: 100
  m_SceneGUID: 00000000000000000000000000000000
  m_OcclusionCullingData: {fileID: 0}
--- !u!104 &2
RenderSettings:
  m_ObjectHideFlags: 0
  serializedVersion: 9
  m_Fog: 0
  m_FogColor: {r: 0.5, g: 0.5, b: 0.5, a: 1}
  m_FogMode: 3
  m_FogDensity: 0.01
  m_LinearFogStart: 0
  m_LinearFogEnd: 300
  m_AmbientSkyColor: {r: 0.212, g: 0.227, b: 0.259, a: 1}
  m_AmbientEquatorColor: {r: 0.114, g: 0.125, b: 0.133, a: 1}
  m_AmbientGroundColor: {r: 0.047, g: 0.043, b: 0.035, a: 1}
  m_AmbientIntensity: 1
  m_AmbientMode: 0
  m_SubtractiveShadowColor: {r: 0.42, g: 0.478, b: 0.627, a: 1}
  m_SkyboxMaterial: {fileID: 10304, guid: 0000000000000000f000000000000000, type: 0}
  m_HaloStrength: 0.5
  m_FlareStrength: 1
  m_FlareFadeSpeed: 3
  m_HaloTexture: {fileID: 0}
  m_SpotCookie: {fileID: 10001, guid: 0000000000000000e000000000000000, type: 0}
  m_DefaultReflectionMode: 0
  m_DefaultReflectionResolution: 128
  m_ReflectionBounces: 1
  m_ReflectionIntensity: 1
  m_CustomReflection: {fileID: 0}
  m_Sun: {fileID: 0}
  m_IndirectSpecularColor: {r: 0, g: 0, b: 0, a: 1}
  m_UseRadianceAmbientProbe: 0
--- !u!157 &3
LightmapSettings:
  m_ObjectHideFlags: 0
  serializedVersion: 11
  m_GIWorkflowMode: 1
  m_GISettings:
    serializedVersion: 2
    m_BounceScale: 1
    m_IndirectOutputScale: 1
    m_AlbedoBoost: 1
    m_EnvironmentLightingMode: 0
    m_EnableBakedLightmaps: 1
    m_EnableRealtimeLightmaps: 1
  m_LightmapEditorSettings:
    serializedVersion: 12
    m_Resolution: 2
    m_BakeResolution: 40
    m_AtlasSize: 1024
    m_AO: 0
    m_AOMaxDistance: 1
    m_CompAOExponent: 1
    m_CompAOExponentDirect: 0
    m_ExtractAmbientOcclusion: 0
    m_Padding: 2
    m_LightmapParameters: {fileID: 0}
    m_LightmapsBakeMode: 1
    m_TextureCompression: 1
    m_FinalGather: 0
    m_FinalGatherFiltering: 1
    m_FinalGatherRayCount: 256
    m_ReflectionCompression: 2
    m_MixedBakeMode: 2
    m_BakeBackend: 1
    m_PVRSampling: 1
    m_PVRDirectSampleCount: 32
    m_PVRSampleCount: 512
    m_PVRBounces: 2
    m_PVREnvironmentSampleCount: 256
    m_PVREnvironmentReferencePointCount: 2048
    m_PVRFilteringMode: 1
    m_PVRDenoiserTypeDirect: 1
    m_PVRDenoiserTypeIndirect: 1
    m_PVRDenoiserTypeAO: 1
    m_PVRFilterTypeDirect: 0
    m_PVRFilterTypeIndirect: 0
    m_PVRFilterTypeAO: 0
    m_PVREnvironmentMIS: 1
    m_PVRCulling: 1
    m_PVRFilteringGaussRadiusDirect: 1
    m_PVRFilteringGaussRadiusIndirect: 5
    m_PVRFilteringGaussRadiusAO: 2
    m_PVRFilteringAtrousPositionSigmaDirect: 0.5
    m_PVRFilteringAtrousPositionSigmaIndirect: 2
    m_PVRFilteringAtrousPositionSigmaAO: 1
    m_ExportTrainingData: 0
    m_TrainingDataDestination: TrainingData
  m_LightingDataAsset: {fileID: 0}
  m_UseShadowmask: 1
--- !u!196 &4
NavMeshSettings:
  serializedVersion: 2
  m_ObjectHideFlags: 0
  m_BuildSettings:
    serializedVersion: 2
    agentTypeID: 0
    agentRadius: 0.5
    agentHeight: 2
    agentSlope: 45
    agentClimb: 0.4
    ledgeDropHeight: 0
    maxJumpAcrossDistance: 0
    minRegionArea: 2
    manualCellSize: 0
    cellSize: 0.16666667
    manualTileSize: 0
    tileSize: 256
    accuratePlacement: 0
    debug:
      m_Flags: 0
  m_NavMeshData: {fileID: 0}
--- !u!1 &83925074
GameObject:
  m_ObjectHideFlags: 0
  m_CorrespondingSourceObject: {fileID: 0}
  m_PrefabInstance: {fileID: 0}
  m_PrefabAsset: {fileID: 0}
  serializedVersion: 6
  m_Component:
  - component: {fileID: 83925076}
  - component: {fileID: 83925075}
  m_Layer: 0
  m_Name: Directional Light
  m_TagString: Untagged
  m_Icon: {fileID: 0}
  m_NavMeshLayer: 0
  m_StaticEditorFlags: 0
  m_IsActive: 1
--- !u!108 &83925075
Light:
  m_ObjectHideFlags: 0
  m_CorrespondingSourceObject: {fileID: 0}
  m_PrefabInstance: {fileID: 0}
  m_PrefabAsset: {fileID: 0}
  m_GameObject: {fileID: 83925074}
  m_Enabled: 1
  serializedVersion: 9
  m_Type: 1
  m_Color: {r: 1, g: 0.95686275, b: 0.8392157, a: 1}
  m_Intensity: 1
  m_Range: 10
  m_SpotAngle: 30
  m_InnerSpotAngle: 21.80208
  m_CookieSize: 10
  m_Shadows:
    m_Type: 2
    m_Resolution: -1
    m_CustomResolution: -1
    m_Strength: 1
    m_Bias: 0.05
    m_NormalBias: 0.4
    m_NearPlane: 0.2
    m_CullingMatrixOverride:
      e00: 1
      e01: 0
      e02: 0
      e03: 0
      e10: 0
      e11: 1
      e12: 0
      e13: 0
      e20: 0
      e21: 0
      e22: 1
      e23: 0
      e30: 0
      e31: 0
      e32: 0
      e33: 1
    m_UseCullingMatrixOverride: 0
  m_Cookie: {fileID: 0}
  m_DrawHalo: 0
  m_Flare: {fileID: 0}
  m_RenderMode: 0
  m_CullingMask:
    serializedVersion: 2
    m_Bits: 4294967295
  m_RenderingLayerMask: 1
  m_Lightmapping: 4
  m_LightShadowCasterMode: 0
  m_AreaSize: {x: 1, y: 1}
  m_BounceIntensity: 1
  m_ColorTemperature: 6570
  m_UseColorTemperature: 0
  m_BoundingSphereOverride: {x: 0, y: 0, z: 0, w: 0}
  m_UseBoundingSphereOverride: 0
  m_ShadowRadius: 0
  m_ShadowAngle: 0
--- !u!4 &83925076
Transform:
  m_ObjectHideFlags: 0
  m_CorrespondingSourceObject: {fileID: 0}
  m_PrefabInstance: {fileID: 0}
  m_PrefabAsset: {fileID: 0}
  m_GameObject: {fileID: 83925074}
  m_LocalRotation: {x: 0.40821788, y: -0.23456968, z: 0.10938163, w: 0.8754261}
  m_LocalPosition: {x: 0, y: 3, z: 0}
  m_LocalScale: {x: 1, y: 1, z: 1}
  m_Children: []
  m_Father: {fileID: 0}
  m_RootOrder: 1
  m_LocalEulerAnglesHint: {x: 50, y: -30, z: 0}
--- !u!1001 &1033458020
PrefabInstance:
  m_ObjectHideFlags: 0
  serializedVersion: 2
  m_Modification:
    m_TransformParent: {fileID: 0}
    m_Modifications:
    - target: {fileID: 1384376803286879325, guid: 4b10916118c7f3747b37f07f62a09af6,
        type: 3}
      propertyPath: m_Name
      value: Comic2Ellen
      objectReference: {fileID: 0}
    - target: {fileID: 1384376803286782077, guid: 4b10916118c7f3747b37f07f62a09af6,
        type: 3}
      propertyPath: m_LocalPosition.x
      value: 7.84
      objectReference: {fileID: 0}
    - target: {fileID: 1384376803286782077, guid: 4b10916118c7f3747b37f07f62a09af6,
        type: 3}
      propertyPath: m_LocalPosition.y
      value: -3.5
      objectReference: {fileID: 0}
    - target: {fileID: 1384376803286782077, guid: 4b10916118c7f3747b37f07f62a09af6,
        type: 3}
      propertyPath: m_LocalPosition.z
      value: 0
      objectReference: {fileID: 0}
    - target: {fileID: 1384376803286782077, guid: 4b10916118c7f3747b37f07f62a09af6,
        type: 3}
      propertyPath: m_LocalRotation.x
      value: 0
      objectReference: {fileID: 0}
    - target: {fileID: 1384376803286782077, guid: 4b10916118c7f3747b37f07f62a09af6,
        type: 3}
      propertyPath: m_LocalRotation.y
      value: 1
      objectReference: {fileID: 0}
    - target: {fileID: 1384376803286782077, guid: 4b10916118c7f3747b37f07f62a09af6,
        type: 3}
      propertyPath: m_LocalRotation.z
      value: 0
      objectReference: {fileID: 0}
    - target: {fileID: 1384376803286782077, guid: 4b10916118c7f3747b37f07f62a09af6,
        type: 3}
      propertyPath: m_LocalRotation.w
      value: 0
      objectReference: {fileID: 0}
    - target: {fileID: 1384376803286782077, guid: 4b10916118c7f3747b37f07f62a09af6,
        type: 3}
      propertyPath: m_RootOrder
      value: 7
      objectReference: {fileID: 0}
    - target: {fileID: 1384376803286782077, guid: 4b10916118c7f3747b37f07f62a09af6,
        type: 3}
      propertyPath: m_LocalEulerAnglesHint.x
      value: 0
      objectReference: {fileID: 0}
    - target: {fileID: 1384376803286782077, guid: 4b10916118c7f3747b37f07f62a09af6,
        type: 3}
      propertyPath: m_LocalEulerAnglesHint.y
      value: 180
      objectReference: {fileID: 0}
    - target: {fileID: 1384376803286782077, guid: 4b10916118c7f3747b37f07f62a09af6,
        type: 3}
      propertyPath: m_LocalEulerAnglesHint.z
      value: 0
      objectReference: {fileID: 0}
    - target: {fileID: 1384376803298378077, guid: 4b10916118c7f3747b37f07f62a09af6,
        type: 3}
      propertyPath: m_Materials.Array.data[0]
      value: 
      objectReference: {fileID: 2100000, guid: c3cba2b3bbd773c418bc727f777b85aa, type: 2}
    - target: {fileID: 1384376803298378077, guid: 4b10916118c7f3747b37f07f62a09af6,
        type: 3}
      propertyPath: m_Materials.Array.data[1]
      value: 
      objectReference: {fileID: 2100000, guid: 9031fcc1f8e83194aa3c763f6cc13ba2, type: 2}
    - target: {fileID: 1384376803298378077, guid: 4b10916118c7f3747b37f07f62a09af6,
        type: 3}
      propertyPath: m_Materials.Array.data[2]
      value: 
      objectReference: {fileID: 2100000, guid: e38a1f9e9e0024f42aebcc61a474dcb5, type: 2}
    - target: {fileID: 1384376803298378077, guid: 4b10916118c7f3747b37f07f62a09af6,
        type: 3}
      propertyPath: m_Materials.Array.data[3]
      value: 
      objectReference: {fileID: 2100000, guid: c7f05127df009274899083aea48accb3, type: 2}
    - target: {fileID: 1384376803298378077, guid: 4b10916118c7f3747b37f07f62a09af6,
        type: 3}
      propertyPath: m_Materials.Array.data[4]
      value: 
      objectReference: {fileID: 2100000, guid: c3cba2b3bbd773c418bc727f777b85aa, type: 2}
    - target: {fileID: 1384376803298378077, guid: 4b10916118c7f3747b37f07f62a09af6,
        type: 3}
      propertyPath: m_Materials.Array.data[5]
      value: 
      objectReference: {fileID: 2100000, guid: c3cba2b3bbd773c418bc727f777b85aa, type: 2}
    m_RemovedComponents: []
  m_SourcePrefab: {fileID: 100100000, guid: 4b10916118c7f3747b37f07f62a09af6, type: 3}
--- !u!1 &1033458021 stripped
GameObject:
  m_CorrespondingSourceObject: {fileID: 1384376803286879325, guid: 4b10916118c7f3747b37f07f62a09af6,
    type: 3}
  m_PrefabInstance: {fileID: 1033458020}
  m_PrefabAsset: {fileID: 0}
--- !u!114 &1033458022
MonoBehaviour:
  m_ObjectHideFlags: 0
  m_CorrespondingSourceObject: {fileID: 0}
  m_PrefabInstance: {fileID: 0}
  m_PrefabAsset: {fileID: 0}
  m_GameObject: {fileID: 1033458021}
  m_Enabled: 1
  m_EditorHideFlags: 0
  m_Script: {fileID: 11500000, guid: 6650879526f1e0d4987b245be73c154c, type: 3}
  m_Name: 
  m_EditorClassIdentifier: 
  rotSpeed: {x: 0, y: -40, z: 0}
--- !u!1001 &1114451396
PrefabInstance:
  m_ObjectHideFlags: 0
  serializedVersion: 2
  m_Modification:
    m_TransformParent: {fileID: 0}
    m_Modifications:
    - target: {fileID: 1384376803286879325, guid: 4b10916118c7f3747b37f07f62a09af6,
        type: 3}
      propertyPath: m_Name
      value: VintageEllen
      objectReference: {fileID: 0}
    - target: {fileID: 1384376803286782077, guid: 4b10916118c7f3747b37f07f62a09af6,
        type: 3}
      propertyPath: m_LocalPosition.x
      value: -4.16
      objectReference: {fileID: 0}
    - target: {fileID: 1384376803286782077, guid: 4b10916118c7f3747b37f07f62a09af6,
        type: 3}
      propertyPath: m_LocalPosition.y
      value: -3.5
      objectReference: {fileID: 0}
    - target: {fileID: 1384376803286782077, guid: 4b10916118c7f3747b37f07f62a09af6,
        type: 3}
      propertyPath: m_LocalPosition.z
      value: 0
      objectReference: {fileID: 0}
    - target: {fileID: 1384376803286782077, guid: 4b10916118c7f3747b37f07f62a09af6,
        type: 3}
      propertyPath: m_LocalRotation.x
      value: 0
      objectReference: {fileID: 0}
    - target: {fileID: 1384376803286782077, guid: 4b10916118c7f3747b37f07f62a09af6,
        type: 3}
      propertyPath: m_LocalRotation.y
      value: 1
      objectReference: {fileID: 0}
    - target: {fileID: 1384376803286782077, guid: 4b10916118c7f3747b37f07f62a09af6,
        type: 3}
      propertyPath: m_LocalRotation.z
      value: 0
      objectReference: {fileID: 0}
    - target: {fileID: 1384376803286782077, guid: 4b10916118c7f3747b37f07f62a09af6,
        type: 3}
      propertyPath: m_LocalRotation.w
      value: 0
      objectReference: {fileID: 0}
    - target: {fileID: 1384376803286782077, guid: 4b10916118c7f3747b37f07f62a09af6,
        type: 3}
      propertyPath: m_RootOrder
      value: 3
      objectReference: {fileID: 0}
    - target: {fileID: 1384376803286782077, guid: 4b10916118c7f3747b37f07f62a09af6,
        type: 3}
      propertyPath: m_LocalEulerAnglesHint.x
      value: 0
      objectReference: {fileID: 0}
    - target: {fileID: 1384376803286782077, guid: 4b10916118c7f3747b37f07f62a09af6,
        type: 3}
      propertyPath: m_LocalEulerAnglesHint.y
      value: 180
      objectReference: {fileID: 0}
    - target: {fileID: 1384376803286782077, guid: 4b10916118c7f3747b37f07f62a09af6,
        type: 3}
      propertyPath: m_LocalEulerAnglesHint.z
      value: 0
      objectReference: {fileID: 0}
    - target: {fileID: 1384376803298378077, guid: 4b10916118c7f3747b37f07f62a09af6,
        type: 3}
      propertyPath: m_Materials.Array.data[0]
      value: 
      objectReference: {fileID: 2100000, guid: 90a62e8c7165cb845b232dc736e1a6dd, type: 2}
    - target: {fileID: 1384376803298378077, guid: 4b10916118c7f3747b37f07f62a09af6,
        type: 3}
      propertyPath: m_Materials.Array.data[1]
      value: 
      objectReference: {fileID: 2100000, guid: 8663744e8214b2144a4cec377dfb2632, type: 2}
    - target: {fileID: 1384376803298378077, guid: 4b10916118c7f3747b37f07f62a09af6,
        type: 3}
      propertyPath: m_Materials.Array.data[2]
      value: 
      objectReference: {fileID: 2100000, guid: 3e06cfb13055ea44fa35b74d5f883695, type: 2}
    - target: {fileID: 1384376803298378077, guid: 4b10916118c7f3747b37f07f62a09af6,
        type: 3}
      propertyPath: m_Materials.Array.data[3]
      value: 
      objectReference: {fileID: 2100000, guid: f8c4654fd2bf1e34aab2d1655896e17a, type: 2}
    - target: {fileID: 1384376803298378077, guid: 4b10916118c7f3747b37f07f62a09af6,
        type: 3}
      propertyPath: m_Materials.Array.data[4]
      value: 
      objectReference: {fileID: 2100000, guid: 90a62e8c7165cb845b232dc736e1a6dd, type: 2}
    - target: {fileID: 1384376803298378077, guid: 4b10916118c7f3747b37f07f62a09af6,
        type: 3}
      propertyPath: m_Materials.Array.data[5]
      value: 
      objectReference: {fileID: 2100000, guid: 90a62e8c7165cb845b232dc736e1a6dd, type: 2}
    m_RemovedComponents: []
  m_SourcePrefab: {fileID: 100100000, guid: 4b10916118c7f3747b37f07f62a09af6, type: 3}
--- !u!1 &1114451397 stripped
GameObject:
  m_CorrespondingSourceObject: {fileID: 1384376803286879325, guid: 4b10916118c7f3747b37f07f62a09af6,
    type: 3}
  m_PrefabInstance: {fileID: 1114451396}
  m_PrefabAsset: {fileID: 0}
--- !u!114 &1114451398
MonoBehaviour:
  m_ObjectHideFlags: 0
  m_CorrespondingSourceObject: {fileID: 0}
  m_PrefabInstance: {fileID: 0}
  m_PrefabAsset: {fileID: 0}
  m_GameObject: {fileID: 1114451397}
  m_Enabled: 1
  m_EditorHideFlags: 0
  m_Script: {fileID: 11500000, guid: 6650879526f1e0d4987b245be73c154c, type: 3}
  m_Name: 
  m_EditorClassIdentifier: 
  rotSpeed: {x: 0, y: -40, z: 0}
--- !u!1001 &1139641185
PrefabInstance:
  m_ObjectHideFlags: 0
  serializedVersion: 2
  m_Modification:
    m_TransformParent: {fileID: 0}
    m_Modifications:
    - target: {fileID: 1384376803286879325, guid: 4b10916118c7f3747b37f07f62a09af6,
        type: 3}
      propertyPath: m_Name
      value: Notebook2Ellen
      objectReference: {fileID: 0}
    - target: {fileID: 1384376803286782077, guid: 4b10916118c7f3747b37f07f62a09af6,
        type: 3}
      propertyPath: m_LocalPosition.x
      value: 1.8400002
      objectReference: {fileID: 0}
    - target: {fileID: 1384376803286782077, guid: 4b10916118c7f3747b37f07f62a09af6,
        type: 3}
      propertyPath: m_LocalPosition.y
      value: -3.5
      objectReference: {fileID: 0}
    - target: {fileID: 1384376803286782077, guid: 4b10916118c7f3747b37f07f62a09af6,
        type: 3}
      propertyPath: m_LocalPosition.z
      value: 0
      objectReference: {fileID: 0}
    - target: {fileID: 1384376803286782077, guid: 4b10916118c7f3747b37f07f62a09af6,
        type: 3}
      propertyPath: m_LocalRotation.x
      value: 0
      objectReference: {fileID: 0}
    - target: {fileID: 1384376803286782077, guid: 4b10916118c7f3747b37f07f62a09af6,
        type: 3}
      propertyPath: m_LocalRotation.y
      value: 1
      objectReference: {fileID: 0}
    - target: {fileID: 1384376803286782077, guid: 4b10916118c7f3747b37f07f62a09af6,
        type: 3}
      propertyPath: m_LocalRotation.z
      value: 0
      objectReference: {fileID: 0}
    - target: {fileID: 1384376803286782077, guid: 4b10916118c7f3747b37f07f62a09af6,
        type: 3}
      propertyPath: m_LocalRotation.w
      value: 0
      objectReference: {fileID: 0}
    - target: {fileID: 1384376803286782077, guid: 4b10916118c7f3747b37f07f62a09af6,
        type: 3}
      propertyPath: m_RootOrder
      value: 5
      objectReference: {fileID: 0}
    - target: {fileID: 1384376803286782077, guid: 4b10916118c7f3747b37f07f62a09af6,
        type: 3}
      propertyPath: m_LocalEulerAnglesHint.x
      value: 0
      objectReference: {fileID: 0}
    - target: {fileID: 1384376803286782077, guid: 4b10916118c7f3747b37f07f62a09af6,
        type: 3}
      propertyPath: m_LocalEulerAnglesHint.y
      value: 180
      objectReference: {fileID: 0}
    - target: {fileID: 1384376803286782077, guid: 4b10916118c7f3747b37f07f62a09af6,
        type: 3}
      propertyPath: m_LocalEulerAnglesHint.z
      value: 0
      objectReference: {fileID: 0}
    - target: {fileID: 1384376803298378077, guid: 4b10916118c7f3747b37f07f62a09af6,
        type: 3}
      propertyPath: m_Materials.Array.data[0]
      value: 
      objectReference: {fileID: 2100000, guid: 37314d67da42b4a438ce0443c40fcd79, type: 2}
    - target: {fileID: 1384376803298378077, guid: 4b10916118c7f3747b37f07f62a09af6,
        type: 3}
      propertyPath: m_Materials.Array.data[1]
      value: 
      objectReference: {fileID: 2100000, guid: ece6c63bccc875143bdf7d150a2732d3, type: 2}
    - target: {fileID: 1384376803298378077, guid: 4b10916118c7f3747b37f07f62a09af6,
        type: 3}
      propertyPath: m_Materials.Array.data[2]
      value: 
      objectReference: {fileID: 2100000, guid: 9030bbc25a13c2b41b50b8fb4bb7ddda, type: 2}
    - target: {fileID: 1384376803298378077, guid: 4b10916118c7f3747b37f07f62a09af6,
        type: 3}
      propertyPath: m_Materials.Array.data[3]
      value: 
      objectReference: {fileID: 2100000, guid: d675004302f58dc469c169f05966b1a6, type: 2}
    - target: {fileID: 1384376803298378077, guid: 4b10916118c7f3747b37f07f62a09af6,
        type: 3}
      propertyPath: m_Materials.Array.data[4]
      value: 
      objectReference: {fileID: 2100000, guid: 37314d67da42b4a438ce0443c40fcd79, type: 2}
    - target: {fileID: 1384376803298378077, guid: 4b10916118c7f3747b37f07f62a09af6,
        type: 3}
      propertyPath: m_Materials.Array.data[5]
      value: 
      objectReference: {fileID: 2100000, guid: 37314d67da42b4a438ce0443c40fcd79, type: 2}
    m_RemovedComponents: []
  m_SourcePrefab: {fileID: 100100000, guid: 4b10916118c7f3747b37f07f62a09af6, type: 3}
--- !u!1 &1139641186 stripped
GameObject:
  m_CorrespondingSourceObject: {fileID: 1384376803286879325, guid: 4b10916118c7f3747b37f07f62a09af6,
    type: 3}
  m_PrefabInstance: {fileID: 1139641185}
  m_PrefabAsset: {fileID: 0}
--- !u!114 &1139641187
MonoBehaviour:
  m_ObjectHideFlags: 0
  m_CorrespondingSourceObject: {fileID: 0}
  m_PrefabInstance: {fileID: 0}
  m_PrefabAsset: {fileID: 0}
  m_GameObject: {fileID: 1139641186}
  m_Enabled: 1
  m_EditorHideFlags: 0
  m_Script: {fileID: 11500000, guid: 6650879526f1e0d4987b245be73c154c, type: 3}
  m_Name: 
  m_EditorClassIdentifier: 
  rotSpeed: {x: 0, y: -40, z: 0}
--- !u!1001 &1447322678
PrefabInstance:
  m_ObjectHideFlags: 0
  serializedVersion: 2
  m_Modification:
    m_TransformParent: {fileID: 0}
    m_Modifications:
    - target: {fileID: 1384376803286879325, guid: 4b10916118c7f3747b37f07f62a09af6,
        type: 3}
      propertyPath: m_Name
      value: NotebookEllen
      objectReference: {fileID: 0}
    - target: {fileID: 1384376803286782077, guid: 4b10916118c7f3747b37f07f62a09af6,
        type: 3}
      propertyPath: m_LocalPosition.x
      value: -1.1599998
      objectReference: {fileID: 0}
    - target: {fileID: 1384376803286782077, guid: 4b10916118c7f3747b37f07f62a09af6,
        type: 3}
      propertyPath: m_LocalPosition.y
      value: -3.5
      objectReference: {fileID: 0}
    - target: {fileID: 1384376803286782077, guid: 4b10916118c7f3747b37f07f62a09af6,
        type: 3}
      propertyPath: m_LocalPosition.z
      value: 0
      objectReference: {fileID: 0}
    - target: {fileID: 1384376803286782077, guid: 4b10916118c7f3747b37f07f62a09af6,
        type: 3}
      propertyPath: m_LocalRotation.x
      value: 0
      objectReference: {fileID: 0}
    - target: {fileID: 1384376803286782077, guid: 4b10916118c7f3747b37f07f62a09af6,
        type: 3}
      propertyPath: m_LocalRotation.y
      value: 1
      objectReference: {fileID: 0}
    - target: {fileID: 1384376803286782077, guid: 4b10916118c7f3747b37f07f62a09af6,
        type: 3}
      propertyPath: m_LocalRotation.z
      value: 0
      objectReference: {fileID: 0}
    - target: {fileID: 1384376803286782077, guid: 4b10916118c7f3747b37f07f62a09af6,
        type: 3}
      propertyPath: m_LocalRotation.w
      value: 0
      objectReference: {fileID: 0}
    - target: {fileID: 1384376803286782077, guid: 4b10916118c7f3747b37f07f62a09af6,
        type: 3}
      propertyPath: m_RootOrder
      value: 4
      objectReference: {fileID: 0}
    - target: {fileID: 1384376803286782077, guid: 4b10916118c7f3747b37f07f62a09af6,
        type: 3}
      propertyPath: m_LocalEulerAnglesHint.x
      value: 0
      objectReference: {fileID: 0}
    - target: {fileID: 1384376803286782077, guid: 4b10916118c7f3747b37f07f62a09af6,
        type: 3}
      propertyPath: m_LocalEulerAnglesHint.y
      value: 180
      objectReference: {fileID: 0}
    - target: {fileID: 1384376803286782077, guid: 4b10916118c7f3747b37f07f62a09af6,
        type: 3}
      propertyPath: m_LocalEulerAnglesHint.z
      value: 0
      objectReference: {fileID: 0}
    - target: {fileID: 1384376803298378077, guid: 4b10916118c7f3747b37f07f62a09af6,
        type: 3}
      propertyPath: m_Materials.Array.data[0]
      value: 
      objectReference: {fileID: 2100000, guid: 1582f3c102f694c44a3249a80054cceb, type: 2}
    - target: {fileID: 1384376803298378077, guid: 4b10916118c7f3747b37f07f62a09af6,
        type: 3}
      propertyPath: m_Materials.Array.data[1]
      value: 
      objectReference: {fileID: 2100000, guid: 0fd2927927b053844abc64dd0a6960b3, type: 2}
    - target: {fileID: 1384376803298378077, guid: 4b10916118c7f3747b37f07f62a09af6,
        type: 3}
      propertyPath: m_Materials.Array.data[2]
      value: 
      objectReference: {fileID: 2100000, guid: 7910d7225353f344fadb330f326fa0c1, type: 2}
    - target: {fileID: 1384376803298378077, guid: 4b10916118c7f3747b37f07f62a09af6,
        type: 3}
      propertyPath: m_Materials.Array.data[3]
      value: 
      objectReference: {fileID: 2100000, guid: 88d488071f421df4f95d060f700e9f69, type: 2}
    - target: {fileID: 1384376803298378077, guid: 4b10916118c7f3747b37f07f62a09af6,
        type: 3}
      propertyPath: m_Materials.Array.data[4]
      value: 
      objectReference: {fileID: 2100000, guid: 1582f3c102f694c44a3249a80054cceb, type: 2}
    - target: {fileID: 1384376803298378077, guid: 4b10916118c7f3747b37f07f62a09af6,
        type: 3}
      propertyPath: m_Materials.Array.data[5]
      value: 
      objectReference: {fileID: 2100000, guid: 1582f3c102f694c44a3249a80054cceb, type: 2}
    m_RemovedComponents: []
  m_SourcePrefab: {fileID: 100100000, guid: 4b10916118c7f3747b37f07f62a09af6, type: 3}
--- !u!1 &1447322679 stripped
GameObject:
  m_CorrespondingSourceObject: {fileID: 1384376803286879325, guid: 4b10916118c7f3747b37f07f62a09af6,
    type: 3}
  m_PrefabInstance: {fileID: 1447322678}
  m_PrefabAsset: {fileID: 0}
--- !u!114 &1447322680
MonoBehaviour:
  m_ObjectHideFlags: 0
  m_CorrespondingSourceObject: {fileID: 0}
  m_PrefabInstance: {fileID: 0}
  m_PrefabAsset: {fileID: 0}
  m_GameObject: {fileID: 1447322679}
  m_Enabled: 1
  m_EditorHideFlags: 0
  m_Script: {fileID: 11500000, guid: 6650879526f1e0d4987b245be73c154c, type: 3}
  m_Name: 
  m_EditorClassIdentifier: 
  rotSpeed: {x: 0, y: -40, z: 0}
--- !u!1001 &1480485980
PrefabInstance:
  m_ObjectHideFlags: 0
  serializedVersion: 2
  m_Modification:
    m_TransformParent: {fileID: 0}
    m_Modifications:
    - target: {fileID: 1384376803286879325, guid: 4b10916118c7f3747b37f07f62a09af6,
        type: 3}
      propertyPath: m_Name
      value: ComicEllen
      objectReference: {fileID: 0}
    - target: {fileID: 1384376803286782077, guid: 4b10916118c7f3747b37f07f62a09af6,
        type: 3}
      propertyPath: m_LocalPosition.x
      value: -7.16
      objectReference: {fileID: 0}
    - target: {fileID: 1384376803286782077, guid: 4b10916118c7f3747b37f07f62a09af6,
        type: 3}
      propertyPath: m_LocalPosition.y
      value: -3.5
      objectReference: {fileID: 0}
    - target: {fileID: 1384376803286782077, guid: 4b10916118c7f3747b37f07f62a09af6,
        type: 3}
      propertyPath: m_LocalPosition.z
      value: 0
      objectReference: {fileID: 0}
    - target: {fileID: 1384376803286782077, guid: 4b10916118c7f3747b37f07f62a09af6,
        type: 3}
      propertyPath: m_LocalRotation.x
      value: 0
      objectReference: {fileID: 0}
    - target: {fileID: 1384376803286782077, guid: 4b10916118c7f3747b37f07f62a09af6,
        type: 3}
      propertyPath: m_LocalRotation.y
      value: 1
      objectReference: {fileID: 0}
    - target: {fileID: 1384376803286782077, guid: 4b10916118c7f3747b37f07f62a09af6,
        type: 3}
      propertyPath: m_LocalRotation.z
      value: 0
      objectReference: {fileID: 0}
    - target: {fileID: 1384376803286782077, guid: 4b10916118c7f3747b37f07f62a09af6,
        type: 3}
      propertyPath: m_LocalRotation.w
      value: 0
      objectReference: {fileID: 0}
    - target: {fileID: 1384376803286782077, guid: 4b10916118c7f3747b37f07f62a09af6,
        type: 3}
      propertyPath: m_RootOrder
      value: 2
      objectReference: {fileID: 0}
    - target: {fileID: 1384376803286782077, guid: 4b10916118c7f3747b37f07f62a09af6,
        type: 3}
      propertyPath: m_LocalEulerAnglesHint.x
      value: 0
      objectReference: {fileID: 0}
    - target: {fileID: 1384376803286782077, guid: 4b10916118c7f3747b37f07f62a09af6,
        type: 3}
      propertyPath: m_LocalEulerAnglesHint.y
      value: 180
      objectReference: {fileID: 0}
    - target: {fileID: 1384376803286782077, guid: 4b10916118c7f3747b37f07f62a09af6,
        type: 3}
      propertyPath: m_LocalEulerAnglesHint.z
      value: 0
      objectReference: {fileID: 0}
    - target: {fileID: 1384376803298378077, guid: 4b10916118c7f3747b37f07f62a09af6,
        type: 3}
      propertyPath: m_Materials.Array.data[0]
      value: 
      objectReference: {fileID: 2100000, guid: a0c650d9e6453104a9e5f453f746ca3a, type: 2}
    - target: {fileID: 1384376803298378077, guid: 4b10916118c7f3747b37f07f62a09af6,
        type: 3}
      propertyPath: m_Materials.Array.data[1]
      value: 
      objectReference: {fileID: 2100000, guid: db39f6c3e9713d24d81c6f82e5bd6fb6, type: 2}
    - target: {fileID: 1384376803298378077, guid: 4b10916118c7f3747b37f07f62a09af6,
        type: 3}
      propertyPath: m_Materials.Array.data[2]
      value: 
      objectReference: {fileID: 2100000, guid: dcf59598825071841959222eb0ca569c, type: 2}
    - target: {fileID: 1384376803298378077, guid: 4b10916118c7f3747b37f07f62a09af6,
        type: 3}
      propertyPath: m_Materials.Array.data[3]
      value: 
      objectReference: {fileID: 2100000, guid: 4c59f7abd1f4a8745b153e69e5620595, type: 2}
    - target: {fileID: 1384376803298378077, guid: 4b10916118c7f3747b37f07f62a09af6,
        type: 3}
      propertyPath: m_Materials.Array.data[4]
      value: 
      objectReference: {fileID: 2100000, guid: a0c650d9e6453104a9e5f453f746ca3a, type: 2}
    - target: {fileID: 1384376803298378077, guid: 4b10916118c7f3747b37f07f62a09af6,
        type: 3}
      propertyPath: m_Materials.Array.data[5]
      value: 
      objectReference: {fileID: 2100000, guid: a0c650d9e6453104a9e5f453f746ca3a, type: 2}
    m_RemovedComponents: []
  m_SourcePrefab: {fileID: 100100000, guid: 4b10916118c7f3747b37f07f62a09af6, type: 3}
--- !u!1 &1480485981 stripped
GameObject:
  m_CorrespondingSourceObject: {fileID: 1384376803286879325, guid: 4b10916118c7f3747b37f07f62a09af6,
    type: 3}
  m_PrefabInstance: {fileID: 1480485980}
  m_PrefabAsset: {fileID: 0}
--- !u!114 &1480485982
MonoBehaviour:
  m_ObjectHideFlags: 0
  m_CorrespondingSourceObject: {fileID: 0}
  m_PrefabInstance: {fileID: 0}
  m_PrefabAsset: {fileID: 0}
  m_GameObject: {fileID: 1480485981}
  m_Enabled: 1
  m_EditorHideFlags: 0
  m_Script: {fileID: 11500000, guid: 6650879526f1e0d4987b245be73c154c, type: 3}
  m_Name: 
  m_EditorClassIdentifier: 
  rotSpeed: {x: 0, y: -40, z: 0}
--- !u!1 &1556322118
GameObject:
  m_ObjectHideFlags: 0
  m_CorrespondingSourceObject: {fileID: 0}
  m_PrefabInstance: {fileID: 0}
  m_PrefabAsset: {fileID: 0}
  serializedVersion: 6
  m_Component:
  - component: {fileID: 1556322122}
  - component: {fileID: 1556322121}
  - component: {fileID: 1556322120}
  - component: {fileID: 1556322119}
  m_Layer: 0
  m_Name: Background
  m_TagString: Untagged
  m_Icon: {fileID: 0}
  m_NavMeshLayer: 0
  m_StaticEditorFlags: 0
  m_IsActive: 1
--- !u!64 &1556322119
MeshCollider:
  m_ObjectHideFlags: 0
  m_CorrespondingSourceObject: {fileID: 0}
  m_PrefabInstance: {fileID: 0}
  m_PrefabAsset: {fileID: 0}
  m_GameObject: {fileID: 1556322118}
  m_Material: {fileID: 0}
  m_IsTrigger: 0
  m_Enabled: 1
  serializedVersion: 3
  m_Convex: 0
  m_CookingOptions: 14
  m_Mesh: {fileID: 10209, guid: 0000000000000000e000000000000000, type: 0}
--- !u!23 &1556322120
MeshRenderer:
  m_ObjectHideFlags: 0
  m_CorrespondingSourceObject: {fileID: 0}
  m_PrefabInstance: {fileID: 0}
  m_PrefabAsset: {fileID: 0}
  m_GameObject: {fileID: 1556322118}
  m_Enabled: 1
  m_CastShadows: 1
  m_ReceiveShadows: 1
  m_DynamicOccludee: 1
  m_MotionVectors: 1
  m_LightProbeUsage: 1
  m_ReflectionProbeUsage: 1
  m_RenderingLayerMask: 1
  m_RendererPriority: 0
  m_Materials:
  - {fileID: 2100000, guid: 47f73865057bf6e4ca80009f7b6340a4, type: 2}
  m_StaticBatchInfo:
    firstSubMesh: 0
    subMeshCount: 0
  m_StaticBatchRoot: {fileID: 0}
  m_ProbeAnchor: {fileID: 0}
  m_LightProbeVolumeOverride: {fileID: 0}
  m_ScaleInLightmap: 1
  m_ReceiveGI: 1
  m_PreserveUVs: 0
  m_IgnoreNormalsForChartDetection: 0
  m_ImportantGI: 0
  m_StitchLightmapSeams: 1
  m_SelectedEditorRenderState: 3
  m_MinimumChartSize: 4
  m_AutoUVMaxDistance: 0.5
  m_AutoUVMaxAngle: 89
  m_LightmapParameters: {fileID: 0}
  m_SortingLayerID: 0
  m_SortingLayer: 0
  m_SortingOrder: 0
--- !u!33 &1556322121
MeshFilter:
  m_ObjectHideFlags: 0
  m_CorrespondingSourceObject: {fileID: 0}
  m_PrefabInstance: {fileID: 0}
  m_PrefabAsset: {fileID: 0}
  m_GameObject: {fileID: 1556322118}
  m_Mesh: {fileID: 10209, guid: 0000000000000000e000000000000000, type: 0}
--- !u!4 &1556322122
Transform:
  m_ObjectHideFlags: 0
  m_CorrespondingSourceObject: {fileID: 0}
  m_PrefabInstance: {fileID: 0}
  m_PrefabAsset: {fileID: 0}
  m_GameObject: {fileID: 1556322118}
  m_LocalRotation: {x: -0.7071068, y: 0, z: 0, w: 0.7071068}
  m_LocalPosition: {x: 0, y: 0, z: 15}
  m_LocalScale: {x: 10, y: 10, z: 10}
  m_Children: []
  m_Father: {fileID: 0}
  m_RootOrder: 9
  m_LocalEulerAnglesHint: {x: -90, y: 0, z: 0}
--- !u!1 &1671883335
GameObject:
  m_ObjectHideFlags: 0
  m_CorrespondingSourceObject: {fileID: 0}
  m_PrefabInstance: {fileID: 0}
  m_PrefabAsset: {fileID: 0}
  serializedVersion: 6
  m_Component:
  - component: {fileID: 1671883338}
  - component: {fileID: 1671883337}
  - component: {fileID: 1671883336}
  m_Layer: 0
  m_Name: Main Camera
  m_TagString: MainCamera
  m_Icon: {fileID: 0}
  m_NavMeshLayer: 0
  m_StaticEditorFlags: 0
  m_IsActive: 1
--- !u!81 &1671883336
AudioListener:
  m_ObjectHideFlags: 0
  m_CorrespondingSourceObject: {fileID: 0}
  m_PrefabInstance: {fileID: 0}
  m_PrefabAsset: {fileID: 0}
  m_GameObject: {fileID: 1671883335}
  m_Enabled: 1
--- !u!20 &1671883337
Camera:
  m_ObjectHideFlags: 0
  m_CorrespondingSourceObject: {fileID: 0}
  m_PrefabInstance: {fileID: 0}
  m_PrefabAsset: {fileID: 0}
  m_GameObject: {fileID: 1671883335}
  m_Enabled: 1
  serializedVersion: 2
  m_ClearFlags: 1
  m_BackGroundColor: {r: 0.19215687, g: 0.3019608, b: 0.4745098, a: 0}
  m_projectionMatrixMode: 1
  m_GateFitMode: 2
  m_FOVAxisMode: 0
  m_SensorSize: {x: 36, y: 24}
  m_LensShift: {x: 0, y: 0}
  m_FocalLength: 50
  m_NormalizedViewPortRect:
    serializedVersion: 2
    x: 0
    y: 0
    width: 1
    height: 1
  near clip plane: 0.3
  far clip plane: 1000
  field of view: 60
  orthographic: 1
  orthographic size: 6.3777304
  m_Depth: -1
  m_CullingMask:
    serializedVersion: 2
    m_Bits: 4294967295
  m_RenderingPath: -1
  m_TargetTexture: {fileID: 0}
  m_TargetDisplay: 0
  m_TargetEye: 3
  m_HDR: 1
  m_AllowMSAA: 1
  m_AllowDynamicResolution: 0
  m_ForceIntoRT: 0
  m_OcclusionCulling: 1
  m_StereoConvergence: 10
  m_StereoSeparation: 0.022
--- !u!4 &1671883338
Transform:
  m_ObjectHideFlags: 0
  m_CorrespondingSourceObject: {fileID: 0}
  m_PrefabInstance: {fileID: 0}
  m_PrefabAsset: {fileID: 0}
  m_GameObject: {fileID: 1671883335}
  m_LocalRotation: {x: 0, y: 0, z: 0, w: 1}
  m_LocalPosition: {x: 1.81, y: 1, z: -10}
  m_LocalScale: {x: 1, y: 1, z: 1}
  m_Children: []
  m_Father: {fileID: 0}
  m_RootOrder: 0
  m_LocalEulerAnglesHint: {x: 0, y: 0, z: 0}
--- !u!1001 &1727798651
PrefabInstance:
  m_ObjectHideFlags: 0
  serializedVersion: 2
  m_Modification:
    m_TransformParent: {fileID: 0}
    m_Modifications:
    - target: {fileID: 1384376803286879325, guid: 4b10916118c7f3747b37f07f62a09af6,
        type: 3}
      propertyPath: m_Name
      value: OldFilmEllen
      objectReference: {fileID: 0}
    - target: {fileID: 1384376803286782077, guid: 4b10916118c7f3747b37f07f62a09af6,
        type: 3}
      propertyPath: m_LocalPosition.x
      value: 4.84
      objectReference: {fileID: 0}
    - target: {fileID: 1384376803286782077, guid: 4b10916118c7f3747b37f07f62a09af6,
        type: 3}
      propertyPath: m_LocalPosition.y
      value: -3.5
      objectReference: {fileID: 0}
    - target: {fileID: 1384376803286782077, guid: 4b10916118c7f3747b37f07f62a09af6,
        type: 3}
      propertyPath: m_LocalPosition.z
      value: 0
      objectReference: {fileID: 0}
    - target: {fileID: 1384376803286782077, guid: 4b10916118c7f3747b37f07f62a09af6,
        type: 3}
      propertyPath: m_LocalRotation.x
      value: 0
      objectReference: {fileID: 0}
    - target: {fileID: 1384376803286782077, guid: 4b10916118c7f3747b37f07f62a09af6,
        type: 3}
      propertyPath: m_LocalRotation.y
      value: 1
      objectReference: {fileID: 0}
    - target: {fileID: 1384376803286782077, guid: 4b10916118c7f3747b37f07f62a09af6,
        type: 3}
      propertyPath: m_LocalRotation.z
      value: 0
      objectReference: {fileID: 0}
    - target: {fileID: 1384376803286782077, guid: 4b10916118c7f3747b37f07f62a09af6,
        type: 3}
      propertyPath: m_LocalRotation.w
      value: 0
      objectReference: {fileID: 0}
    - target: {fileID: 1384376803286782077, guid: 4b10916118c7f3747b37f07f62a09af6,
        type: 3}
      propertyPath: m_RootOrder
      value: 6
      objectReference: {fileID: 0}
    - target: {fileID: 1384376803286782077, guid: 4b10916118c7f3747b37f07f62a09af6,
        type: 3}
      propertyPath: m_LocalEulerAnglesHint.x
      value: 0
      objectReference: {fileID: 0}
    - target: {fileID: 1384376803286782077, guid: 4b10916118c7f3747b37f07f62a09af6,
        type: 3}
      propertyPath: m_LocalEulerAnglesHint.y
      value: 180
      objectReference: {fileID: 0}
    - target: {fileID: 1384376803286782077, guid: 4b10916118c7f3747b37f07f62a09af6,
        type: 3}
      propertyPath: m_LocalEulerAnglesHint.z
      value: 0
      objectReference: {fileID: 0}
    - target: {fileID: 1384376803298378077, guid: 4b10916118c7f3747b37f07f62a09af6,
        type: 3}
      propertyPath: m_Materials.Array.data[0]
      value: 
      objectReference: {fileID: 2100000, guid: 4a6043cbdf0a05b48ad35592f7a8bd41, type: 2}
    - target: {fileID: 1384376803298378077, guid: 4b10916118c7f3747b37f07f62a09af6,
        type: 3}
      propertyPath: m_Materials.Array.data[1]
      value: 
      objectReference: {fileID: 2100000, guid: 3a7a4273695833f4f9e6c5498a4d07c0, type: 2}
    - target: {fileID: 1384376803298378077, guid: 4b10916118c7f3747b37f07f62a09af6,
        type: 3}
      propertyPath: m_Materials.Array.data[2]
      value: 
      objectReference: {fileID: 2100000, guid: 21373d8151bbde4428d8c81e965b47b2, type: 2}
    - target: {fileID: 1384376803298378077, guid: 4b10916118c7f3747b37f07f62a09af6,
        type: 3}
      propertyPath: m_Materials.Array.data[3]
      value: 
      objectReference: {fileID: 2100000, guid: f2c13969ff7a8bd4a95dfbb240184ab4, type: 2}
    - target: {fileID: 1384376803298378077, guid: 4b10916118c7f3747b37f07f62a09af6,
        type: 3}
      propertyPath: m_Materials.Array.data[4]
      value: 
      objectReference: {fileID: 2100000, guid: 4a6043cbdf0a05b48ad35592f7a8bd41, type: 2}
    - target: {fileID: 1384376803298378077, guid: 4b10916118c7f3747b37f07f62a09af6,
        type: 3}
      propertyPath: m_Materials.Array.data[5]
      value: 
      objectReference: {fileID: 2100000, guid: 4a6043cbdf0a05b48ad35592f7a8bd41, type: 2}
    m_RemovedComponents: []
  m_SourcePrefab: {fileID: 100100000, guid: 4b10916118c7f3747b37f07f62a09af6, type: 3}
--- !u!1 &1727798652 stripped
GameObject:
  m_CorrespondingSourceObject: {fileID: 1384376803286879325, guid: 4b10916118c7f3747b37f07f62a09af6,
    type: 3}
  m_PrefabInstance: {fileID: 1727798651}
  m_PrefabAsset: {fileID: 0}
--- !u!114 &1727798653
MonoBehaviour:
  m_ObjectHideFlags: 0
  m_CorrespondingSourceObject: {fileID: 0}
  m_PrefabInstance: {fileID: 0}
  m_PrefabAsset: {fileID: 0}
  m_GameObject: {fileID: 1727798652}
  m_Enabled: 1
  m_EditorHideFlags: 0
  m_Script: {fileID: 11500000, guid: 6650879526f1e0d4987b245be73c154c, type: 3}
  m_Name: 
  m_EditorClassIdentifier: 
  rotSpeed: {x: 0, y: -40, z: 0}
--- !u!1001 &7013073716760675758
PrefabInstance:
  m_ObjectHideFlags: 0
  serializedVersion: 2
  m_Modification:
    m_TransformParent: {fileID: 0}
    m_Modifications:
    - target: {fileID: 1384376803286879325, guid: 4b10916118c7f3747b37f07f62a09af6,
        type: 3}
      propertyPath: m_Name
      value: FantasyEllen
      objectReference: {fileID: 0}
    - target: {fileID: 1384376803286782077, guid: 4b10916118c7f3747b37f07f62a09af6,
        type: 3}
      propertyPath: m_LocalPosition.x
      value: 10.84
      objectReference: {fileID: 0}
    - target: {fileID: 1384376803286782077, guid: 4b10916118c7f3747b37f07f62a09af6,
        type: 3}
      propertyPath: m_LocalPosition.y
      value: -3.5
      objectReference: {fileID: 0}
    - target: {fileID: 1384376803286782077, guid: 4b10916118c7f3747b37f07f62a09af6,
        type: 3}
      propertyPath: m_LocalPosition.z
      value: 0
      objectReference: {fileID: 0}
    - target: {fileID: 1384376803286782077, guid: 4b10916118c7f3747b37f07f62a09af6,
        type: 3}
      propertyPath: m_LocalRotation.x
      value: 0
      objectReference: {fileID: 0}
    - target: {fileID: 1384376803286782077, guid: 4b10916118c7f3747b37f07f62a09af6,
        type: 3}
      propertyPath: m_LocalRotation.y
      value: 1
      objectReference: {fileID: 0}
    - target: {fileID: 1384376803286782077, guid: 4b10916118c7f3747b37f07f62a09af6,
        type: 3}
      propertyPath: m_LocalRotation.z
      value: 0
      objectReference: {fileID: 0}
    - target: {fileID: 1384376803286782077, guid: 4b10916118c7f3747b37f07f62a09af6,
        type: 3}
      propertyPath: m_LocalRotation.w
      value: 0
      objectReference: {fileID: 0}
    - target: {fileID: 1384376803286782077, guid: 4b10916118c7f3747b37f07f62a09af6,
        type: 3}
      propertyPath: m_RootOrder
      value: 8
      objectReference: {fileID: 0}
    - target: {fileID: 1384376803286782077, guid: 4b10916118c7f3747b37f07f62a09af6,
        type: 3}
      propertyPath: m_LocalEulerAnglesHint.x
      value: 0
      objectReference: {fileID: 0}
    - target: {fileID: 1384376803286782077, guid: 4b10916118c7f3747b37f07f62a09af6,
        type: 3}
      propertyPath: m_LocalEulerAnglesHint.y
      value: 180
      objectReference: {fileID: 0}
    - target: {fileID: 1384376803286782077, guid: 4b10916118c7f3747b37f07f62a09af6,
        type: 3}
      propertyPath: m_LocalEulerAnglesHint.z
      value: 0
      objectReference: {fileID: 0}
    - target: {fileID: 1384376803298378077, guid: 4b10916118c7f3747b37f07f62a09af6,
        type: 3}
      propertyPath: m_Materials.Array.data[0]
      value: 
      objectReference: {fileID: 2100000, guid: 669f1510b259ed94c96cb93a930ca36a, type: 2}
    - target: {fileID: 1384376803298378077, guid: 4b10916118c7f3747b37f07f62a09af6,
        type: 3}
      propertyPath: m_Materials.Array.data[1]
      value: 
      objectReference: {fileID: 2100000, guid: ce2f4bf7cbf3a2d4daad41f603ea4206, type: 2}
    - target: {fileID: 1384376803298378077, guid: 4b10916118c7f3747b37f07f62a09af6,
        type: 3}
      propertyPath: m_Materials.Array.data[2]
      value: 
      objectReference: {fileID: 2100000, guid: 88ce29f541157864f8b96c80a7319995, type: 2}
    - target: {fileID: 1384376803298378077, guid: 4b10916118c7f3747b37f07f62a09af6,
        type: 3}
      propertyPath: m_Materials.Array.data[3]
      value: 
      objectReference: {fileID: 2100000, guid: 545f8ff9e7ead294d9eec6ce7ca49bff, type: 2}
    - target: {fileID: 1384376803298378077, guid: 4b10916118c7f3747b37f07f62a09af6,
        type: 3}
      propertyPath: m_Materials.Array.data[4]
      value: 
      objectReference: {fileID: 2100000, guid: 669f1510b259ed94c96cb93a930ca36a, type: 2}
    - target: {fileID: 1384376803298378077, guid: 4b10916118c7f3747b37f07f62a09af6,
        type: 3}
      propertyPath: m_Materials.Array.data[5]
      value: 
      objectReference: {fileID: 2100000, guid: 669f1510b259ed94c96cb93a930ca36a, type: 2}
    m_RemovedComponents: []
  m_SourcePrefab: {fileID: 100100000, guid: 4b10916118c7f3747b37f07f62a09af6, type: 3}
--- !u!1 &8243058728183695859 stripped
GameObject:
  m_CorrespondingSourceObject: {fileID: 1384376803286879325, guid: 4b10916118c7f3747b37f07f62a09af6,
    type: 3}
  m_PrefabInstance: {fileID: 7013073716760675758}
  m_PrefabAsset: {fileID: 0}
--- !u!114 &8243058728183695860
MonoBehaviour:
  m_ObjectHideFlags: 0
  m_CorrespondingSourceObject: {fileID: 0}
  m_PrefabInstance: {fileID: 0}
  m_PrefabAsset: {fileID: 0}
  m_GameObject: {fileID: 8243058728183695859}
  m_Enabled: 1
  m_EditorHideFlags: 0
  m_Script: {fileID: 11500000, guid: 6650879526f1e0d4987b245be73c154c, type: 3}
  m_Name: 
  m_EditorClassIdentifier: 
  rotSpeed: {x: 0, y: -40, z: 0}
