# This file uses centimeters as units for non-parametric coordinates.

mtllib Wall_Low.mtl
g default
v -48.526501 0.000000 29.578699
v -48.526501 0.000000 20.879999
v -31.398701 0.000000 29.578699
v -16.030899 0.000000 29.578699
v -0.663200 0.000000 29.578699
v 16.398800 0.000000 29.578699
v 32.630100 0.000000 29.578699
v -48.526501 0.000000 12.181300
v -48.526501 0.000000 3.482500
v -48.526501 0.000000 -5.216200
v -48.526501 0.000000 -13.914900
v -48.526501 0.000000 -22.613600
v -48.526501 0.000000 -31.312300
v -45.759102 7.134000 27.583200
v -33.491100 7.134000 27.583200
v -33.491100 7.134000 20.884501
v -45.759102 7.134000 20.884501
v -14.724500 8.513400 28.565401
v -2.456500 8.513400 28.578699
v -1.902559 8.513400 21.879999
v -14.724500 8.513400 21.216230
v 18.035700 7.134000 28.578699
v 30.993099 7.134000 28.578699
v 31.948267 7.134000 21.879999
v 18.035700 7.134000 21.575006
v -44.370098 8.703300 12.264897
v -32.398632 8.703300 12.458949
v -32.102100 8.703300 4.873349
v -44.370098 8.703300 4.482500
v -14.640482 7.134000 11.230278
v -1.364736 7.134000 10.019657
v -4.054825 7.134000 4.482500
v -12.805301 7.134000 4.212947
v 19.679478 8.599700 13.181300
v 32.520863 8.599700 12.059126
v 31.698143 7.158885 1.807723
v 20.873236 7.171494 1.277819
v -46.889500 7.134000 -5.582813
v -31.817188 7.134000 -5.300303
v -31.542423 7.134000 -13.828943
v -46.889500 7.134000 -13.839100
v -11.453652 7.582699 -5.750453
v -0.576389 7.582799 -5.707078
v 0.035438 7.582799 -12.944173
v -13.306717 7.582799 -13.504634
v 20.065552 8.345500 -6.216201
v 32.643703 8.345500 -7.239114
v 32.992599 8.345500 -13.012436
v 20.044477 8.345500 -12.914900
v -45.748299 7.134000 -22.713495
v -32.887955 7.134000 -22.600740
v -33.088909 7.134000 -30.312300
v -45.748299 7.134000 -30.312300
v -14.332551 7.134000 -23.841757
v 1.866814 7.134000 -23.745312
v 1.836164 7.134000 -30.443399
v -15.309983 7.134000 -30.450392
v 19.763191 7.125831 -22.316851
v 31.907499 7.134000 -24.166201
v 31.907499 7.134000 -29.749901
v 20.881901 7.134000 -29.749901
v -48.526501 0.000000 -40.011002
v -32.295101 0.000000 -40.011002
v -16.063801 0.000000 -40.011002
v 2.494246 0.000000 -40.011002
v 20.573999 0.000000 -40.011002
v 34.385502 0.000000 -40.011002
v -17.824200 8.513400 18.815466
v -16.960758 8.513400 12.138582
v -30.209930 8.513400 13.526431
v -30.092199 8.513400 19.746588
v 14.761800 7.134000 19.575006
v 14.107148 7.134000 13.181300
v 1.202442 7.134000 12.150366
v 1.808637 7.134000 19.879999
v 47.224400 7.134000 19.879999
v 47.224400 7.134000 13.181300
v 33.996460 7.134000 11.061760
v 34.538162 7.134000 19.879999
v -17.017931 7.134000 2.645116
v -16.024775 7.134000 -4.296471
v -29.535666 7.134000 -3.374630
v -30.092199 7.134000 3.037472
v 18.134802 8.654397 0.655214
v 18.520626 8.599700 -4.216200
v 4.426905 8.599700 -4.216200
v 3.544816 8.654397 1.770851
v 46.804001 8.101300 2.482500
v 46.804001 8.101300 -5.146918
v 34.280544 8.101300 -5.814861
v 33.788361 8.109145 -0.305736
v -16.287477 8.904100 -15.576217
v -16.284142 8.904100 -21.875359
v -30.566706 8.904100 -21.422102
v -30.029123 8.904100 -14.953531
v 18.750074 8.345500 -14.914900
v 18.833509 8.345765 -21.082830
v 7.011323 8.345500 -21.031601
v 6.392396 8.345500 -14.914900
v 46.804001 7.134000 -15.760712
v 46.804001 7.134000 -21.190100
v 35.778400 7.134000 -21.190100
v 35.778400 7.134000 -15.986384
v -16.063801 5.412400 -31.312300
v -16.063801 5.412400 -40.011002
v -32.295101 5.412400 -40.011002
v -32.472885 5.412400 -31.312300
v 20.573999 5.412400 -31.312300
v 20.573999 5.412400 -40.011002
v 2.494246 5.412400 -40.011002
v 2.625500 5.412400 -31.312300
v 48.861401 5.412400 -31.312300
v 48.861401 5.412400 -40.011002
v 34.385502 5.412400 -40.011002
v 34.385502 5.412400 -31.312300
v 48.861401 0.000000 20.879999
v 48.861401 0.000000 29.578699
v 48.861401 0.000000 3.482500
v 48.861401 0.000000 12.181300
v 48.861401 0.000000 -13.914900
v 48.861401 0.000000 -5.216200
v 48.861401 0.000000 -31.312300
v 48.861401 0.000000 -22.613600
v -30.092199 7.134000 28.578699
v -17.824200 7.134000 28.555161
v -17.824200 7.134000 21.132980
v -30.092199 7.134000 21.826353
v 1.804400 7.134000 28.578699
v 14.761800 7.134000 28.578699
v 14.761800 7.134000 21.575006
v 1.804400 7.134000 21.879999
v 34.267101 7.134000 28.578699
v 47.224400 7.134000 28.578699
v 47.224400 7.134000 21.879999
v 34.344212 7.134000 21.879999
v -30.994066 7.134000 12.124452
v -17.788359 7.134000 10.735896
v -17.113205 7.134000 4.323482
v -30.815201 7.134000 4.941592
v 0.740708 8.511711 10.534943
v 13.499599 8.511711 11.181300
v 11.739260 8.511711 4.482500
v 2.303300 8.532812 4.207959
v 34.126667 8.101300 10.038036
v 47.224400 8.101300 11.181300
v 47.224400 8.101300 4.482500
v 33.835861 8.107895 0.821710
v -29.895378 8.904100 -5.223921
v -16.421970 8.904000 -6.518129
v -17.207930 8.904000 -13.548346
v -29.942924 8.904100 -12.824493
v 5.031929 7.134000 -6.216200
v 18.662758 7.134000 -6.216200
v 18.666149 7.134000 -12.914900
v 6.355639 7.134000 -12.914900
v 35.296169 7.134000 -6.864563
v 46.804001 7.134000 -6.780604
v 46.804001 7.134000 -14.854143
v 35.778400 7.134000 -14.619417
v -30.852962 7.134000 -22.579807
v -16.124380 7.134000 -23.209072
v -17.653831 7.134000 -29.938612
v -30.824541 7.134000 -29.924601
v 4.428817 7.124882 -23.204130
v 18.694992 7.124501 -23.267328
v 18.563000 7.134000 -30.924601
v 4.079999 7.134000 -30.924601
v 35.778400 7.134000 -23.613600
v 46.804001 7.134000 -23.613600
v 46.804001 7.134000 -30.312300
v 35.778400 7.134000 -30.312300
v 48.861401 0.000000 -40.011002
v -33.774517 7.134000 13.568920
v -47.404400 7.134000 13.244044
v -47.404400 7.134000 19.879999
v -33.679501 7.134000 19.879999
v -1.440980 8.513400 11.696717
v -14.706504 8.513400 12.408024
v -14.736220 8.513400 18.938641
v -1.553652 8.513400 19.879999
v 18.035700 8.599700 19.807034
v 33.098022 8.599700 19.879999
v -31.488842 8.703300 -2.881245
v -44.198399 8.703300 -3.695700
v -44.198399 8.703300 3.003000
v -31.930500 8.703300 3.461509
v -2.767761 7.134000 -4.134491
v -12.639258 7.134000 -4.148146
v -12.818753 7.134000 2.496688
v -4.123559 7.134000 2.482500
v 32.504036 7.134000 -5.914246
v 21.194269 7.134000 -4.216200
v 21.638721 7.134000 0.060838
v 32.049675 7.137856 -0.590887
v -32.783867 7.134000 -20.383310
v -46.889500 7.134000 -20.475016
v -0.672833 8.904000 -20.190086
v -10.832749 8.904000 -20.959135
v -10.692402 8.904000 -15.262055
v -0.224514 8.904100 -14.947222
v 32.992599 7.134000 -21.613600
v 20.988611 7.134425 -21.656572
v 21.188921 7.134000 -14.914900
v 32.992599 7.134000 -15.298539
v -48.526501 5.412400 -40.011002
v -48.526501 5.412400 -31.312300
v -32.295101 5.412400 29.578699
v -48.526501 5.412400 29.578699
v -16.274401 5.412400 29.578699
v 0.167500 5.412400 29.578699
v 16.398800 5.412400 29.578699
v 32.630100 5.412400 29.578699
v 48.861401 5.412400 29.578699
v 48.861401 5.412400 20.879999
v 48.861401 5.412400 12.181300
v 48.861401 5.412400 3.482500
v 48.861401 5.412400 -5.248045
v 48.861401 5.412400 -14.271712
v 48.861401 5.412400 -22.613600
v -48.526501 5.412400 -22.461025
v -48.526501 5.412400 -13.914900
v -48.526501 5.412400 -5.216200
v -48.526501 5.412400 3.482500
v -48.526501 5.412400 12.181300
v -48.526501 5.412400 20.879999
v -31.642099 5.412400 20.866701
v -0.794324 5.412400 20.879999
v -16.274401 5.412400 20.087826
v 32.841885 5.412400 20.879999
v 16.398800 5.412400 20.155861
v -31.689432 5.412400 12.508708
v -31.642099 5.412400 3.936932
v -15.801969 5.412400 11.634728
v -0.683673 5.412400 11.433402
v 0.161829 5.412400 3.564000
v -14.378454 5.412400 3.404080
v 32.604698 5.412400 11.311508
v 32.772732 5.413426 1.271275
v 19.649521 5.470837 1.175411
v 17.828976 5.412400 12.181300
v -31.255009 5.412400 -4.607879
v -31.250351 5.412400 -13.914900
v -14.347014 5.412400 -5.411249
v 3.722355 5.412400 -5.134700
v 1.406599 5.412400 -13.914900
v -15.670061 5.412400 -14.500480
v 20.338793 5.412400 -5.216200
v 33.047363 5.412400 -5.718914
v 34.385502 5.412400 -14.655043
v 20.290348 5.412400 -13.914900
v -32.194916 5.412400 -22.011820
v -14.991104 5.412400 -22.771322
v 2.044005 5.412400 -23.055099
v 19.871071 5.409352 -22.351557
v 34.385502 5.412400 -22.613600
v -48.493198 5.515800 -31.686100
v -48.493198 6.389600 -31.617901
v -48.493198 7.263500 -31.686100
v -48.493198 8.077900 -31.885900
v -48.493198 8.777100 -32.203701
v -48.493198 9.313700 -32.617901
v -48.493198 9.651000 -33.100300
v -48.493198 9.766100 -33.617901
v -48.493198 9.651000 -34.135502
v -48.493198 9.313700 -34.617901
v -48.493198 8.777100 -35.032101
v -48.493198 8.077900 -35.349998
v -48.493198 7.263500 -35.549801
v -48.493198 6.389600 -35.617901
v -48.493198 5.515800 -35.549801
v -29.084000 5.515800 -35.549801
v -29.084000 6.389600 -35.617901
v -29.084000 7.263500 -35.549801
v -29.084000 8.077900 -35.349998
v -29.084000 8.777100 -35.032101
v -29.084000 9.313700 -34.617901
v -29.084000 9.651000 -34.135502
v -29.084000 9.766100 -33.617901
v -29.084000 9.651000 -33.100300
v -29.084000 9.313700 -32.617901
v -29.085459 8.777100 -32.203701
v -29.093912 8.077900 -31.885900
v -29.101400 7.263500 -31.686100
v -29.099369 6.389600 -31.617901
v -29.089638 5.515800 -31.686100
v -9.674800 5.515800 -35.549801
v -9.674800 6.389600 -35.617901
v -9.674800 7.263500 -35.549801
v -9.674800 8.077900 -35.349998
v -9.674800 8.777100 -35.032101
v -9.674800 9.313700 -34.617901
v -9.674800 9.651000 -34.135502
v -9.674800 9.766100 -33.617901
v -9.674800 9.651000 -33.100300
v -9.674800 9.313700 -32.617901
v -9.674800 8.777100 -32.203701
v -9.674800 8.077900 -31.885900
v -9.674800 7.263500 -31.686100
v -9.674800 6.389600 -31.617901
v -9.674800 5.515800 -31.686100
v 9.734400 5.515800 -35.549801
v 9.734400 6.389600 -35.617901
v 9.734400 7.263500 -35.549801
v 9.734400 8.077900 -35.349998
v 9.734400 8.777100 -35.032101
v 9.734400 9.313700 -34.617901
v 9.734400 9.651000 -34.135502
v 9.734400 9.766100 -33.617901
v 9.734400 9.651000 -33.100300
v 9.734400 9.313700 -32.617901
v 9.734400 8.777100 -32.203701
v 9.734400 8.077900 -31.885900
v 9.734400 7.263500 -31.686100
v 9.734400 6.389600 -31.617901
v 9.734400 5.515800 -31.686100
v 29.143600 5.515800 -35.549801
v 29.143600 6.389600 -35.617901
v 29.143600 7.263500 -35.549801
v 29.143600 8.077900 -35.349998
v 29.143600 8.777100 -35.032101
v 29.143600 9.313700 -34.617901
v 29.143600 9.651000 -34.135502
v 29.143600 9.766100 -33.617901
v 29.143600 9.651000 -33.100300
v 29.143600 9.313700 -32.617901
v 29.143600 8.777100 -32.203701
v 29.143600 8.077900 -31.885900
v 29.143600 7.263500 -31.686100
v 29.143600 6.389600 -31.617901
v 29.143600 5.515800 -31.686100
v 48.552700 5.515800 -35.549801
v 48.552700 6.389600 -35.617901
v 48.552700 7.263500 -35.549801
v 48.552700 8.077900 -35.349998
v 48.552700 8.777100 -35.032101
v 48.552700 9.313700 -34.617901
v 48.552700 9.651000 -34.135502
v 48.552700 9.766100 -33.617901
v 48.552700 9.651000 -33.100300
v 48.552700 9.313700 -32.617901
v 48.552700 8.777100 -32.203701
v 48.552700 8.077900 -31.885900
v 48.552700 7.263500 -31.686100
v 48.552700 6.389600 -31.617901
v 48.552700 5.515800 -31.686100
vt 0.043401 0.085663
vt 0.043378 0.162467
vt 0.235662 0.030923
vt 0.370608 0.028001
vt 0.508304 0.032560
vt 0.657512 0.042424
vt 0.799960 0.049740
vt 0.039931 0.243057
vt 0.036670 0.330010
vt 0.034478 0.416373
vt 0.029841 0.498267
vt 0.032572 0.578025
vt 0.031382 0.657458
vt 0.112447 0.099820
vt 0.214565 0.096056
vt 0.213287 0.148015
vt 0.113600 0.150085
vt 0.389653 0.093117
vt 0.486330 0.095294
vt 0.485215 0.143419
vt 0.386801 0.145978
vt 0.672340 0.101913
vt 0.780074 0.107662
vt 0.785176 0.161316
vt 0.669107 0.159086
vt 0.122896 0.260525
vt 0.211192 0.260673
vt 0.213384 0.311660
vt 0.118213 0.312458
vt 0.381940 0.268833
vt 0.490596 0.277108
vt 0.467799 0.323964
vt 0.394565 0.323591
vt 0.680520 0.247421
vt 0.780074 0.259245
vt 0.776565 0.345649
vt 0.687773 0.346207
vt 0.095462 0.433695
vt 0.218144 0.432620
vt 0.218382 0.506211
vt 0.093266 0.502014
vt 0.404784 0.435818
vt 0.492208 0.441896
vt 0.493913 0.495956
vt 0.389385 0.496398
vt 0.686139 0.447456
vt 0.774737 0.455935
vt 0.777033 0.501163
vt 0.682330 0.495680
vt 0.102094 0.590615
vt 0.204949 0.597096
vt 0.202295 0.658190
vt 0.100278 0.649104
vt 0.376176 0.617964
vt 0.505559 0.620021
vt 0.506022 0.674421
vt 0.367381 0.670591
vt 0.673405 0.610503
vt 0.767435 0.618694
vt 0.766916 0.665335
vt 0.679400 0.668416
vt 0.072101 0.777599
vt 0.208977 0.788175
vt 0.350655 0.797992
vt 0.513833 0.802714
vt 0.671377 0.801313
vt 0.789260 0.797924
vt 0.346903 0.186792
vt 0.349450 0.236040
vt 0.251981 0.224850
vt 0.251349 0.179702
vt 0.632788 0.187199
vt 0.623550 0.238626
vt 0.520532 0.244592
vt 0.526769 0.180023
vt 0.921250 0.198208
vt 0.921298 0.251558
vt 0.817064 0.254552
vt 0.815150 0.190175
vt 0.352588 0.349988
vt 0.361016 0.404073
vt 0.246068 0.401281
vt 0.245080 0.346851
vt 0.650495 0.374651
vt 0.653452 0.407689
vt 0.545333 0.407726
vt 0.537218 0.365621
vt 0.912164 0.370973
vt 0.904981 0.424320
vt 0.808064 0.419759
vt 0.805280 0.380779
vt 0.350721 0.535327
vt 0.346677 0.578919
vt 0.242834 0.570480
vt 0.248423 0.527534
vt 0.648560 0.534980
vt 0.649789 0.579506
vt 0.556418 0.581083
vt 0.554824 0.533877
vt 0.899096 0.542144
vt 0.895879 0.585087
vt 0.806399 0.583547
vt 0.809512 0.541091
vt 0.354834 0.683838
vt 0.352218 0.753978
vt 0.211080 0.744096
vt 0.212141 0.673297
vt 0.670061 0.686552
vt 0.670945 0.757254
vt 0.514269 0.758685
vt 0.516713 0.688358
vt 0.911440 0.680525
vt 0.910050 0.751714
vt 0.788684 0.753736
vt 0.788927 0.682427
vt 0.982038 0.186794
vt 0.939446 0.060252
vt 0.978484 0.356444
vt 0.982134 0.269336
vt 0.963854 0.525168
vt 0.971735 0.443140
vt 0.955481 0.679688
vt 0.959015 0.603164
vt 0.248854 0.089641
vt 0.350603 0.087545
vt 0.351027 0.150054
vt 0.249326 0.144858
vt 0.530854 0.093019
vt 0.637505 0.100399
vt 0.635782 0.157212
vt 0.528429 0.149689
vt 0.814105 0.109241
vt 0.921395 0.117777
vt 0.920585 0.169987
vt 0.813789 0.162557
vt 0.241153 0.256206
vt 0.348276 0.269990
vt 0.353418 0.321669
vt 0.240653 0.316566
vt 0.521093 0.278958
vt 0.614716 0.274969
vt 0.606422 0.324192
vt 0.531125 0.321936
vt 0.818855 0.284832
vt 0.919279 0.284637
vt 0.914674 0.335711
vt 0.807529 0.345105
vt 0.251605 0.437726
vt 0.353911 0.439899
vt 0.346078 0.491318
vt 0.251649 0.486569
vt 0.544445 0.443721
vt 0.657038 0.442308
vt 0.653826 0.498869
vt 0.552668 0.497581
vt 0.809467 0.451523
vt 0.906454 0.456104
vt 0.899506 0.515556
vt 0.810935 0.512780
vt 0.231440 0.599575
vt 0.351945 0.613687
vt 0.339574 0.666314
vt 0.229387 0.658166
vt 0.536564 0.617430
vt 0.652683 0.614727
vt 0.650441 0.674696
vt 0.531692 0.676285
vt 0.806001 0.614928
vt 0.895046 0.615154
vt 0.892114 0.666974
vt 0.803769 0.667887
vt 0.954674 0.751271
vt 0.211254 0.227315
vt 0.097607 0.228172
vt 0.101107 0.176332
vt 0.212098 0.174519
vt 0.484629 0.240718
vt 0.386673 0.237439
vt 0.386009 0.186775
vt 0.487909 0.183590
vt 0.672716 0.194925
vt 0.783947 0.199242
vt 0.213752 0.394786
vt 0.117336 0.398599
vt 0.120815 0.351776
vt 0.211686 0.351325
vt 0.475615 0.409045
vt 0.395213 0.403811
vt 0.394632 0.351233
vt 0.466503 0.354483
vt 0.779557 0.423007
vt 0.687436 0.412028
vt 0.691645 0.373578
vt 0.777970 0.380135
vt 0.208240 0.564193
vt 0.093376 0.557527
vt 0.486064 0.574597
vt 0.405950 0.578025
vt 0.411360 0.536532
vt 0.487280 0.536211
vt 0.776778 0.586271
vt 0.679977 0.586671
vt 0.681490 0.530204
vt 0.778459 0.535766
vt 0.073882 0.733160
vt 0.075730 0.661115
vt 0.228322 0.075334
vt 0.087650 0.081444
vt 0.367506 0.071821
vt 0.514119 0.076886
vt 0.655592 0.086598
vt 0.798118 0.093741
vt 0.938081 0.104734
vt 0.937911 0.184839
vt 0.938357 0.266609
vt 0.934774 0.353549
vt 0.927727 0.440524
vt 0.919445 0.526126
vt 0.914955 0.601601
vt 0.076760 0.577276
vt 0.073451 0.500684
vt 0.078961 0.421353
vt 0.080149 0.332106
vt 0.083593 0.242633
vt 0.087835 0.162067
vt 0.232173 0.159241
vt 0.504612 0.163773
vt 0.366763 0.165372
vt 0.796911 0.176068
vt 0.651666 0.175218
vt 0.230614 0.242695
vt 0.228992 0.331600
vt 0.368343 0.257244
vt 0.501791 0.258998
vt 0.505048 0.340563
vt 0.377424 0.336736
vt 0.803535 0.265271
vt 0.789629 0.359535
vt 0.674014 0.356324
vt 0.652518 0.253904
vt 0.228179 0.418200
vt 0.232153 0.507437
vt 0.378078 0.418542
vt 0.528875 0.429270
vt 0.510954 0.512259
vt 0.367462 0.513250
vt 0.674105 0.426982
vt 0.789103 0.435176
vt 0.794915 0.523969
vt 0.670282 0.514572
vt 0.216901 0.585523
vt 0.367104 0.603178
vt 0.514066 0.606820
vt 0.665944 0.600435
vt 0.790761 0.600538
vt 0.109868 0.839030
vt 0.109922 0.845960
vt 0.109977 0.852891
vt 0.110029 0.859521
vt 0.110076 0.865594
vt 0.110118 0.870954
vt 0.110155 0.875608
vt 0.110188 0.879800
vt 0.110220 0.883993
vt 0.110257 0.888647
vt 0.110299 0.894007
vt 0.110346 0.900080
vt 0.110398 0.906711
vt 0.110453 0.913641
vt 0.110507 0.920571
vt 0.263973 0.919368
vt 0.263919 0.912438
vt 0.263865 0.905508
vt 0.263813 0.898877
vt 0.263765 0.892804
vt 0.263723 0.887444
vt 0.263687 0.882790
vt 0.263654 0.878598
vt 0.263621 0.874405
vt 0.263585 0.869751
vt 0.263531 0.864391
vt 0.263417 0.858319
vt 0.263305 0.851689
vt 0.263267 0.844758
vt 0.263290 0.837827
vt 0.417440 0.918166
vt 0.417386 0.911236
vt 0.417331 0.904305
vt 0.417279 0.897675
vt 0.417232 0.891602
vt 0.417190 0.886242
vt 0.417153 0.881587
vt 0.417120 0.877395
vt 0.417087 0.873202
vt 0.417051 0.868548
vt 0.417009 0.863188
vt 0.416961 0.857116
vt 0.416909 0.850485
vt 0.416855 0.843554
vt 0.416801 0.836624
vt 0.570906 0.916963
vt 0.570852 0.910033
vt 0.570798 0.903102
vt 0.570746 0.896472
vt 0.570698 0.890399
vt 0.570656 0.885039
vt 0.570620 0.880385
vt 0.570587 0.876192
vt 0.570554 0.872000
vt 0.570517 0.867345
vt 0.570475 0.861986
vt 0.570428 0.855913
vt 0.570376 0.849282
vt 0.570321 0.842352
vt 0.570267 0.835422
vt 0.724373 0.915760
vt 0.724318 0.908830
vt 0.724264 0.901899
vt 0.724212 0.895269
vt 0.724164 0.889196
vt 0.724122 0.883836
vt 0.724086 0.879182
vt 0.724053 0.874989
vt 0.724020 0.870797
vt 0.723984 0.866143
vt 0.723942 0.860783
vt 0.723894 0.854710
vt 0.723842 0.848080
vt 0.723788 0.841149
vt 0.723734 0.834219
vt 0.877838 0.914557
vt 0.877784 0.907627
vt 0.877730 0.900697
vt 0.877678 0.894066
vt 0.877630 0.887993
vt 0.877588 0.882633
vt 0.877551 0.877979
vt 0.877519 0.873787
vt 0.877486 0.869594
vt 0.877449 0.864940
vt 0.877407 0.859580
vt 0.877360 0.853507
vt 0.877308 0.846877
vt 0.877253 0.839946
vt 0.877199 0.833016
vt 0.029386 0.730445
vt 0.910276 0.795885
vt 0.982889 0.109057
vt 0.087979 0.036933
vn -0.308408 0.912924 0.267307
vn 0.474514 0.841125 0.259508
vn 0.374899 0.695298 -0.613198
vn -0.300504 0.717409 -0.628508
vn -0.486315 0.730323 0.479715
vn 0.414903 0.768306 0.487404
vn 0.486315 0.730323 -0.479715
vn -0.486315 0.730323 -0.479715
vn -0.401016 0.823633 0.401016
vn 0.401016 0.823633 0.401016
vn 0.401016 0.823633 -0.401016
vn -0.401016 0.823633 -0.401016
vn -0.341990 0.792676 0.504685
vn 0.564464 0.671358 0.480270
vn 0.564464 0.671358 -0.480270
vn -0.341990 0.792676 -0.504685
vn -0.501675 0.803260 0.321084
vn 0.410898 0.819197 0.400099
vn 0.145097 0.874882 -0.462091
vn -0.242898 0.856992 -0.454496
vn -0.547414 0.825220 -0.139103
vn 0.582186 0.807981 -0.090698
vn 0.205400 0.831599 -0.515999
vn -0.427403 0.756505 -0.495003
vn -0.415604 0.863409 0.286003
vn 0.443508 0.849715 0.285105
vn 0.617678 0.786071 -0.023799
vn -0.498883 0.866670 -0.000000
vn -0.340187 0.762971 0.549679
vn 0.218300 0.821799 0.526300
vn 0.356289 0.783577 -0.508985
vn -0.507214 0.747221 -0.429412
vn -0.492384 0.730776 0.472784
vn 0.434913 0.740322 0.512615
vn 0.548508 0.720311 -0.424606
vn -0.492384 0.730776 -0.472784
vn -0.294195 0.861285 0.414293
vn 0.544798 0.740297 0.393898
vn 0.544798 0.740297 -0.393898
vn -0.294195 0.861285 -0.414293
vn -0.515588 0.771682 0.372391
vn 0.180296 0.846583 0.500790
vn 0.179498 0.867889 -0.463194
vn -0.509101 0.752502 -0.417801
vn -0.573006 0.728207 0.376004
vn 0.325892 0.889678 0.319792
vn 0.326100 0.890101 -0.318400
vn -0.585107 0.748409 -0.312304
vn 0.486315 0.730323 0.479715
vn 0.486315 0.730323 -0.479715
vn -0.486315 0.730323 -0.479715
vn -0.486315 0.730323 0.479715
vn 0.401016 0.823633 0.401016
vn 0.256799 0.870096 -0.420698
vn -0.299392 0.859878 -0.413490
vn -0.299392 0.859878 0.413490
vn 0.401016 0.823633 0.401016
vn 0.401016 0.823633 -0.401016
vn -0.401016 0.823633 -0.401016
vn -0.401016 0.823633 0.401016
vn 0.202595 0.878977 0.431689
vn 0.202595 0.878977 -0.431689
vn -0.410898 0.819197 -0.400099
vn -0.410898 0.819197 0.400099
vn 0.499690 0.719986 0.481591
vn 0.499690 0.719986 -0.481591
vn -0.498714 0.714620 -0.490513
vn -0.324309 0.806522 0.494314
vn 0.432089 0.771081 0.467689
vn 0.432089 0.771081 -0.467689
vn -0.354117 0.804038 -0.477623
vn -0.354117 0.804038 0.477623
vn 0.558193 0.672192 0.486394
vn 0.491806 0.718508 -0.491806
vn -0.491806 0.718508 -0.491806
vn -0.491806 0.718508 0.491806
vn 0.492384 0.730776 0.472784
vn 0.506489 0.781884 -0.363492
vn -0.262994 0.884481 -0.385392
vn -0.261205 0.822517 0.505210
vn 0.352909 0.796221 0.491413
vn 0.363510 0.869424 -0.334609
vn -0.437895 0.836390 -0.329696
vn -0.422409 0.767617 0.482011
vn -0.044000 0.927791 -0.370496
vn 0.000000 0.707107 -0.707107
vn 0.000000 0.707107 -0.707107
vn 0.035999 0.926371 -0.374888
vn 0.053000 0.930708 -0.361903
vn 0.000000 0.707107 -0.707107
vn 0.000000 0.707107 -0.707107
vn -0.012200 0.985420 -0.169703
vn 0.815422 0.551715 -0.175205
vn 0.577284 0.577384 -0.577384
vn -0.000000 0.707107 -0.707107
vn -0.042701 0.952633 -0.301110
vn -0.342909 0.846422 0.407411
vn 0.410898 0.819197 0.400099
vn 0.410898 0.819197 -0.400099
vn -0.410898 0.819197 -0.400099
vn -0.401016 0.823633 0.401016
vn 0.401016 0.823633 0.401016
vn 0.401016 0.823633 -0.401016
vn -0.299392 0.859878 -0.413490
vn -0.401016 0.823633 0.401016
vn 0.401016 0.823633 0.401016
vn 0.401016 0.823633 -0.401016
vn -0.401016 0.823633 -0.401016
vn -0.500679 0.770368 0.394783
vn 0.255996 0.870287 0.420794
vn 0.175601 0.881606 -0.438103
vn -0.500679 0.770368 -0.394783
vn -0.543689 0.756585 0.363293
vn 0.378606 0.781812 0.495407
vn 0.268098 0.814694 -0.514196
vn -0.276506 0.771716 -0.572712
vn -0.464527 0.753943 0.464527
vn 0.464527 0.753943 0.464527
vn 0.464527 0.753943 -0.464527
vn -0.460607 0.756111 -0.464907
vn -0.532590 0.691388 0.488191
vn 0.348902 0.786105 0.510203
vn 0.491806 0.718508 -0.491806
vn -0.491806 0.718508 -0.491806
vn -0.430793 0.816586 0.384194
vn 0.429217 0.810431 0.398715
vn 0.429217 0.810431 -0.398715
vn -0.162496 0.882479 -0.441390
vn -0.266791 0.889071 0.371988
vn 0.360796 0.860491 0.359696
vn 0.353902 0.815804 -0.457402
vn -0.424683 0.786168 -0.448982
vn -0.395700 0.784301 0.477801
vn 0.395700 0.784301 0.477801
vn 0.408204 0.848608 -0.336503
vn -0.408204 0.848608 -0.336503
vn -0.190405 0.948222 0.254206
vn 0.383587 0.893369 0.233992
vn 0.356983 0.767763 -0.532074
vn -0.186403 0.802414 -0.566910
vn -0.429217 0.810431 0.398715
vn 0.356796 0.841491 0.405696
vn 0.356796 0.841491 -0.405696
vn -0.429217 0.810431 -0.398715
vn 0.358780 0.840753 -0.405477
vn -0.462508 0.793013 -0.396506
vn -0.462508 0.793013 0.396506
vn 0.358780 0.840753 0.405477
vn 0.486315 0.730323 -0.479715
vn -0.486315 0.730323 -0.479715
vn -0.486315 0.730323 0.479715
vn 0.486315 0.730323 0.479715
vn 0.582186 0.807981 -0.090698
vn -0.547414 0.825220 -0.139103
vn -0.534416 0.722022 0.439413
vn 0.483074 0.730260 0.483074
vn 0.584286 0.688584 -0.429490
vn -0.335202 0.828706 -0.448203
vn -0.335113 0.752829 0.566522
vn 0.567387 0.628285 0.532288
vn 0.097001 0.873805 -0.476503
vn -0.307198 0.857695 -0.412297
vn -0.307198 0.857695 0.412297
vn 0.144696 0.890875 0.430588
vn 0.429217 0.810431 -0.398715
vn -0.429217 0.810431 -0.398715
vn -0.429217 0.810431 0.398715
vn 0.429217 0.810431 0.398715
vn 0.382415 0.877034 -0.290811
vn -0.418604 0.867508 -0.268702
vn -0.498883 0.866670 -0.000000
vn 0.617678 0.786071 -0.023799
vn 0.372802 0.880304 -0.293401
vn -0.249996 0.907784 -0.336794
vn -0.220096 0.815686 0.534991
vn 0.356289 0.783577 0.508985
vn 0.429217 0.810431 -0.398715
vn -0.438218 0.837234 -0.327114
vn -0.429217 0.810431 0.398715
vn 0.429217 0.810431 0.398715
vn 0.000000 0.707107 -0.707107
vn -0.577350 0.577350 -0.577350
vn -0.805398 0.573099 -0.151300
vn 0.035999 0.926371 -0.374888
vn 0.000000 0.707107 -0.707107
vn 0.000000 0.707107 -0.707107
vn -0.044000 0.927791 -0.370496
vn -0.012200 0.985420 -0.169703
vn -0.000000 0.707107 -0.707107
vn 0.000000 0.707107 -0.707107
vn 0.053000 0.930708 -0.361903
vn -0.042701 0.952633 -0.301110
vn -0.577350 -0.577350 0.577350
vn 0.000000 -0.707107 0.707107
vn -0.035399 0.456388 0.889076
vn -0.643585 0.402191 0.651185
vn 0.000000 -0.707107 0.707107
vn 0.000000 -0.707107 0.707107
vn -0.044600 0.328903 0.943310
vn -0.035399 0.456388 0.889076
vn 0.000000 -0.707107 0.707107
vn 0.000000 -0.707107 0.707107
vn 0.028400 0.370999 0.928199
vn -0.044600 0.328903 0.943310
vn 0.000000 -0.707107 0.707107
vn 0.000000 -0.707107 0.707107
vn 0.000000 0.402303 0.915507
vn 0.028400 0.370999 0.928199
vn 0.000000 -0.707107 0.707107
vn 0.000000 -0.707107 0.707107
vn 0.000000 0.402303 0.915507
vn 0.000000 0.402303 0.915507
vn 0.000000 -0.707107 0.707107
vn 0.577350 -0.577350 0.577350
vn 0.675269 0.296687 0.675269
vn 0.000000 0.402303 0.915507
vn 0.577350 -0.577350 0.577350
vn 0.707107 -0.707107 0.000000
vn 0.915507 0.402303 0.000000
vn 0.675269 0.296687 0.675269
vn 0.707107 -0.707107 0.000000
vn 0.707107 -0.707107 0.000000
vn 0.935685 0.350994 0.035999
vn 0.915507 0.402303 0.000000
vn 0.707107 -0.707107 0.000000
vn 0.707107 -0.707107 0.000000
vn 0.949503 0.313501 -0.012700
vn 0.935685 0.350994 0.035999
vn 0.707107 -0.707107 0.000000
vn 0.707107 -0.707107 0.000000
vn 0.920322 0.388609 -0.044601
vn 0.949503 0.313501 -0.012700
vn 0.707107 -0.707107 0.000000
vn 0.707107 -0.707107 0.000000
vn 0.921367 0.388686 0.002600
vn 0.920322 0.388609 -0.044601
vn 0.707107 -0.707107 0.000000
vn 0.707107 -0.707107 0.000000
vn 0.894180 0.447590 0.010300
vn 0.921367 0.388686 0.002600
vn 0.707107 -0.707107 0.000000
vn 0.707107 -0.707107 0.000000
vn 0.815422 0.551715 -0.175205
vn 0.894180 0.447590 0.010300
vn 0.707107 -0.707107 0.000000
vn 0.577284 -0.577384 -0.577384
vn 0.577284 0.577384 -0.577384
vn 0.815422 0.551715 -0.175205
vn 0.577284 -0.577384 -0.577384
vn 0.000000 -0.707107 -0.707107
vn -0.000000 0.707107 -0.707107
vn 0.577284 0.577384 -0.577384
vn 0.000000 -0.707107 -0.707107
vn 0.000000 -0.707107 -0.707107
vn 0.000000 0.707107 -0.707107
vn -0.000000 0.707107 -0.707107
vn 0.000000 -0.707107 -0.707107
vn 0.000000 -0.707107 -0.707107
vn 0.000000 0.707107 -0.707107
vn 0.000000 0.707107 -0.707107
vn 0.000000 -0.707107 -0.707107
vn 0.000000 -0.707107 -0.707107
vn 0.000000 0.707107 -0.707107
vn 0.000000 0.707107 -0.707107
vn 0.000000 -0.707107 -0.707107
vn 0.000000 -0.707107 -0.707107
vn 0.000000 0.707107 -0.707107
vn 0.000000 0.707107 -0.707107
vn 0.000000 -0.707107 -0.707107
vn -0.577350 -0.577350 -0.577350
vn -0.577350 0.577350 -0.577350
vn 0.000000 0.707107 -0.707107
vn -0.577350 -0.577350 -0.577350
vn -0.707107 -0.707107 0.000000
vn -0.805398 0.573099 -0.151300
vn -0.577350 0.577350 -0.577350
vn -0.707107 -0.707107 0.000000
vn -0.707107 -0.707107 0.000000
vn -0.877207 0.480004 -0.010200
vn -0.805398 0.573099 -0.151300
vn -0.707107 -0.707107 0.000000
vn -0.707107 -0.707107 0.000000
vn -0.965583 0.260095 -0.000000
vn -0.877207 0.480004 -0.010200
vn -0.707107 -0.707107 0.000000
vn -0.707107 -0.707107 0.000000
vn -0.892872 0.450286 -0.004800
vn -0.965583 0.260095 -0.000000
vn -0.707107 -0.707107 0.000000
vn -0.707107 -0.707107 0.000000
vn -0.928711 0.370804 -0.000800
vn -0.892872 0.450286 -0.004800
vn -0.707107 -0.707107 0.000000
vn -0.707107 -0.707107 0.000000
vn -0.926251 0.375580 -0.031598
vn -0.928711 0.370804 -0.000800
vn -0.707107 -0.707107 0.000000
vn -0.707107 -0.707107 0.000000
vn -0.926305 0.373602 0.048800
vn -0.926251 0.375580 -0.031598
vn -0.707107 -0.707107 0.000000
vn -0.577350 -0.577350 0.577350
vn -0.643585 0.402191 0.651185
vn -0.926305 0.373602 0.048800
vn -0.643585 0.402191 0.651185
vn -0.035399 0.456388 0.889076
vn 0.474514 0.841125 0.259508
vn -0.308408 0.912924 0.267307
vn -0.035399 0.456388 0.889076
vn 0.004600 0.999244 0.038602
vn 0.374899 0.695298 -0.613198
vn 0.474514 0.841125 0.259508
vn 0.004600 0.999244 0.038602
vn -0.926305 0.373602 0.048800
vn -0.300504 0.717409 -0.628508
vn 0.374899 0.695298 -0.613198
vn -0.926305 0.373602 0.048800
vn -0.643585 0.402191 0.651185
vn -0.308408 0.912924 0.267307
vn -0.300504 0.717409 -0.628508
vn -0.044600 0.328903 0.943310
vn 0.028400 0.370999 0.928199
vn 0.414903 0.768306 0.487404
vn -0.486315 0.730323 0.479715
vn 0.028400 0.370999 0.928199
vn 0.188201 0.982103 -0.007400
vn 0.486315 0.730323 -0.479715
vn 0.414903 0.768306 0.487404
vn 0.188201 0.982103 -0.007400
vn -0.073903 0.994546 0.073603
vn -0.486315 0.730323 -0.479715
vn 0.486315 0.730323 -0.479715
vn -0.073903 0.994546 0.073603
vn -0.044600 0.328903 0.943310
vn -0.486315 0.730323 0.479715
vn -0.486315 0.730323 -0.479715
vn 0.000000 0.402303 0.915507
vn 0.000000 0.402303 0.915507
vn 0.401016 0.823633 0.401016
vn -0.401016 0.823633 0.401016
vn 0.000000 0.402303 0.915507
vn 0.064502 0.995831 0.064502
vn 0.401016 0.823633 -0.401016
vn 0.401016 0.823633 0.401016
vn 0.064502 0.995831 0.064502
vn -0.053200 0.996904 0.057900
vn -0.401016 0.823633 -0.401016
vn 0.401016 0.823633 -0.401016
vn -0.053200 0.996904 0.057900
vn 0.000000 0.402303 0.915507
vn -0.401016 0.823633 0.401016
vn -0.401016 0.823633 -0.401016
vn -0.926251 0.375580 -0.031598
vn -0.013500 0.990821 0.134503
vn 0.564464 0.671358 0.480270
vn -0.341990 0.792676 0.504685
vn -0.013500 0.990821 0.134503
vn 0.239007 0.970529 -0.030801
vn 0.564464 0.671358 -0.480270
vn 0.564464 0.671358 0.480270
vn 0.239007 0.970529 -0.030801
vn -0.928711 0.370804 -0.000800
vn -0.341990 0.792676 -0.504685
vn 0.564464 0.671358 -0.480270
vn -0.928711 0.370804 -0.000800
vn -0.926251 0.375580 -0.031598
vn -0.341990 0.792676 0.504685
vn -0.341990 0.792676 -0.504685
vn -0.030602 0.978553 -0.203711
vn 0.079798 0.996773 0.008700
vn 0.410898 0.819197 0.400099
vn -0.501675 0.803260 0.321084
vn 0.079798 0.996773 0.008700
vn -0.211602 0.972410 -0.098201
vn 0.145097 0.874882 -0.462091
vn 0.410898 0.819197 0.400099
vn -0.211602 0.972410 -0.098201
vn -0.087297 0.996169 0.005200
vn -0.242898 0.856992 -0.454496
vn 0.145097 0.874882 -0.462091
vn -0.087297 0.996169 0.005200
vn -0.030602 0.978553 -0.203711
vn -0.501675 0.803260 0.321084
vn -0.242898 0.856992 -0.454496
vn 0.288813 0.955142 0.065503
vn -0.098996 0.994761 0.025499
vn 0.205400 0.831599 -0.515999
vn 0.582186 0.807981 -0.090698
vn -0.098996 0.994761 0.025499
vn 0.020000 0.994797 0.099900
vn -0.427403 0.756505 -0.495003
vn 0.205400 0.831599 -0.515999
vn 0.020000 0.994797 0.099900
vn -0.287299 0.956797 0.044700
vn -0.547414 0.825220 -0.139103
vn -0.427403 0.756505 -0.495003
vn -0.892872 0.450286 -0.004800
vn -0.101404 0.994340 -0.031701
vn 0.443508 0.849715 0.285105
vn -0.415604 0.863409 0.286003
vn -0.101404 0.994340 -0.031701
vn 0.239496 0.970885 -0.004900
vn 0.617678 0.786071 -0.023799
vn 0.443508 0.849715 0.285105
vn -0.965583 0.260095 -0.000000
vn -0.892872 0.450286 -0.004800
vn -0.415604 0.863409 0.286003
vn -0.498883 0.866670 -0.000000
vn -0.081004 0.985346 0.150107
vn -0.255114 0.966753 -0.017501
vn 0.218300 0.821799 0.526300
vn -0.340187 0.762971 0.549679
vn -0.255114 0.966753 -0.017501
vn 0.177006 0.984133 0.012300
vn 0.356289 0.783577 -0.508985
vn 0.218300 0.821799 0.526300
vn 0.177006 0.984133 0.012300
vn 0.184697 0.978583 -0.090898
vn -0.507214 0.747221 -0.429412
vn 0.356289 0.783577 -0.508985
vn 0.184697 0.978583 -0.090898
vn -0.081004 0.985346 0.150107
vn -0.340187 0.762971 0.549679
vn -0.507214 0.747221 -0.429412
vn 0.007200 0.999953 -0.006500
vn 0.106703 0.994232 0.010800
vn 0.434913 0.740322 0.512615
vn -0.492384 0.730776 0.472784
vn 0.106703 0.994232 0.010800
vn -0.024400 0.998396 -0.051100
vn 0.548508 0.720311 -0.424606
vn 0.434913 0.740322 0.512615
vn -0.024400 0.998396 -0.051100
vn 0.000000 1.000000 0.000000
vn -0.492384 0.730776 -0.472784
vn 0.548508 0.720311 -0.424606
vn 0.000000 1.000000 0.000000
vn 0.007200 0.999953 -0.006500
vn -0.492384 0.730776 0.472784
vn -0.492384 0.730776 -0.472784
vn -0.877207 0.480004 -0.010200
vn -0.156794 0.986564 0.045898
vn 0.544798 0.740297 0.393898
vn -0.294195 0.861285 0.414293
vn -0.156794 0.986564 0.045898
vn 0.035999 0.926371 -0.374888
vn 0.544798 0.740297 -0.393898
vn 0.544798 0.740297 0.393898
vn 0.035999 0.926371 -0.374888
vn -0.805398 0.573099 -0.151300
vn -0.294195 0.861285 -0.414293
vn 0.544798 0.740297 -0.393898
vn -0.805398 0.573099 -0.151300
vn -0.877207 0.480004 -0.010200
vn -0.294195 0.861285 0.414293
vn -0.294195 0.861285 -0.414293
vn 0.166598 0.983487 0.070699
vn 0.026399 0.995980 -0.085598
vn 0.180296 0.846583 0.500790
vn -0.515588 0.771682 0.372391
vn 0.026399 0.995980 -0.085598
vn -0.012200 0.985420 -0.169703
vn 0.179498 0.867889 -0.463194
vn 0.180296 0.846583 0.500790
vn -0.012200 0.985420 -0.169703
vn -0.044000 0.927791 -0.370496
vn -0.509101 0.752502 -0.417801
vn 0.179498 0.867889 -0.463194
vn -0.044000 0.927791 -0.370496
vn 0.166598 0.983487 0.070699
vn -0.515588 0.771682 0.372391
vn -0.509101 0.752502 -0.417801
vn -0.064497 0.997859 -0.010800
vn -0.019099 0.998754 -0.046098
vn 0.325892 0.889678 0.319792
vn -0.573006 0.728207 0.376004
vn -0.019099 0.998754 -0.046098
vn -0.042701 0.952633 -0.301110
vn 0.326100 0.890101 -0.318400
vn 0.325892 0.889678 0.319792
vn -0.042701 0.952633 -0.301110
vn 0.053000 0.930708 -0.361903
vn -0.585107 0.748409 -0.312304
vn 0.326100 0.890101 -0.318400
vn 0.053000 0.930708 -0.361903
vn -0.064497 0.997859 -0.010800
vn -0.573006 0.728207 0.376004
vn -0.585107 0.748409 -0.312304
vn -0.073903 0.994546 0.073603
vn -0.030602 0.978553 -0.203711
vn 0.486315 0.730323 -0.479715
vn 0.486315 0.730323 0.479715
vn -0.030602 0.978553 -0.203711
vn -0.013500 0.990821 0.134503
vn -0.486315 0.730323 -0.479715
vn 0.486315 0.730323 -0.479715
vn -0.013500 0.990821 0.134503
vn 0.004600 0.999244 0.038602
vn -0.486315 0.730323 0.479715
vn -0.486315 0.730323 -0.479715
vn 0.004600 0.999244 0.038602
vn -0.073903 0.994546 0.073603
vn 0.486315 0.730323 0.479715
vn -0.486315 0.730323 0.479715
vn -0.053200 0.996904 0.057900
vn -0.287299 0.956797 0.044700
vn 0.256799 0.870096 -0.420698
vn 0.401016 0.823633 0.401016
vn -0.287299 0.956797 0.044700
vn 0.079798 0.996773 0.008700
vn -0.299392 0.859878 -0.413490
vn 0.256799 0.870096 -0.420698
vn 0.079798 0.996773 0.008700
vn 0.188201 0.982103 -0.007400
vn -0.299392 0.859878 0.413490
vn -0.299392 0.859878 -0.413490
vn 0.188201 0.982103 -0.007400
vn -0.053200 0.996904 0.057900
vn 0.401016 0.823633 0.401016
vn -0.299392 0.859878 0.413490
vn 0.915507 0.402303 0.000000
vn 0.935685 0.350994 0.035999
vn 0.401016 0.823633 -0.401016
vn 0.401016 0.823633 0.401016
vn 0.935685 0.350994 0.035999
vn 0.288813 0.955142 0.065503
vn -0.401016 0.823633 -0.401016
vn 0.401016 0.823633 -0.401016
vn 0.288813 0.955142 0.065503
vn 0.064502 0.995831 0.064502
vn -0.401016 0.823633 0.401016
vn -0.401016 0.823633 -0.401016
vn 0.064502 0.995831 0.064502
vn 0.915507 0.402303 0.000000
vn 0.401016 0.823633 0.401016
vn -0.401016 0.823633 0.401016
vn -0.087297 0.996169 0.005200
vn -0.081004 0.985346 0.150107
vn 0.202595 0.878977 -0.431689
vn 0.202595 0.878977 0.431689
vn -0.081004 0.985346 0.150107
vn -0.101404 0.994340 -0.031701
vn -0.410898 0.819197 -0.400099
vn 0.202595 0.878977 -0.431689
vn -0.101404 0.994340 -0.031701
vn 0.239007 0.970529 -0.030801
vn -0.410898 0.819197 0.400099
vn -0.410898 0.819197 -0.400099
vn 0.239007 0.970529 -0.030801
vn -0.087297 0.996169 0.005200
vn 0.202595 0.878977 0.431689
vn -0.410898 0.819197 0.400099
vn 0.020000 0.994797 0.099900
vn 0.007200 0.999953 -0.006500
vn 0.499690 0.719986 -0.481591
vn 0.499690 0.719986 0.481591
vn 0.007200 0.999953 -0.006500
vn -0.255114 0.966753 -0.017501
vn -0.498714 0.714620 -0.490513
vn 0.499690 0.719986 -0.481591
vn -0.255114 0.966753 -0.017501
vn -0.211602 0.972410 -0.098201
vn -0.324309 0.806522 0.494314
vn -0.498714 0.714620 -0.490513
vn -0.211602 0.972410 -0.098201
vn 0.020000 0.994797 0.099900
vn 0.499690 0.719986 0.481591
vn -0.324309 0.806522 0.494314
vn 0.949503 0.313501 -0.012700
vn 0.920322 0.388609 -0.044601
vn 0.432089 0.771081 -0.467689
vn 0.432089 0.771081 0.467689
vn 0.920322 0.388609 -0.044601
vn 0.106703 0.994232 0.010800
vn -0.354117 0.804038 -0.477623
vn 0.432089 0.771081 -0.467689
vn 0.106703 0.994232 0.010800
vn -0.098996 0.994761 0.025499
vn -0.354117 0.804038 0.477623
vn -0.354117 0.804038 -0.477623
vn -0.098996 0.994761 0.025499
vn 0.949503 0.313501 -0.012700
vn 0.432089 0.771081 0.467689
vn -0.354117 0.804038 0.477623
vn 0.184697 0.978583 -0.090898
vn 0.166598 0.983487 0.070699
vn 0.491806 0.718508 -0.491806
vn 0.558193 0.672192 0.486394
vn 0.166598 0.983487 0.070699
vn -0.156794 0.986564 0.045898
vn -0.491806 0.718508 -0.491806
vn 0.491806 0.718508 -0.491806
vn -0.156794 0.986564 0.045898
vn 0.239496 0.970885 -0.004900
vn -0.491806 0.718508 0.491806
vn -0.491806 0.718508 -0.491806
vn 0.239496 0.970885 -0.004900
vn 0.184697 0.978583 -0.090898
vn 0.558193 0.672192 0.486394
vn -0.491806 0.718508 0.491806
vn 0.000000 1.000000 0.000000
vn -0.064497 0.997859 -0.010800
vn 0.506489 0.781884 -0.363492
vn 0.492384 0.730776 0.472784
vn -0.064497 0.997859 -0.010800
vn 0.026399 0.995980 -0.085598
vn -0.262994 0.884481 -0.385392
vn 0.506489 0.781884 -0.363492
vn 0.026399 0.995980 -0.085598
vn 0.177006 0.984133 0.012300
vn -0.261205 0.822517 0.505210
vn -0.262994 0.884481 -0.385392
vn 0.177006 0.984133 0.012300
vn 0.000000 1.000000 0.000000
vn 0.492384 0.730776 0.472784
vn -0.261205 0.822517 0.505210
vn 0.921367 0.388686 0.002600
vn 0.894180 0.447590 0.010300
vn 0.363510 0.869424 -0.334609
vn 0.352909 0.796221 0.491413
vn 0.894180 0.447590 0.010300
vn -0.019099 0.998754 -0.046098
vn -0.437895 0.836390 -0.329696
vn 0.363510 0.869424 -0.334609
vn -0.019099 0.998754 -0.046098
vn -0.024400 0.998396 -0.051100
vn -0.422409 0.767617 0.482011
vn -0.437895 0.836390 -0.329696
vn -0.024400 0.998396 -0.051100
vn 0.921367 0.388686 0.002600
vn 0.352909 0.796221 0.491413
vn -0.422409 0.767617 0.482011
vn -0.035399 0.456388 0.889076
vn -0.044600 0.328903 0.943310
vn 0.410898 0.819197 0.400099
vn -0.342909 0.846422 0.407411
vn -0.044600 0.328903 0.943310
vn -0.073903 0.994546 0.073603
vn 0.410898 0.819197 -0.400099
vn 0.410898 0.819197 0.400099
vn -0.073903 0.994546 0.073603
vn 0.004600 0.999244 0.038602
vn -0.410898 0.819197 -0.400099
vn 0.410898 0.819197 -0.400099
vn 0.004600 0.999244 0.038602
vn -0.035399 0.456388 0.889076
vn -0.342909 0.846422 0.407411
vn -0.410898 0.819197 -0.400099
vn 0.028400 0.370999 0.928199
vn 0.000000 0.402303 0.915507
vn 0.401016 0.823633 0.401016
vn -0.401016 0.823633 0.401016
vn 0.000000 0.402303 0.915507
vn -0.053200 0.996904 0.057900
vn 0.401016 0.823633 -0.401016
vn 0.401016 0.823633 0.401016
vn -0.053200 0.996904 0.057900
vn 0.188201 0.982103 -0.007400
vn -0.299392 0.859878 -0.413490
vn 0.401016 0.823633 -0.401016
vn 0.188201 0.982103 -0.007400
vn 0.028400 0.370999 0.928199
vn -0.401016 0.823633 0.401016
vn -0.299392 0.859878 -0.413490
vn 0.000000 0.402303 0.915507
vn 0.675269 0.296687 0.675269
vn 0.401016 0.823633 0.401016
vn -0.401016 0.823633 0.401016
vn 0.675269 0.296687 0.675269
vn 0.915507 0.402303 0.000000
vn 0.401016 0.823633 -0.401016
vn 0.401016 0.823633 0.401016
vn 0.915507 0.402303 0.000000
vn 0.064502 0.995831 0.064502
vn -0.401016 0.823633 -0.401016
vn 0.401016 0.823633 -0.401016
vn 0.064502 0.995831 0.064502
vn 0.000000 0.402303 0.915507
vn -0.401016 0.823633 0.401016
vn -0.401016 0.823633 -0.401016
vn -0.013500 0.990821 0.134503
vn -0.030602 0.978553 -0.203711
vn 0.255996 0.870287 0.420794
vn -0.500679 0.770368 0.394783
vn -0.030602 0.978553 -0.203711
vn -0.087297 0.996169 0.005200
vn 0.175601 0.881606 -0.438103
vn 0.255996 0.870287 0.420794
vn -0.087297 0.996169 0.005200
vn 0.239007 0.970529 -0.030801
vn -0.500679 0.770368 -0.394783
vn 0.175601 0.881606 -0.438103
vn 0.239007 0.970529 -0.030801
vn -0.013500 0.990821 0.134503
vn -0.500679 0.770368 0.394783
vn -0.500679 0.770368 -0.394783
vn 0.079798 0.996773 0.008700
vn -0.287299 0.956797 0.044700
vn 0.378606 0.781812 0.495407
vn -0.543689 0.756585 0.363293
vn -0.287299 0.956797 0.044700
vn 0.020000 0.994797 0.099900
vn 0.268098 0.814694 -0.514196
vn 0.378606 0.781812 0.495407
vn 0.020000 0.994797 0.099900
vn -0.211602 0.972410 -0.098201
vn -0.276506 0.771716 -0.572712
vn 0.268098 0.814694 -0.514196
vn -0.211602 0.972410 -0.098201
vn 0.079798 0.996773 0.008700
vn -0.543689 0.756585 0.363293
vn -0.276506 0.771716 -0.572712
vn 0.288813 0.955142 0.065503
vn 0.935685 0.350994 0.035999
vn 0.464527 0.753943 0.464527
vn -0.464527 0.753943 0.464527
vn 0.935685 0.350994 0.035999
vn 0.949503 0.313501 -0.012700
vn 0.464527 0.753943 -0.464527
vn 0.464527 0.753943 0.464527
vn 0.949503 0.313501 -0.012700
vn -0.098996 0.994761 0.025499
vn -0.460607 0.756111 -0.464907
vn 0.464527 0.753943 -0.464527
vn -0.098996 0.994761 0.025499
vn 0.288813 0.955142 0.065503
vn -0.464527 0.753943 0.464527
vn -0.460607 0.756111 -0.464907
vn -0.101404 0.994340 -0.031701
vn -0.081004 0.985346 0.150107
vn 0.348902 0.786105 0.510203
vn -0.532590 0.691388 0.488191
vn -0.081004 0.985346 0.150107
vn 0.184697 0.978583 -0.090898
vn 0.491806 0.718508 -0.491806
vn 0.348902 0.786105 0.510203
vn 0.184697 0.978583 -0.090898
vn 0.239496 0.970885 -0.004900
vn -0.491806 0.718508 -0.491806
vn 0.491806 0.718508 -0.491806
vn 0.239496 0.970885 -0.004900
vn -0.101404 0.994340 -0.031701
vn -0.532590 0.691388 0.488191
vn -0.491806 0.718508 -0.491806
vn -0.255114 0.966753 -0.017501
vn 0.007200 0.999953 -0.006500
vn 0.429217 0.810431 0.398715
vn -0.430793 0.816586 0.384194
vn 0.007200 0.999953 -0.006500
vn 0.000000 1.000000 0.000000
vn 0.429217 0.810431 -0.398715
vn 0.429217 0.810431 0.398715
vn 0.000000 1.000000 0.000000
vn 0.177006 0.984133 0.012300
vn -0.162496 0.882479 -0.441390
vn 0.429217 0.810431 -0.398715
vn 0.177006 0.984133 0.012300
vn -0.255114 0.966753 -0.017501
vn -0.430793 0.816586 0.384194
vn -0.162496 0.882479 -0.441390
vn 0.106703 0.994232 0.010800
vn 0.920322 0.388609 -0.044601
vn 0.360796 0.860491 0.359696
vn -0.266791 0.889071 0.371988
vn 0.920322 0.388609 -0.044601
vn 0.921367 0.388686 0.002600
vn 0.353902 0.815804 -0.457402
vn 0.360796 0.860491 0.359696
vn 0.921367 0.388686 0.002600
vn -0.024400 0.998396 -0.051100
vn -0.424683 0.786168 -0.448982
vn 0.353902 0.815804 -0.457402
vn -0.024400 0.998396 -0.051100
vn 0.106703 0.994232 0.010800
vn -0.266791 0.889071 0.371988
vn -0.424683 0.786168 -0.448982
vn -0.156794 0.986564 0.045898
vn 0.166598 0.983487 0.070699
vn 0.395700 0.784301 0.477801
vn -0.395700 0.784301 0.477801
vn 0.166598 0.983487 0.070699
vn -0.044000 0.927791 -0.370496
vn 0.408204 0.848608 -0.336503
vn 0.395700 0.784301 0.477801
vn -0.044000 0.927791 -0.370496
vn 0.035999 0.926371 -0.374888
vn -0.408204 0.848608 -0.336503
vn 0.408204 0.848608 -0.336503
vn 0.035999 0.926371 -0.374888
vn -0.156794 0.986564 0.045898
vn -0.395700 0.784301 0.477801
vn -0.408204 0.848608 -0.336503
vn 0.026399 0.995980 -0.085598
vn -0.064497 0.997859 -0.010800
vn 0.383587 0.893369 0.233992
vn -0.190405 0.948222 0.254206
vn -0.064497 0.997859 -0.010800
vn 0.053000 0.930708 -0.361903
vn 0.356983 0.767763 -0.532074
vn 0.383587 0.893369 0.233992
vn 0.053000 0.930708 -0.361903
vn -0.012200 0.985420 -0.169703
vn -0.186403 0.802414 -0.566910
vn 0.356983 0.767763 -0.532074
vn -0.012200 0.985420 -0.169703
vn 0.026399 0.995980 -0.085598
vn -0.190405 0.948222 0.254206
vn -0.186403 0.802414 -0.566910
vn -0.019099 0.998754 -0.046098
vn 0.894180 0.447590 0.010300
vn 0.356796 0.841491 0.405696
vn -0.429217 0.810431 0.398715
vn 0.894180 0.447590 0.010300
vn 0.815422 0.551715 -0.175205
vn 0.356796 0.841491 -0.405696
vn 0.356796 0.841491 0.405696
vn 0.815422 0.551715 -0.175205
vn -0.042701 0.952633 -0.301110
vn -0.429217 0.810431 -0.398715
vn 0.356796 0.841491 -0.405696
vn -0.042701 0.952633 -0.301110
vn -0.019099 0.998754 -0.046098
vn -0.429217 0.810431 0.398715
vn -0.429217 0.810431 -0.398715
vn -0.013500 0.990821 0.134503
vn -0.926251 0.375580 -0.031598
vn -0.462508 0.793013 -0.396506
vn 0.358780 0.840753 -0.405477
vn -0.926251 0.375580 -0.031598
vn -0.926305 0.373602 0.048800
vn -0.462508 0.793013 0.396506
vn -0.462508 0.793013 -0.396506
vn -0.926305 0.373602 0.048800
vn 0.004600 0.999244 0.038602
vn 0.358780 0.840753 0.405477
vn -0.462508 0.793013 0.396506
vn 0.004600 0.999244 0.038602
vn -0.013500 0.990821 0.134503
vn 0.358780 0.840753 -0.405477
vn 0.358780 0.840753 0.405477
vn 0.079798 0.996773 0.008700
vn -0.030602 0.978553 -0.203711
vn -0.486315 0.730323 -0.479715
vn 0.486315 0.730323 -0.479715
vn -0.030602 0.978553 -0.203711
vn -0.073903 0.994546 0.073603
vn -0.486315 0.730323 0.479715
vn -0.486315 0.730323 -0.479715
vn -0.073903 0.994546 0.073603
vn 0.188201 0.982103 -0.007400
vn 0.486315 0.730323 0.479715
vn -0.486315 0.730323 0.479715
vn 0.188201 0.982103 -0.007400
vn 0.079798 0.996773 0.008700
vn 0.486315 0.730323 -0.479715
vn 0.486315 0.730323 0.479715
vn -0.287299 0.956797 0.044700
vn -0.053200 0.996904 0.057900
vn -0.534416 0.722022 0.439413
vn -0.547414 0.825220 -0.139103
vn -0.053200 0.996904 0.057900
vn 0.064502 0.995831 0.064502
vn 0.483074 0.730260 0.483074
vn -0.534416 0.722022 0.439413
vn 0.064502 0.995831 0.064502
vn 0.288813 0.955142 0.065503
vn 0.582186 0.807981 -0.090698
vn 0.483074 0.730260 0.483074
vn -0.101404 0.994340 -0.031701
vn -0.892872 0.450286 -0.004800
vn -0.335202 0.828706 -0.448203
vn 0.584286 0.688584 -0.429490
vn -0.892872 0.450286 -0.004800
vn -0.928711 0.370804 -0.000800
vn -0.335113 0.752829 0.566522
vn -0.335202 0.828706 -0.448203
vn -0.928711 0.370804 -0.000800
vn 0.239007 0.970529 -0.030801
vn 0.567387 0.628285 0.532288
vn -0.335113 0.752829 0.566522
vn 0.239007 0.970529 -0.030801
vn -0.101404 0.994340 -0.031701
vn 0.584286 0.688584 -0.429490
vn 0.567387 0.628285 0.532288
vn -0.255114 0.966753 -0.017501
vn -0.081004 0.985346 0.150107
vn -0.307198 0.857695 -0.412297
vn 0.097001 0.873805 -0.476503
vn -0.081004 0.985346 0.150107
vn -0.087297 0.996169 0.005200
vn -0.307198 0.857695 0.412297
vn -0.307198 0.857695 -0.412297
vn -0.087297 0.996169 0.005200
vn -0.211602 0.972410 -0.098201
vn 0.144696 0.890875 0.430588
vn -0.307198 0.857695 0.412297
vn -0.211602 0.972410 -0.098201
vn -0.255114 0.966753 -0.017501
vn 0.097001 0.873805 -0.476503
vn 0.144696 0.890875 0.430588
vn 0.106703 0.994232 0.010800
vn 0.007200 0.999953 -0.006500
vn -0.429217 0.810431 -0.398715
vn 0.429217 0.810431 -0.398715
vn 0.007200 0.999953 -0.006500
vn 0.020000 0.994797 0.099900
vn -0.429217 0.810431 0.398715
vn -0.429217 0.810431 -0.398715
vn 0.020000 0.994797 0.099900
vn -0.098996 0.994761 0.025499
vn 0.429217 0.810431 0.398715
vn -0.429217 0.810431 0.398715
vn -0.098996 0.994761 0.025499
vn 0.106703 0.994232 0.010800
vn 0.429217 0.810431 -0.398715
vn 0.429217 0.810431 0.398715
vn -0.156794 0.986564 0.045898
vn -0.877207 0.480004 -0.010200
vn -0.418604 0.867508 -0.268702
vn 0.382415 0.877034 -0.290811
vn -0.877207 0.480004 -0.010200
vn -0.965583 0.260095 -0.000000
vn -0.498883 0.866670 -0.000000
vn -0.418604 0.867508 -0.268702
vn 0.239496 0.970885 -0.004900
vn -0.156794 0.986564 0.045898
vn 0.382415 0.877034 -0.290811
vn 0.617678 0.786071 -0.023799
vn 0.026399 0.995980 -0.085598
vn 0.166598 0.983487 0.070699
vn -0.249996 0.907784 -0.336794
vn 0.372802 0.880304 -0.293401
vn 0.166598 0.983487 0.070699
vn 0.184697 0.978583 -0.090898
vn -0.220096 0.815686 0.534991
vn -0.249996 0.907784 -0.336794
vn 0.184697 0.978583 -0.090898
vn 0.177006 0.984133 0.012300
vn 0.356289 0.783577 0.508985
vn -0.220096 0.815686 0.534991
vn 0.177006 0.984133 0.012300
vn 0.026399 0.995980 -0.085598
vn 0.372802 0.880304 -0.293401
vn 0.356289 0.783577 0.508985
vn -0.019099 0.998754 -0.046098
vn -0.064497 0.997859 -0.010800
vn -0.438218 0.837234 -0.327114
vn 0.429217 0.810431 -0.398715
vn -0.064497 0.997859 -0.010800
vn 0.000000 1.000000 0.000000
vn -0.429217 0.810431 0.398715
vn -0.438218 0.837234 -0.327114
vn 0.000000 1.000000 0.000000
vn -0.024400 0.998396 -0.051100
vn 0.429217 0.810431 0.398715
vn -0.429217 0.810431 0.398715
vn -0.024400 0.998396 -0.051100
vn -0.019099 0.998754 -0.046098
vn 0.429217 0.810431 -0.398715
vn 0.429217 0.810431 0.398715
vn -0.689254 -0.114892 -0.715352
vn -0.690005 0.000000 -0.723805
vn 0.000000 0.000000 -1.000000
vn 0.000000 -0.158494 -0.987360
vn -0.690005 0.000000 -0.723805
vn -0.689254 0.114892 -0.715352
vn 0.000000 0.158494 -0.987360
vn 0.000000 0.000000 -1.000000
vn -0.689254 0.114892 -0.715352
vn -0.686789 0.237996 -0.686789
vn 0.000000 0.327485 -0.944857
vn 0.000000 0.158494 -0.987360
vn -0.686789 0.237996 -0.686789
vn -0.682086 0.377192 -0.626487
vn 0.000000 0.515877 -0.856663
vn 0.000000 0.327485 -0.944857
vn -0.682086 0.377192 -0.626487
vn -0.674621 0.534117 -0.509516
vn 0.000000 0.723610 -0.690209
vn 0.000000 0.515877 -0.856663
vn -0.674621 0.534117 -0.509516
vn -0.665819 0.682920 -0.300509
vn 0.000000 0.915327 -0.402712
vn 0.000000 0.723610 -0.690209
vn -0.665819 0.682920 -0.300509
vn -0.661417 0.750019 -0.000000
vn 0.000000 1.000000 0.000000
vn 0.000000 0.915327 -0.402712
vn -0.661417 0.750019 -0.000000
vn -0.665774 0.682973 0.300488
vn 0.000000 0.915327 0.402712
vn 0.000000 1.000000 0.000000
vn -0.665774 0.682973 0.300488
vn -0.674621 0.534117 0.509516
vn 0.000000 0.723610 0.690209
vn 0.000000 0.915327 0.402712
vn -0.674621 0.534117 0.509516
vn -0.682086 0.377192 0.626487
vn 0.000000 0.515877 0.856663
vn 0.000000 0.723610 0.690209
vn -0.682086 0.377192 0.626487
vn -0.686789 0.237996 0.686789
vn 0.000000 0.327485 0.944857
vn 0.000000 0.515877 0.856663
vn -0.686789 0.237996 0.686789
vn -0.689254 0.114892 0.715352
vn 0.000000 0.158494 0.987360
vn 0.000000 0.327485 0.944857
vn -0.689254 0.114892 0.715352
vn -0.690005 0.000000 0.723805
vn 0.000000 0.000000 1.000000
vn 0.000000 0.158494 0.987360
vn -0.690005 0.000000 0.723805
vn -0.689254 -0.114892 0.715352
vn 0.000000 -0.158494 0.987360
vn 0.000000 0.000000 1.000000
vn 0.000000 -0.158494 -0.987360
vn 0.000000 0.000000 -1.000000
vn 0.000000 0.000000 -1.000000
vn 0.000000 -0.158494 -0.987360
vn 0.000000 0.000000 -1.000000
vn 0.000000 0.158494 -0.987360
vn 0.000000 0.158494 -0.987360
vn 0.000000 0.000000 -1.000000
vn 0.000000 0.158494 -0.987360
vn 0.000000 0.327485 -0.944857
vn 0.000000 0.327485 -0.944857
vn 0.000000 0.158494 -0.987360
vn 0.000000 0.327485 -0.944857
vn 0.000000 0.515877 -0.856663
vn 0.000000 0.515877 -0.856663
vn 0.000000 0.327485 -0.944857
vn 0.000000 0.515877 -0.856663
vn 0.000000 0.723610 -0.690209
vn 0.000000 0.723610 -0.690209
vn 0.000000 0.515877 -0.856663
vn 0.000000 0.723610 -0.690209
vn 0.000000 0.915327 -0.402712
vn 0.000000 0.915327 -0.402712
vn 0.000000 0.723610 -0.690209
vn 0.000000 0.915327 -0.402712
vn 0.000000 1.000000 0.000000
vn 0.000000 1.000000 0.000000
vn 0.000000 0.915327 -0.402712
vn 0.000000 1.000000 0.000000
vn 0.000000 0.915327 0.402712
vn 0.000000 0.915327 0.402712
vn 0.000000 1.000000 0.000000
vn 0.000000 0.915327 0.402712
vn 0.000000 0.723610 0.690209
vn 0.000000 0.723610 0.690209
vn 0.000000 0.915327 0.402712
vn 0.000000 0.723610 0.690209
vn 0.000000 0.515877 0.856663
vn 0.000000 0.515877 0.856663
vn 0.000000 0.723610 0.690209
vn 0.000000 0.515877 0.856663
vn 0.000000 0.327485 0.944857
vn 0.000000 0.327485 0.944857
vn 0.000000 0.515877 0.856663
vn 0.000000 0.327485 0.944857
vn 0.000000 0.158494 0.987360
vn 0.000000 0.158494 0.987360
vn 0.000000 0.327485 0.944857
vn 0.000000 0.158494 0.987360
vn 0.000000 0.000000 1.000000
vn 0.000000 0.000000 1.000000
vn 0.000000 0.158494 0.987360
vn 0.000000 0.000000 1.000000
vn 0.000000 -0.158494 0.987360
vn 0.000000 -0.158494 0.987360
vn 0.000000 0.000000 1.000000
vn 0.000000 -0.158494 -0.987360
vn 0.000000 0.000000 -1.000000
vn 0.000000 0.000000 -1.000000
vn 0.000000 -0.158494 -0.987360
vn 0.000000 0.000000 -1.000000
vn 0.000000 0.158494 -0.987360
vn 0.000000 0.158494 -0.987360
vn 0.000000 0.000000 -1.000000
vn 0.000000 0.158494 -0.987360
vn 0.000000 0.327485 -0.944857
vn 0.000000 0.327485 -0.944857
vn 0.000000 0.158494 -0.987360
vn 0.000000 0.327485 -0.944857
vn 0.000000 0.515877 -0.856663
vn 0.000000 0.515877 -0.856663
vn 0.000000 0.327485 -0.944857
vn 0.000000 0.515877 -0.856663
vn 0.000000 0.723610 -0.690209
vn 0.000000 0.723610 -0.690209
vn 0.000000 0.515877 -0.856663
vn 0.000000 0.723610 -0.690209
vn 0.000000 0.915327 -0.402712
vn 0.000000 0.915327 -0.402712
vn 0.000000 0.723610 -0.690209
vn 0.000000 0.915327 -0.402712
vn 0.000000 1.000000 0.000000
vn 0.000000 1.000000 0.000000
vn 0.000000 0.915327 -0.402712
vn 0.000000 1.000000 0.000000
vn 0.000000 0.915327 0.402712
vn 0.000000 0.915327 0.402712
vn 0.000000 1.000000 0.000000
vn 0.000000 0.915327 0.402712
vn 0.000000 0.723610 0.690209
vn 0.000000 0.723610 0.690209
vn 0.000000 0.915327 0.402712
vn 0.000000 0.723610 0.690209
vn 0.000000 0.515877 0.856663
vn 0.000000 0.515877 0.856663
vn 0.000000 0.723610 0.690209
vn 0.000000 0.515877 0.856663
vn 0.000000 0.327485 0.944857
vn 0.000000 0.327485 0.944857
vn 0.000000 0.515877 0.856663
vn 0.000000 0.327485 0.944857
vn 0.000000 0.158494 0.987360
vn 0.000000 0.158494 0.987360
vn 0.000000 0.327485 0.944857
vn 0.000000 0.158494 0.987360
vn 0.000000 0.000000 1.000000
vn 0.000000 0.000000 1.000000
vn 0.000000 0.158494 0.987360
vn 0.000000 0.000000 1.000000
vn 0.000000 -0.158494 0.987360
vn 0.000000 -0.158494 0.987360
vn 0.000000 0.000000 1.000000
vn 0.000000 -0.158494 -0.987360
vn 0.000000 0.000000 -1.000000
vn 0.000000 0.000000 -1.000000
vn 0.000000 -0.158494 -0.987360
vn 0.000000 0.000000 -1.000000
vn 0.000000 0.158494 -0.987360
vn 0.000000 0.158494 -0.987360
vn 0.000000 0.000000 -1.000000
vn 0.000000 0.158494 -0.987360
vn 0.000000 0.327485 -0.944857
vn 0.000000 0.327485 -0.944857
vn 0.000000 0.158494 -0.987360
vn 0.000000 0.327485 -0.944857
vn 0.000000 0.515877 -0.856663
vn 0.000000 0.515877 -0.856663
vn 0.000000 0.327485 -0.944857
vn 0.000000 0.515877 -0.856663
vn 0.000000 0.723610 -0.690209
vn 0.000000 0.723610 -0.690209
vn 0.000000 0.515877 -0.856663
vn 0.000000 0.723610 -0.690209
vn 0.000000 0.915327 -0.402712
vn 0.000000 0.915327 -0.402712
vn 0.000000 0.723610 -0.690209
vn 0.000000 0.915327 -0.402712
vn 0.000000 1.000000 0.000000
vn 0.000000 1.000000 0.000000
vn 0.000000 0.915327 -0.402712
vn 0.000000 1.000000 0.000000
vn 0.000000 0.915327 0.402712
vn 0.000000 0.915327 0.402712
vn 0.000000 1.000000 0.000000
vn 0.000000 0.915327 0.402712
vn 0.000000 0.723610 0.690209
vn 0.000000 0.723610 0.690209
vn 0.000000 0.915327 0.402712
vn 0.000000 0.723610 0.690209
vn 0.000000 0.515877 0.856663
vn 0.000000 0.515877 0.856663
vn 0.000000 0.723610 0.690209
vn 0.000000 0.515877 0.856663
vn 0.000000 0.327485 0.944857
vn 0.000000 0.327485 0.944857
vn 0.000000 0.515877 0.856663
vn 0.000000 0.327485 0.944857
vn 0.000000 0.158494 0.987360
vn 0.000000 0.158494 0.987360
vn 0.000000 0.327485 0.944857
vn 0.000000 0.158494 0.987360
vn 0.000000 0.000000 1.000000
vn 0.000000 0.000000 1.000000
vn 0.000000 0.158494 0.987360
vn 0.000000 0.000000 1.000000
vn 0.000000 -0.158494 0.987360
vn 0.000000 -0.158494 0.987360
vn 0.000000 0.000000 1.000000
vn 0.000000 -0.158494 -0.987360
vn 0.000000 0.000000 -1.000000
vn 0.690005 0.000000 -0.723805
vn 0.689254 -0.114892 -0.715352
vn 0.000000 0.000000 -1.000000
vn 0.000000 0.158494 -0.987360
vn 0.689303 0.114901 -0.715303
vn 0.690005 0.000000 -0.723805
vn 0.000000 0.158494 -0.987360
vn 0.000000 0.327485 -0.944857
vn 0.686736 0.238013 -0.686836
vn 0.689303 0.114901 -0.715303
vn 0.000000 0.327485 -0.944857
vn 0.000000 0.515877 -0.856663
vn 0.682086 0.377192 -0.626487
vn 0.686736 0.238013 -0.686836
vn 0.000000 0.515877 -0.856663
vn 0.000000 0.723610 -0.690209
vn 0.674621 0.534117 -0.509516
vn 0.682086 0.377192 -0.626487
vn 0.000000 0.723610 -0.690209
vn 0.000000 0.915327 -0.402712
vn 0.665819 0.682920 -0.300509
vn 0.674621 0.534117 -0.509516
vn 0.000000 0.915327 -0.402712
vn 0.000000 1.000000 0.000000
vn 0.661367 0.750063 0.000000
vn 0.665819 0.682920 -0.300509
vn 0.000000 1.000000 0.000000
vn 0.000000 0.915327 0.402712
vn 0.665819 0.682920 0.300509
vn 0.661367 0.750063 0.000000
vn 0.000000 0.915327 0.402712
vn 0.000000 0.723610 0.690209
vn 0.674621 0.534117 0.509516
vn 0.665819 0.682920 0.300509
vn 0.000000 0.723610 0.690209
vn 0.000000 0.515877 0.856663
vn 0.682032 0.377218 0.626529
vn 0.674621 0.534117 0.509516
vn 0.000000 0.515877 0.856663
vn 0.000000 0.327485 0.944857
vn 0.686789 0.237996 0.686789
vn 0.682032 0.377218 0.626529
vn 0.000000 0.327485 0.944857
vn 0.000000 0.158494 0.987360
vn 0.689303 0.114901 0.715303
vn 0.686789 0.237996 0.686789
vn 0.000000 0.158494 0.987360
vn 0.000000 0.000000 1.000000
vn 0.690005 0.000000 0.723805
vn 0.689303 0.114901 0.715303
vn 0.000000 0.000000 1.000000
vn 0.000000 -0.158494 0.987360
vn 0.689254 -0.114892 0.715352
vn 0.690005 0.000000 0.723805
s off
g Box001
usemtl initialShadingGroup
f 14/14/1 15/15/2 16/16/3 17/17/4
f 18/18/5 19/19/6 20/20/7 21/21/8
f 22/22/9 23/23/10 24/24/11 25/25/12
f 26/26/13 27/27/14 28/28/15 29/29/16
f 30/30/17 31/31/18 32/32/19 33/33/20
f 34/34/21 35/35/22 36/36/23 37/37/24
f 38/38/25 39/39/26 40/40/27 41/41/28
f 42/42/29 43/43/30 44/44/31 45/45/32
f 46/46/33 47/47/34 48/48/35 49/49/36
f 50/50/37 51/51/38 52/52/39 53/53/40
f 54/54/41 55/55/42 56/56/43 57/57/44
f 58/58/45 59/59/46 60/60/47 61/61/48
f 68/68/49 69/69/50 70/70/51 71/71/52
f 72/72/53 73/73/54 74/74/55 75/75/56
f 76/76/57 77/77/58 78/78/59 79/79/60
f 80/80/61 81/81/62 82/82/63 83/83/64
f 84/84/65 85/85/66 86/86/67 87/87/68
f 88/88/69 89/89/70 90/90/71 91/91/72
f 92/92/73 93/93/74 94/94/75 95/95/76
f 96/96/77 97/97/78 98/98/79 99/99/80
f 100/100/81 101/101/82 102/102/83 103/103/84
f 104/104/85 105/105/86 106/106/87 107/107/88
f 108/108/89 109/109/90 110/110/91 111/111/92
f 112/112/93 113/113/94 114/114/95 115/115/96
f 124/124/97 125/125/98 126/126/99 127/127/100
f 128/128/101 129/129/102 130/130/103 131/131/104
f 132/132/105 133/133/106 134/134/107 135/135/108
f 136/136/109 137/137/110 138/138/111 139/139/112
f 140/140/113 141/141/114 142/142/115 143/143/116
f 144/144/117 145/145/118 146/146/119 147/147/120
f 148/148/121 149/149/122 150/150/123 151/151/124
f 152/152/125 153/153/126 154/154/127 155/155/128
f 156/156/129 157/157/130 158/158/131 159/159/132
f 160/160/133 161/161/134 162/162/135 163/163/136
f 164/164/137 165/165/138 166/166/139 167/167/140
f 168/168/141 169/169/142 170/170/143 171/171/144
f 173/173/145 174/174/146 175/175/147 176/176/148
f 177/177/149 178/178/150 179/179/151 180/180/152
f 35/35/153 34/34/154 181/181/155 182/182/156
f 183/183/157 184/184/158 185/185/159 186/186/160
f 187/187/161 188/188/162 189/189/163 190/190/164
f 191/191/165 192/192/166 193/193/167 194/194/168
f 195/195/169 196/196/170 41/41/171 40/40/172
f 197/197/173 198/198/174 199/199/175 200/200/176
f 201/201/177 202/202/178 203/203/179 204/204/180
f 106/106/181 205/205/182 206/206/183 107/107/184
f 110/110/185 105/105/186 104/104/187 111/111/188
f 114/114/189 109/109/190 108/108/191 115/115/192
f 1/349/193 3/3/194 207/207/195 208/208/196
f 3/3/197 4/4/198 209/209/199 207/207/200
f 4/4/201 5/5/202 210/210/203 209/209/204
f 5/5/205 6/6/206 211/211/207 210/210/208
f 6/6/209 7/7/210 212/212/211 211/211/212
f 7/7/213 117/117/214 213/213/215 212/212/216
f 117/348/217 116/116/218 214/214/219 213/213/220
f 116/116/221 119/119/222 215/215/223 214/214/224
f 119/119/225 118/118/226 216/216/227 215/215/228
f 118/118/229 121/121/230 217/217/231 216/216/232
f 121/121/233 120/120/234 218/218/235 217/217/236
f 120/120/237 123/123/238 219/219/239 218/218/240
f 123/123/241 122/122/242 112/112/243 219/219/244
f 122/122/245 172/172/246 113/113/247 112/112/248
f 172/347/249 67/67/250 114/114/251 113/113/252
f 67/67/253 66/66/254 109/109/255 114/114/256
f 66/66/257 65/65/258 110/110/259 109/109/260
f 65/65/261 64/64/262 105/105/263 110/110/264
f 64/64/265 63/63/266 106/106/267 105/105/268
f 63/63/269 62/62/270 205/205/271 106/106/272
f 62/346/273 13/13/274 206/206/275 205/205/276
f 13/13/277 12/12/278 220/220/279 206/206/280
f 12/12/281 11/11/282 221/221/283 220/220/284
f 11/11/285 10/10/286 222/222/287 221/221/288
f 10/10/289 9/9/290 223/223/291 222/222/292
f 9/9/293 8/8/294 224/224/295 223/223/296
f 8/8/297 2/2/298 225/225/299 224/224/300
f 2/2/301 1/1/302 208/208/303 225/225/304
f 208/208/305 207/207/306 15/15/307 14/14/308
f 207/207/309 226/226/310 16/16/311 15/15/312
f 226/226/313 225/225/314 17/17/315 16/16/316
f 225/225/317 208/208/318 14/14/319 17/17/320
f 209/209/321 210/210/322 19/19/323 18/18/324
f 210/210/325 227/227/326 20/20/327 19/19/328
f 227/227/329 228/228/330 21/21/331 20/20/332
f 228/228/333 209/209/334 18/18/335 21/21/336
f 211/211/337 212/212/338 23/23/339 22/22/340
f 212/212/341 229/229/342 24/24/343 23/23/344
f 229/229/345 230/230/346 25/25/347 24/24/348
f 230/230/349 211/211/350 22/22/351 25/25/352
f 224/224/353 231/231/354 27/27/355 26/26/356
f 231/231/357 232/232/358 28/28/359 27/27/360
f 232/232/361 223/223/362 29/29/363 28/28/364
f 223/223/365 224/224/366 26/26/367 29/29/368
f 233/233/369 234/234/370 31/31/371 30/30/372
f 234/234/373 235/235/374 32/32/375 31/31/376
f 235/235/377 236/236/378 33/33/379 32/32/380
f 236/236/381 233/233/382 30/30/383 33/33/384
f 237/237/385 238/238/386 36/36/387 35/35/388
f 238/238/389 239/239/390 37/37/391 36/36/392
f 239/239/393 240/240/394 34/34/395 37/37/396
f 222/222/397 241/241/398 39/39/399 38/38/400
f 241/241/401 242/242/402 40/40/403 39/39/404
f 221/221/405 222/222/406 38/38/407 41/41/408
f 243/243/409 244/244/410 43/43/411 42/42/412
f 244/244/413 245/245/414 44/44/415 43/43/416
f 245/245/417 246/246/418 45/45/419 44/44/420
f 246/246/421 243/243/422 42/42/423 45/45/424
f 247/247/425 248/248/426 47/47/427 46/46/428
f 248/248/429 249/249/430 48/48/431 47/47/432
f 249/249/433 250/250/434 49/49/435 48/48/436
f 250/250/437 247/247/438 46/46/439 49/49/440
f 220/220/441 251/251/442 51/51/443 50/50/444
f 251/251/445 107/107/446 52/52/447 51/51/448
f 107/107/449 206/206/450 53/53/451 52/52/452
f 206/206/453 220/220/454 50/50/455 53/53/456
f 252/252/457 253/253/458 55/55/459 54/54/460
f 253/253/461 111/111/462 56/56/463 55/55/464
f 111/111/465 104/104/466 57/57/467 56/56/468
f 104/104/469 252/252/470 54/54/471 57/57/472
f 254/254/473 255/255/474 59/59/475 58/58/476
f 255/255/477 115/115/478 60/60/479 59/59/480
f 115/115/481 108/108/482 61/61/483 60/60/484
f 108/108/485 254/254/486 58/58/487 61/61/488
f 228/228/489 233/233/490 69/69/491 68/68/492
f 233/233/493 231/231/494 70/70/495 69/69/496
f 231/231/497 226/226/498 71/71/499 70/70/500
f 226/226/501 228/228/502 68/68/503 71/71/504
f 230/230/505 240/240/506 73/73/507 72/72/508
f 240/240/509 234/234/510 74/74/511 73/73/512
f 234/234/513 227/227/514 75/75/515 74/74/516
f 227/227/517 230/230/518 72/72/519 75/75/520
f 214/214/521 215/215/522 77/77/523 76/76/524
f 215/215/525 237/237/526 78/78/527 77/77/528
f 237/237/529 229/229/530 79/79/531 78/78/532
f 229/229/533 214/214/534 76/76/535 79/79/536
f 236/236/537 243/243/538 81/81/539 80/80/540
f 243/243/541 241/241/542 82/82/543 81/81/544
f 241/241/545 232/232/546 83/83/547 82/82/548
f 232/232/549 236/236/550 80/80/551 83/83/552
f 239/239/553 247/247/554 85/85/555 84/84/556
f 247/247/557 244/244/558 86/86/559 85/85/560
f 244/244/561 235/235/562 87/87/563 86/86/564
f 235/235/565 239/239/566 84/84/567 87/87/568
f 216/216/569 217/217/570 89/89/571 88/88/572
f 217/217/573 248/248/574 90/90/575 89/89/576
f 248/248/577 238/238/578 91/91/579 90/90/580
f 238/238/581 216/216/582 88/88/583 91/91/584
f 246/246/585 252/252/586 93/93/587 92/92/588
f 252/252/589 251/251/590 94/94/591 93/93/592
f 251/251/593 242/242/594 95/95/595 94/94/596
f 242/242/597 246/246/598 92/92/599 95/95/600
f 250/250/601 254/254/602 97/97/603 96/96/604
f 254/254/605 253/253/606 98/98/607 97/97/608
f 253/253/609 245/245/610 99/99/611 98/98/612
f 245/245/613 250/250/614 96/96/615 99/99/616
f 218/218/617 219/219/618 101/101/619 100/100/620
f 219/219/621 255/255/622 102/102/623 101/101/624
f 255/255/625 249/249/626 103/103/627 102/102/628
f 249/249/629 218/218/630 100/100/631 103/103/632
f 207/207/633 209/209/634 125/125/635 124/124/636
f 209/209/637 228/228/638 126/126/639 125/125/640
f 228/228/641 226/226/642 127/127/643 126/126/644
f 226/226/645 207/207/646 124/124/647 127/127/648
f 210/210/649 211/211/650 129/129/651 128/128/652
f 211/211/653 230/230/654 130/130/655 129/129/656
f 230/230/657 227/227/658 131/131/659 130/130/660
f 227/227/661 210/210/662 128/128/663 131/131/664
f 212/212/665 213/213/666 133/133/667 132/132/668
f 213/213/669 214/214/670 134/134/671 133/133/672
f 214/214/673 229/229/674 135/135/675 134/134/676
f 229/229/677 212/212/678 132/132/679 135/135/680
f 231/231/681 233/233/682 137/137/683 136/136/684
f 233/233/685 236/236/686 138/138/687 137/137/688
f 236/236/689 232/232/690 139/139/691 138/138/692
f 232/232/693 231/231/694 136/136/695 139/139/696
f 234/234/697 240/240/698 141/141/699 140/140/700
f 240/240/701 239/239/702 142/142/703 141/141/704
f 239/239/705 235/235/706 143/143/707 142/142/708
f 235/235/709 234/234/710 140/140/711 143/143/712
f 237/237/713 215/215/714 145/145/715 144/144/716
f 215/215/717 216/216/718 146/146/719 145/145/720
f 216/216/721 238/238/722 147/147/723 146/146/724
f 238/238/725 237/237/726 144/144/727 147/147/728
f 241/241/729 243/243/730 149/149/731 148/148/732
f 243/243/733 246/246/734 150/150/735 149/149/736
f 246/246/737 242/242/738 151/151/739 150/150/740
f 242/242/741 241/241/742 148/148/743 151/151/744
f 244/244/745 247/247/746 153/153/747 152/152/748
f 247/247/749 250/250/750 154/154/751 153/153/752
f 250/250/753 245/245/754 155/155/755 154/154/756
f 245/245/757 244/244/758 152/152/759 155/155/760
f 248/248/761 217/217/762 157/157/763 156/156/764
f 217/217/765 218/218/766 158/158/767 157/157/768
f 218/218/769 249/249/770 159/159/771 158/158/772
f 249/249/773 248/248/774 156/156/775 159/159/776
f 251/251/777 252/252/778 161/161/779 160/160/780
f 252/252/781 104/104/782 162/162/783 161/161/784
f 104/104/785 107/107/786 163/163/787 162/162/788
f 107/107/789 251/251/790 160/160/791 163/163/792
f 253/253/793 254/254/794 165/165/795 164/164/796
f 254/254/797 108/108/798 166/166/799 165/165/800
f 108/108/801 111/111/802 167/167/803 166/166/804
f 111/111/805 253/253/806 164/164/807 167/167/808
f 255/255/809 219/219/810 169/169/811 168/168/812
f 219/219/813 112/112/814 170/170/815 169/169/816
f 112/112/817 115/115/818 171/171/819 170/170/820
f 115/115/821 255/255/822 168/168/823 171/171/824
f 231/231/825 224/224/826 174/174/827 173/173/828
f 224/224/829 225/225/830 175/175/831 174/174/832
f 225/225/833 226/226/834 176/176/835 175/175/836
f 226/226/837 231/231/838 173/173/839 176/176/840
f 234/234/841 233/233/842 178/178/843 177/177/844
f 233/233/845 228/228/846 179/179/847 178/178/848
f 228/228/849 227/227/850 180/180/851 179/179/852
f 227/227/853 234/234/854 177/177/855 180/180/856
f 240/240/857 230/230/858 181/181/859 34/34/860
f 230/230/861 229/229/862 182/182/863 181/181/864
f 229/229/865 237/237/866 35/35/867 182/182/868
f 241/241/869 222/222/870 184/184/871 183/183/872
f 222/222/873 223/223/874 185/185/875 184/184/876
f 223/223/877 232/232/878 186/186/879 185/185/880
f 232/232/881 241/241/882 183/183/883 186/186/884
f 244/244/885 243/243/886 188/188/887 187/187/888
f 243/243/889 236/236/890 189/189/891 188/188/892
f 236/236/893 235/235/894 190/190/895 189/189/896
f 235/235/897 244/244/898 187/187/899 190/190/900
f 248/248/901 247/247/902 192/192/903 191/191/904
f 247/247/905 239/239/906 193/193/907 192/192/908
f 239/239/909 238/238/910 194/194/911 193/193/912
f 238/238/913 248/248/914 191/191/915 194/194/916
f 251/251/917 220/220/918 196/196/919 195/195/920
f 220/220/921 221/221/922 41/41/923 196/196/924
f 242/242/925 251/251/926 195/195/927 40/40/928
f 253/253/929 252/252/930 198/198/931 197/197/932
f 252/252/933 246/246/934 199/199/935 198/198/936
f 246/246/937 245/245/938 200/200/939 199/199/940
f 245/245/941 253/253/942 197/197/943 200/200/944
f 255/255/945 254/254/946 202/202/947 201/201/948
f 254/254/949 250/250/950 203/203/951 202/202/952
f 250/250/953 249/249/954 204/204/955 203/203/956
f 249/249/957 255/255/958 201/201/959 204/204/960
f 270/270/961 269/269/962 272/272/963 271/271/964
f 269/269/965 268/268/966 273/273/967 272/272/968
f 268/268/969 267/267/970 274/274/971 273/273/972
f 267/267/973 266/266/974 275/275/975 274/274/976
f 266/266/977 265/265/978 276/276/979 275/275/980
f 265/265/981 264/264/982 277/277/983 276/276/984
f 264/264/985 263/263/986 278/278/987 277/277/988
f 263/263/989 262/262/990 279/279/991 278/278/992
f 262/262/993 261/261/994 280/280/995 279/279/996
f 261/261/997 260/260/998 281/281/999 280/280/1000
f 260/260/1001 259/259/1002 282/282/1003 281/281/1004
f 259/259/1005 258/258/1006 283/283/1007 282/282/1008
f 258/258/1009 257/257/1010 284/284/1011 283/283/1012
f 257/257/1013 256/256/1014 285/285/1015 284/284/1016
f 271/271/1017 272/272/1018 287/287/1019 286/286/1020
f 272/272/1021 273/273/1022 288/288/1023 287/287/1024
f 273/273/1025 274/274/1026 289/289/1027 288/288/1028
f 274/274/1029 275/275/1030 290/290/1031 289/289/1032
f 275/275/1033 276/276/1034 291/291/1035 290/290/1036
f 276/276/1037 277/277/1038 292/292/1039 291/291/1040
f 277/277/1041 278/278/1042 293/293/1043 292/292/1044
f 278/278/1045 279/279/1046 294/294/1047 293/293/1048
f 279/279/1049 280/280/1050 295/295/1051 294/294/1052
f 280/280/1053 281/281/1054 296/296/1055 295/295/1056
f 281/281/1057 282/282/1058 297/297/1059 296/296/1060
f 282/282/1061 283/283/1062 298/298/1063 297/297/1064
f 283/283/1065 284/284/1066 299/299/1067 298/298/1068
f 284/284/1069 285/285/1070 300/300/1071 299/299/1072
f 286/286/1073 287/287/1074 302/302/1075 301/301/1076
f 287/287/1077 288/288/1078 303/303/1079 302/302/1080
f 288/288/1081 289/289/1082 304/304/1083 303/303/1084
f 289/289/1085 290/290/1086 305/305/1087 304/304/1088
f 290/290/1089 291/291/1090 306/306/1091 305/305/1092
f 291/291/1093 292/292/1094 307/307/1095 306/306/1096
f 292/292/1097 293/293/1098 308/308/1099 307/307/1100
f 293/293/1101 294/294/1102 309/309/1103 308/308/1104
f 294/294/1105 295/295/1106 310/310/1107 309/309/1108
f 295/295/1109 296/296/1110 311/311/1111 310/310/1112
f 296/296/1113 297/297/1114 312/312/1115 311/311/1116
f 297/297/1117 298/298/1118 313/313/1119 312/312/1120
f 298/298/1121 299/299/1122 314/314/1123 313/313/1124
f 299/299/1125 300/300/1126 315/315/1127 314/314/1128
f 301/301/1129 302/302/1130 317/317/1131 316/316/1132
f 302/302/1133 303/303/1134 318/318/1135 317/317/1136
f 303/303/1137 304/304/1138 319/319/1139 318/318/1140
f 304/304/1141 305/305/1142 320/320/1143 319/319/1144
f 305/305/1145 306/306/1146 321/321/1147 320/320/1148
f 306/306/1149 307/307/1150 322/322/1151 321/321/1152
f 307/307/1153 308/308/1154 323/323/1155 322/322/1156
f 308/308/1157 309/309/1158 324/324/1159 323/323/1160
f 309/309/1161 310/310/1162 325/325/1163 324/324/1164
f 310/310/1165 311/311/1166 326/326/1167 325/325/1168
f 311/311/1169 312/312/1170 327/327/1171 326/326/1172
f 312/312/1173 313/313/1174 328/328/1175 327/327/1176
f 313/313/1177 314/314/1178 329/329/1179 328/328/1180
f 314/314/1181 315/315/1182 330/330/1183 329/329/1184
f 316/316/1185 317/317/1186 332/332/1187 331/331/1188
f 317/317/1189 318/318/1190 333/333/1191 332/332/1192
f 318/318/1193 319/319/1194 334/334/1195 333/333/1196
f 319/319/1197 320/320/1198 335/335/1199 334/334/1200
f 320/320/1201 321/321/1202 336/336/1203 335/335/1204
f 321/321/1205 322/322/1206 337/337/1207 336/336/1208
f 322/322/1209 323/323/1210 338/338/1211 337/337/1212
f 323/323/1213 324/324/1214 339/339/1215 338/338/1216
f 324/324/1217 325/325/1218 340/340/1219 339/339/1220
f 325/325/1221 326/326/1222 341/341/1223 340/340/1224
f 326/326/1225 327/327/1226 342/342/1227 341/341/1228
f 327/327/1229 328/328/1230 343/343/1231 342/342/1232
f 328/328/1233 329/329/1234 344/344/1235 343/343/1236
f 329/329/1237 330/330/1238 345/345/1239 344/344/1240
