%YAML 1.1
%TAG !u! tag:unity3d.com,2011:
--- !u!78 &1
TagManager:
  serializedVersion: 2
  tags:
  - HandTag
  - NeckPosition
  - PlayerManager
  - PlayerHead
  - StrongPushBlock
  - BlackSmithBody
  - AltSkeleton
  - Shield
  - Arrow
  - ArrowObstacle
  - ArrowSpawn
  - HeadLockOn
  - ControllerHeadless
  - ControllerWithHead
  - HeavyChr
  - BlacksmithChr
  - SkeletonHead
  - PlayerAttack
  - EnemyCharacter
  layers:
  - Default
  - TransparentFX
  - Ignore Raycast
  - 
  - Water
  - UI
  - 
  - 
  - PostProcessing
  - 
  - 
  - 
  - 
  - 
  - 
  - 
  - 
  - 
  - 
  - 
  - 
  - 
  - 
  - 
  - 
  - 
  - 
  - 
  - 
  - 
  - 
  - 
  m_SortingLayers:
  - name: Default
    uniqueID: 0
    locked: 0
