# 3ds Max Wavefront OBJ Exporter v0.97b - (c)2007 guruware
# File Created: 21.03.2020 20:32:26

mtllib GateRight_low.mtl

#
# object Gate_Right
#

v  1.3199 0.0763 0.0000
v  1.3140 0.0763 -0.0144
v  1.2900 1.9292 -0.0144
v  1.2959 1.9292 0.0000
v  1.2996 0.0763 -0.0203
v  1.2756 1.9292 -0.0203
v  1.2852 0.0763 -0.0144
v  1.2612 1.9292 -0.0144
v  1.2792 0.0763 0.0000
v  1.2553 1.9292 0.0000
v  1.2852 0.0763 0.0144
v  1.2612 1.9292 0.0144
v  1.2996 0.0763 0.0203
v  1.2756 1.9292 0.0203
v  1.3140 0.0763 0.0144
v  1.2900 1.9292 0.0144
v  1.3199 3.7821 0.0000
v  1.3140 3.7821 -0.0144
v  1.3394 3.8312 -0.0399
v  1.3559 3.8312 -0.0000
v  1.2996 3.7821 -0.0203
v  1.2996 3.8312 -0.0564
v  1.2852 3.7821 -0.0144
v  1.2597 3.8312 -0.0399
v  1.2792 3.7821 0.0000
v  1.2432 3.8312 0.0000
v  1.2852 3.7821 0.0144
v  1.2597 3.8312 0.0399
v  1.2996 3.7821 0.0203
v  1.2996 3.8312 0.0564
v  1.3140 3.7821 0.0144
v  1.3394 3.8312 0.0399
v  1.3139 3.8800 -0.0143
v  1.3198 3.8800 -0.0000
v  1.2996 3.8800 -0.0202
v  1.2853 3.8800 -0.0143
v  1.2794 3.8800 0.0000
v  1.2853 3.8800 0.0143
v  1.2996 3.8800 0.0202
v  1.3139 3.8800 0.0143
v  1.3139 3.9182 -0.0143
v  1.3198 3.9182 -0.0000
v  1.2996 3.9182 -0.0202
v  1.2853 3.9182 -0.0143
v  1.2794 3.9182 0.0000
v  1.2853 3.9182 0.0143
v  1.2996 3.9182 0.0202
v  1.3139 3.9182 0.0143
v  1.3518 3.9468 -0.0522
v  1.3735 3.9468 0.0000
v  1.2996 3.9468 -0.0739
v  1.2473 3.9468 -0.0522
v  1.2257 3.9468 0.0000
v  1.2473 3.9468 0.0522
v  1.2996 3.9468 0.0739
v  1.3518 3.9468 0.0522
v  1.3518 3.9869 -0.0522
v  1.3735 3.9869 0.0000
v  1.2996 3.9869 -0.0739
v  1.2473 3.9869 -0.0522
v  1.2257 3.9869 0.0000
v  1.2473 3.9869 0.0522
v  1.2996 3.9869 0.0739
v  1.3518 3.9869 0.0522
v  1.2996 4.2473 0.0000
v  1.0129 0.0763 0.0000
v  1.0069 0.0763 -0.0144
v  1.0069 1.9061 -0.0144
v  1.0129 1.9061 0.0000
v  0.9925 0.0763 -0.0203
v  0.9925 1.9017 -0.0203
v  0.9782 0.0763 -0.0144
v  0.9782 1.9026 -0.0144
v  0.9722 0.0763 0.0000
v  0.9722 1.9061 0.0000
v  0.9782 0.0763 0.0144
v  0.9782 1.9061 0.0144
v  0.9925 0.0763 0.0203
v  0.9925 1.9016 0.0203
v  1.0069 0.0763 0.0144
v  1.0069 1.9016 0.0144
v  1.0129 3.9428 0.0000
v  1.0069 3.9428 -0.0144
v  1.0324 3.9918 -0.0399
v  1.0489 3.9918 -0.0000
v  0.9925 3.9428 -0.0203
v  0.9925 3.9918 -0.0564
v  0.9782 3.9428 -0.0144
v  0.9527 3.9918 -0.0399
v  0.9722 3.9428 0.0000
v  0.9362 3.9918 0.0000
v  0.9782 3.9428 0.0144
v  0.9527 3.9918 0.0399
v  0.9925 3.9428 0.0203
v  0.9925 3.9918 0.0564
v  1.0069 3.9428 0.0144
v  1.0324 3.9918 0.0399
v  1.0068 4.0406 -0.0143
v  1.0127 4.0406 -0.0000
v  0.9925 4.0406 -0.0202
v  0.9783 4.0406 -0.0143
v  0.9724 4.0406 0.0000
v  0.9783 4.0406 0.0143
v  0.9925 4.0406 0.0202
v  1.0068 4.0406 0.0143
v  1.0066 4.0777 -0.0143
v  1.0125 4.0772 -0.0000
v  0.9924 4.0790 -0.0202
v  0.9782 4.0802 -0.0143
v  0.9723 4.0807 0.0000
v  0.9782 4.0802 0.0143
v  0.9924 4.0790 0.0202
v  1.0066 4.0777 0.0143
v  1.0470 4.1030 -0.0522
v  1.0685 4.1011 0.0000
v  0.9949 4.1075 -0.0739
v  0.9429 4.1121 -0.0522
v  0.9213 4.1140 0.0000
v  0.9429 4.1121 0.0522
v  0.9949 4.1075 0.0739
v  1.0470 4.1030 0.0522
v  1.0505 4.1429 -0.0522
v  1.0720 4.1410 0.0000
v  0.9984 4.1474 -0.0739
v  0.9464 4.1520 -0.0522
v  0.9248 4.1538 0.0000
v  0.9464 4.1520 0.0522
v  0.9984 4.1474 0.0739
v  1.0505 4.1429 0.0522
v  1.0211 4.4068 0.0000
v  0.9808 2.3243 -0.0224
v  0.9953 2.3860 -0.0144
v  1.0013 2.3860 0.0000
v  0.9867 2.3243 -0.0081
v  0.9664 2.3243 -0.0284
v  0.9810 2.3860 -0.0203
v  0.9520 2.3243 -0.0224
v  0.9666 2.3860 -0.0144
v  0.9460 2.3243 -0.0081
v  0.9606 2.3860 0.0000
v  0.9520 2.3243 0.0063
v  0.9666 2.3860 0.0144
v  0.9664 2.3367 0.0123
v  0.9810 2.3922 0.0203
v  0.9808 2.3367 0.0063
v  0.9953 2.3922 0.0144
v  0.9664 2.3306 -0.0081
v  0.9974 2.0095 -0.0143
v  0.9914 2.0095 -0.0287
v  0.9770 2.0023 -0.0143
v  0.9770 2.0007 -0.0346
v  0.9627 2.0027 -0.0287
v  0.9567 2.0095 -0.0143
v  0.9627 2.0095 0.0001
v  0.9770 2.0006 0.0061
v  0.9914 2.0006 0.0001
v  0.7058 0.0763 0.0000
v  0.6999 0.0763 -0.0144
v  0.7235 2.0606 -0.0144
v  0.7295 2.0606 0.0000
v  0.6855 0.0763 -0.0203
v  0.7092 2.0606 -0.0203
v  0.6711 0.0763 -0.0144
v  0.6948 2.0606 -0.0144
v  0.6651 0.0763 0.0000
v  0.6888 2.0606 0.0000
v  0.6711 0.0763 0.0144
v  0.6948 2.0606 0.0144
v  0.6855 0.0763 0.0203
v  0.7092 2.0606 0.0203
v  0.6999 0.0763 0.0144
v  0.7235 2.0606 0.0144
v  0.7058 4.0450 0.0000
v  0.6999 4.0450 -0.0144
v  0.7253 4.0940 -0.0399
v  0.7418 4.0940 -0.0000
v  0.6855 4.0450 -0.0203
v  0.6855 4.0940 -0.0564
v  0.6711 4.0450 -0.0144
v  0.6456 4.0940 -0.0399
v  0.6651 4.0450 0.0000
v  0.6291 4.0940 0.0000
v  0.6711 4.0450 0.0144
v  0.6456 4.0940 0.0399
v  0.6855 4.0450 0.0203
v  0.6855 4.0940 0.0564
v  0.6999 4.0450 0.0144
v  0.7253 4.0940 0.0399
v  0.6998 4.1428 -0.0143
v  0.7057 4.1428 -0.0000
v  0.6855 4.1428 -0.0202
v  0.6712 4.1428 -0.0143
v  0.6653 4.1428 0.0000
v  0.6712 4.1428 0.0143
v  0.6855 4.1428 0.0202
v  0.6998 4.1428 0.0143
v  0.6998 4.1810 -0.0143
v  0.7057 4.1810 -0.0000
v  0.6855 4.1810 -0.0202
v  0.6712 4.1810 -0.0143
v  0.6653 4.1810 0.0000
v  0.6712 4.1810 0.0143
v  0.6855 4.1810 0.0202
v  0.6998 4.1810 0.0143
v  0.7377 4.2097 -0.0522
v  0.7594 4.2097 0.0000
v  0.6855 4.2097 -0.0739
v  0.6332 4.2097 -0.0522
v  0.6116 4.2097 0.0000
v  0.6332 4.2097 0.0522
v  0.6855 4.2097 0.0739
v  0.7377 4.2097 0.0522
v  0.7377 4.2497 -0.0522
v  0.7594 4.2497 0.0000
v  0.6855 4.2497 -0.0739
v  0.6332 4.2497 -0.0522
v  0.6116 4.2497 0.0000
v  0.6332 4.2497 0.0522
v  0.6855 4.2497 0.0739
v  0.7377 4.2497 0.0522
v  0.6855 4.5102 0.0000
v  0.3988 0.0763 0.0000
v  0.3928 0.0763 -0.0144
v  0.3812 0.2221 -0.0148
v  0.3871 0.2245 0.0007
v  0.3784 0.0763 -0.0203
v  0.3668 0.2298 -0.0189
v  0.3641 0.0763 -0.0144
v  0.3524 0.2220 -0.0149
v  0.3581 0.0763 0.0000
v  0.3465 0.2245 0.0007
v  0.3641 0.0763 0.0144
v  0.3524 0.2208 0.0146
v  0.3784 0.0763 0.0203
v  0.3668 0.2147 0.0191
v  0.3928 0.0763 0.0144
v  0.3812 0.2208 0.0146
v  0.3988 4.1137 0.0000
v  0.3928 4.1137 -0.0144
v  0.4183 4.1628 -0.0399
v  0.4348 4.1628 -0.0000
v  0.3784 4.1137 -0.0203
v  0.3784 4.1628 -0.0564
v  0.3641 4.1137 -0.0144
v  0.3386 4.1628 -0.0399
v  0.3581 4.1137 0.0000
v  0.3221 4.1628 0.0000
v  0.3641 4.1137 0.0144
v  0.3386 4.1628 0.0399
v  0.3784 4.1137 0.0203
v  0.3784 4.1628 0.0564
v  0.3928 4.1137 0.0144
v  0.4183 4.1628 0.0399
v  0.3927 4.2116 -0.0143
v  0.3986 4.2116 -0.0000
v  0.3784 4.2116 -0.0202
v  0.3642 4.2116 -0.0143
v  0.3583 4.2116 0.0000
v  0.3642 4.2116 0.0143
v  0.3784 4.2116 0.0202
v  0.3927 4.2116 0.0143
v  0.3913 4.2512 -0.0143
v  0.3972 4.2517 -0.0000
v  0.3771 4.2500 -0.0202
v  0.3628 4.2487 -0.0143
v  0.3569 4.2482 0.0000
v  0.3628 4.2487 0.0143
v  0.3771 4.2500 0.0202
v  0.3913 4.2512 0.0143
v  0.4266 4.2831 -0.0522
v  0.4482 4.2849 0.0000
v  0.3746 4.2785 -0.0739
v  0.3225 4.2740 -0.0522
v  0.3010 4.2721 0.0000
v  0.3225 4.2740 0.0522
v  0.3746 4.2785 0.0739
v  0.4266 4.2831 0.0522
v  0.4231 4.3229 -0.0522
v  0.4447 4.3248 0.0000
v  0.3711 4.3184 -0.0739
v  0.3190 4.3138 -0.0522
v  0.2975 4.3119 0.0000
v  0.3190 4.3138 0.0522
v  0.3711 4.3184 0.0739
v  0.4231 4.3229 0.0522
v  0.3484 4.5778 0.0000
v  0.3767 0.4068 -0.0013
v  0.3874 0.5406 -0.0144
v  0.3934 0.5406 0.0000
v  0.3826 0.4118 0.0123
v  0.3623 0.4048 -0.0068
v  0.3730 0.5406 -0.0203
v  0.3479 0.4068 -0.0013
v  0.3587 0.5406 -0.0144
v  0.3420 0.4173 0.0103
v  0.3527 0.5435 0.0000
v  0.3479 0.4167 0.0258
v  0.3587 0.5406 0.0144
v  0.3623 0.4234 0.0297
v  0.3730 0.5431 0.0203
v  0.3767 0.4222 0.0237
v  0.3874 0.5435 0.0144
v  0.3668 0.2182 -0.0010
v  0.3623 0.4064 0.0142
v  0.2230 0.0763 -0.0000
v  0.2170 0.0763 -0.0144
v  0.2170 1.2427 -0.0144
v  0.2230 1.2427 -0.0000
v  0.2027 0.0763 -0.0203
v  0.2027 1.2427 -0.0203
v  0.1883 0.0763 -0.0144
v  0.1883 1.2427 -0.0144
v  0.1823 0.0763 0.0000
v  0.1823 1.2427 0.0000
v  0.1883 0.0763 0.0144
v  0.1883 1.2427 0.0144
v  0.2027 0.0763 0.0203
v  0.2027 1.2427 0.0203
v  0.2170 0.0763 0.0144
v  0.2170 1.2427 0.0144
v  0.2425 1.2918 -0.0399
v  0.2590 1.2918 -0.0000
v  0.2027 1.2918 -0.0564
v  0.1628 1.2918 -0.0399
v  0.1463 1.2918 0.0000
v  0.1628 1.2918 0.0399
v  0.2027 1.2918 0.0564
v  0.2425 1.2918 0.0399
v  0.2169 1.3406 -0.0143
v  0.2229 1.3406 -0.0000
v  0.2027 1.3406 -0.0202
v  0.1884 1.3406 -0.0143
v  0.1825 1.3406 0.0000
v  0.1884 1.3406 0.0143
v  0.2027 1.3406 0.0202
v  0.2169 1.3406 0.0143
v  0.2169 1.3788 -0.0143
v  0.2229 1.3788 -0.0000
v  0.2027 1.3788 -0.0202
v  0.1884 1.3788 -0.0143
v  0.1825 1.3788 0.0000
v  0.1884 1.3788 0.0143
v  0.2027 1.3788 0.0202
v  0.2169 1.3788 0.0143
v  0.2549 1.4075 -0.0522
v  0.2765 1.4075 0.0000
v  0.2027 1.4075 -0.0739
v  0.1504 1.4075 -0.0522
v  0.1288 1.4075 0.0000
v  0.1504 1.4075 0.0522
v  0.2027 1.4075 0.0739
v  0.2549 1.4075 0.0522
v  0.2549 1.4475 -0.0522
v  0.2765 1.4475 0.0000
v  0.2027 1.4475 -0.0739
v  0.1504 1.4475 -0.0522
v  0.1288 1.4475 0.0000
v  0.1504 1.4475 0.0522
v  0.2027 1.4475 0.0739
v  0.2549 1.4475 0.0522
v  0.2027 1.7079 0.0000
v  0.5589 0.0763 0.0000
v  0.5529 0.0763 -0.0144
v  0.5529 1.2427 -0.0144
v  0.5589 1.2427 0.0000
v  0.5386 0.0763 -0.0203
v  0.5386 1.2427 -0.0203
v  0.5242 0.0763 -0.0144
v  0.5242 1.2427 -0.0144
v  0.5182 0.0763 0.0000
v  0.5182 1.2427 0.0000
v  0.5242 0.0763 0.0144
v  0.5242 1.2427 0.0144
v  0.5386 0.0763 0.0203
v  0.5386 1.2427 0.0203
v  0.5529 0.0763 0.0144
v  0.5529 1.2427 0.0144
v  0.5784 1.2918 -0.0399
v  0.5949 1.2918 -0.0000
v  0.5386 1.2918 -0.0564
v  0.4987 1.2918 -0.0399
v  0.4822 1.2918 0.0000
v  0.4987 1.2918 0.0399
v  0.5386 1.2918 0.0564
v  0.5784 1.2918 0.0399
v  0.5528 1.3406 -0.0143
v  0.5587 1.3406 -0.0000
v  0.5386 1.3406 -0.0202
v  0.5243 1.3406 -0.0143
v  0.5184 1.3406 0.0000
v  0.5243 1.3406 0.0143
v  0.5386 1.3406 0.0202
v  0.5528 1.3406 0.0143
v  0.5528 1.3817 -0.0135
v  0.5587 1.3793 0.0006
v  0.5386 1.3828 -0.0193
v  0.5243 1.3817 -0.0135
v  0.5184 1.3793 0.0006
v  0.5243 1.3768 0.0146
v  0.5386 1.3758 0.0204
v  0.5528 1.3768 0.0146
v  0.5908 1.4166 -0.0459
v  0.6124 1.4075 0.0055
v  0.5386 1.4203 -0.0672
v  0.4863 1.4166 -0.0459
v  0.4647 1.4075 0.0055
v  0.4863 1.3984 0.0570
v  0.5386 1.3947 0.0783
v  0.5908 1.3984 0.0570
v  0.5908 1.4560 -0.0390
v  0.6124 1.4338 0.0102
v  0.5386 1.4481 -0.0623
v  0.4863 1.4560 -0.0390
v  0.4647 1.4469 0.0125
v  0.4863 1.4258 0.0618
v  0.5386 1.4264 0.0839
v  0.5908 1.4181 0.0604
v  0.5386 1.4464 0.0124
v  0.8575 0.0763 0.0000
v  0.8515 0.0763 -0.0144
v  0.8515 1.2427 -0.0144
v  0.8575 1.2427 0.0000
v  0.8371 0.0763 -0.0203
v  0.8371 1.2427 -0.0203
v  0.8228 0.0763 -0.0144
v  0.8228 1.2427 -0.0144
v  0.8168 0.0763 0.0000
v  0.8168 1.2427 0.0000
v  0.8228 0.0763 0.0144
v  0.8228 1.2427 0.0144
v  0.8371 0.0763 0.0203
v  0.8371 1.2427 0.0203
v  0.8515 0.0763 0.0144
v  0.8515 1.2427 0.0144
v  0.8770 1.2918 -0.0399
v  0.8935 1.2918 -0.0000
v  0.8371 1.2918 -0.0564
v  0.7973 1.2918 -0.0399
v  0.7808 1.2918 0.0000
v  0.7973 1.2918 0.0399
v  0.8371 1.2918 0.0564
v  0.8770 1.2918 0.0399
v  0.8514 1.3406 -0.0143
v  0.8573 1.3406 -0.0000
v  0.8371 1.3406 -0.0202
v  0.8229 1.3406 -0.0143
v  0.8170 1.3406 0.0000
v  0.8229 1.3406 0.0143
v  0.8371 1.3406 0.0202
v  0.8514 1.3406 0.0143
v  0.8514 1.3788 -0.0143
v  0.8573 1.3788 -0.0000
v  0.8371 1.3788 -0.0202
v  0.8229 1.3788 -0.0143
v  0.8170 1.3788 0.0000
v  0.8229 1.3788 0.0143
v  0.8371 1.3788 0.0202
v  0.8514 1.3788 0.0143
v  0.8894 1.4075 -0.0522
v  0.9110 1.4075 0.0000
v  0.8371 1.4075 -0.0739
v  0.7849 1.4075 -0.0522
v  0.7633 1.4075 0.0000
v  0.7849 1.4075 0.0522
v  0.8371 1.4075 0.0739
v  0.8894 1.4075 0.0522
v  0.8894 1.4475 -0.0522
v  0.9110 1.4475 0.0000
v  0.8371 1.4475 -0.0739
v  0.7849 1.4475 -0.0522
v  0.7633 1.4475 0.0000
v  0.7849 1.4475 0.0522
v  0.8371 1.4475 0.0739
v  0.8894 1.4475 0.0522
v  0.8371 1.7079 0.0000
v  1.1644 0.0763 0.0000
v  1.1585 0.0763 -0.0144
v  1.1585 1.2427 -0.0144
v  1.1644 1.2427 0.0000
v  1.1441 0.0763 -0.0203
v  1.1441 1.2427 -0.0203
v  1.1297 0.0763 -0.0144
v  1.1297 1.2427 -0.0144
v  1.1237 0.0763 0.0000
v  1.1237 1.2427 0.0000
v  1.1297 0.0763 0.0144
v  1.1297 1.2427 0.0144
v  1.1441 0.0763 0.0203
v  1.1441 1.2427 0.0203
v  1.1585 0.0763 0.0144
v  1.1585 1.2427 0.0144
v  1.1839 1.2918 -0.0399
v  1.2004 1.2918 -0.0000
v  1.1441 1.2918 -0.0564
v  1.1042 1.2918 -0.0399
v  1.0877 1.2918 0.0000
v  1.1042 1.2918 0.0399
v  1.1441 1.2918 0.0564
v  1.1839 1.2918 0.0399
v  1.1584 1.3406 -0.0143
v  1.1643 1.3406 -0.0000
v  1.1441 1.3406 -0.0202
v  1.1298 1.3406 -0.0143
v  1.1239 1.3406 0.0000
v  1.1298 1.3406 0.0143
v  1.1441 1.3406 0.0202
v  1.1584 1.3406 0.0143
v  1.1584 1.3788 -0.0143
v  1.1643 1.3788 -0.0000
v  1.1441 1.3788 -0.0202
v  1.1298 1.3788 -0.0143
v  1.1239 1.3788 0.0000
v  1.1298 1.3788 0.0143
v  1.1441 1.3788 0.0202
v  1.1584 1.3788 0.0143
v  1.1963 1.4075 -0.0522
v  1.2180 1.4075 0.0000
v  1.1441 1.4075 -0.0739
v  1.0918 1.4075 -0.0522
v  1.0702 1.4075 0.0000
v  1.0918 1.4075 0.0522
v  1.1441 1.4075 0.0739
v  1.1963 1.4075 0.0522
v  1.1963 1.4475 -0.0522
v  1.2180 1.4475 0.0000
v  1.1441 1.4475 -0.0739
v  1.0918 1.4475 -0.0522
v  1.0702 1.4475 0.0000
v  1.0918 1.4475 0.0522
v  1.1441 1.4475 0.0739
v  1.1963 1.4475 0.0522
v  1.1441 1.7079 0.0000
v  1.4672 0.0763 0.0000
v  1.4612 0.0763 -0.0144
v  1.4616 1.2419 -0.0144
v  1.4676 1.2414 0.0000
v  1.4468 0.0763 -0.0203
v  1.4473 1.2432 -0.0203
v  1.4325 0.0763 -0.0144
v  1.4330 1.2444 -0.0144
v  1.4265 0.0763 0.0000
v  1.4271 1.2450 0.0000
v  1.4325 0.0763 0.0144
v  1.4330 1.2444 0.0144
v  1.4468 0.0763 0.0203
v  1.4473 1.2432 0.0203
v  1.4612 0.0763 0.0144
v  1.4616 1.2419 0.0144
v  1.4913 1.2886 -0.0399
v  1.5077 1.2871 -0.0000
v  1.4516 1.2920 -0.0564
v  1.4119 1.2955 -0.0399
v  1.3954 1.2969 0.0000
v  1.4119 1.2955 0.0399
v  1.4516 1.2920 0.0564
v  1.4913 1.2886 0.0399
v  1.4701 1.3394 -0.0143
v  1.4760 1.3389 -0.0000
v  1.4558 1.3407 -0.0202
v  1.4416 1.3419 -0.0143
v  1.4357 1.3424 0.0000
v  1.4416 1.3419 0.0143
v  1.4558 1.3407 0.0202
v  1.4701 1.3394 0.0143
v  1.4734 1.3775 -0.0143
v  1.4793 1.3770 -0.0000
v  1.4592 1.3787 -0.0202
v  1.4450 1.3800 -0.0143
v  1.4391 1.3805 0.0000
v  1.4450 1.3800 0.0143
v  1.4592 1.3787 0.0202
v  1.4734 1.3775 0.0143
v  1.5137 1.4027 -0.0522
v  1.5353 1.4008 0.0000
v  1.4617 1.4073 -0.0739
v  1.4096 1.4118 -0.0522
v  1.3881 1.4137 0.0000
v  1.4096 1.4118 0.0522
v  1.4617 1.4073 0.0739
v  1.5137 1.4027 0.0522
v  1.5172 1.4426 -0.0522
v  1.5388 1.4407 0.0000
v  1.4652 1.4471 -0.0739
v  1.4131 1.4517 -0.0522
v  1.3916 1.4536 0.0000
v  1.4131 1.4517 0.0522
v  1.4652 1.4471 0.0739
v  1.5172 1.4426 0.0522
v  1.4879 1.7066 0.0000
v  0.0010 0.0000 0.0280
v  0.0010 0.0000 -0.0280
v  0.0571 0.0000 -0.0280
v  0.0571 0.0000 0.0280
v  0.0010 4.6855 0.0280
v  0.0571 4.6855 0.0280
v  0.0571 4.6855 -0.0280
v  0.0010 4.6855 -0.0280
v  0.0571 0.0816 0.0280
v  0.0010 0.0816 0.0280
v  0.0010 0.0816 -0.0280
v  0.0571 0.0816 -0.0280
v  0.0571 4.1005 0.0280
v  0.0010 4.1005 0.0280
v  0.0571 4.1005 -0.0280
v  0.0010 4.1005 -0.0280
v  0.0571 4.0101 0.0280
v  0.0010 4.0101 0.0280
v  0.0010 4.0101 -0.0280
v  0.0571 4.0101 -0.0280
v  0.0571 3.3532 0.0280
v  0.0010 3.3532 0.0280
v  0.0571 3.3532 -0.0280
v  0.0010 3.3532 -0.0280
v  0.3575 3.9822 -0.0280
v  0.3575 3.9822 0.0280
v  0.3750 4.0697 -0.0280
v  0.3750 4.0697 0.0280
v  0.6585 3.9148 -0.0280
v  0.6585 3.9148 0.0280
v  0.6924 3.9954 -0.0280
v  0.6924 3.9954 0.0280
v  0.9653 3.8124 -0.0280
v  0.9653 3.8124 0.0280
v  1.0036 3.8855 -0.0280
v  1.0036 3.8855 0.0280
v  1.2661 3.6577 -0.0280
v  1.2661 3.6577 0.0280
v  1.3213 3.7111 -0.0280
v  1.3213 3.7111 0.0280
v  1.5692 3.4325 -0.0280
v  1.5692 3.4325 0.0280
v  1.6369 3.4705 -0.0280
v  1.6369 3.4705 0.0280
v  1.6369 3.3532 -0.0280
v  1.5692 3.3532 -0.0280
v  1.6369 3.3532 0.0280
v  1.5692 3.3532 0.0280
v  1.5692 0.0000 -0.0280
v  1.6369 0.0000 -0.0280
v  1.6369 0.0000 0.0280
v  1.5692 0.0000 0.0280
v  1.5692 0.0816 0.0280
v  1.5692 0.0816 -0.0280
v  1.6369 0.0816 -0.0280
v  1.6369 0.0816 0.0280
v  1.5692 2.9854 -0.0280
v  1.5692 2.9854 0.0280
v  1.6369 2.9854 -0.0280
v  1.6369 2.9854 0.0280
v  0.0571 3.4325 -0.0280
v  0.0571 3.4325 0.0280
v  0.0010 3.4325 0.0280
v  0.0010 3.4325 -0.0280
v  1.5692 2.7205 -0.0280
v  1.5692 2.7205 0.0280
v  1.6369 2.7205 -0.0280
v  1.7572 2.9854 0.0280
v  1.7572 2.7205 0.0280
v  1.7572 2.7205 -0.0280
v  1.7572 2.9854 -0.0280
v  1.6369 2.7205 0.0280
v  1.5692 0.8511 -0.0280
v  1.5692 0.8511 0.0280
v  1.6369 0.8511 -0.0280
v  1.6369 0.8511 0.0280
v  1.5692 0.5849 -0.0280
v  1.5692 0.5849 0.0280
v  1.6369 0.5849 -0.0280
v  1.6369 0.5849 0.0280
v  1.7572 0.8511 0.0280
v  1.7572 0.5849 0.0280
v  1.7572 0.5849 -0.0280
v  1.7572 0.8511 -0.0280
v  1.0069 2.4475 -0.0144
v  1.0129 2.4475 0.0000
v  0.9925 2.4475 -0.0203
v  0.9782 2.4475 -0.0144
v  0.9722 2.4475 0.0000
v  0.9782 2.4475 0.0144
v  0.9925 2.4506 0.0203
v  1.0069 2.4506 0.0144
v  0.3928 0.8471 -0.0144
v  0.3988 0.8471 0.0000
v  0.3784 0.8471 -0.0203
v  0.3641 0.8471 -0.0144
v  0.3581 0.8486 0.0000
v  0.3641 0.8471 0.0144
v  0.3784 0.8484 0.0203
v  0.3928 0.8486 0.0144
# 689 vertices

vn 0.9986 0.0523 -0.0000
vn 0.7129 0.0374 -0.7003
vn 0.7006 0.0000 -0.7135
vn 1.0000 -0.0000 -0.0000
vn 0.0128 0.0007 -0.9999
vn -0.0128 0.0000 -0.9999
vn -0.7001 -0.0367 -0.7131
vn -0.7134 0.0000 -0.7008
vn -0.9986 -0.0523 -0.0000
vn -1.0000 0.0000 0.0000
vn -0.7001 -0.0367 0.7131
vn -0.7134 0.0000 0.7008
vn 0.0128 0.0007 0.9999
vn -0.0128 0.0000 0.9999
vn 0.7129 0.0374 0.7003
vn 0.7006 0.0000 0.7135
vn 0.7326 -0.6806 -0.0000
vn 0.5247 -0.6754 -0.5182
vn 0.7071 0.0011 -0.7071
vn 1.0000 0.0011 -0.0000
vn 0.0067 -0.6624 -0.7491
vn 0.0000 0.0011 -1.0000
vn -0.5346 -0.6488 -0.5415
vn -0.7071 0.0011 -0.7071
vn -0.7659 -0.6430 0.0000
vn -1.0000 0.0011 -0.0000
vn -0.5346 -0.6488 0.5415
vn -0.7071 0.0011 0.7071
vn 0.0067 -0.6624 0.7491
vn 0.0000 0.0011 1.0000
vn 0.5247 -0.6754 0.5182
vn 0.7071 0.0011 0.7071
vn 0.5291 0.6634 -0.5291
vn 0.7482 0.6634 0.0000
vn 0.0000 0.6634 -0.7483
vn -0.5291 0.6634 -0.5291
vn -0.7482 0.6634 -0.0000
vn -0.5291 0.6634 0.5291
vn 0.0000 0.6634 0.7483
vn 0.5291 0.6634 0.5291
vn 0.4670 -0.7508 -0.4671
vn 0.6605 -0.7508 0.0000
vn 0.0000 -0.7508 -0.6606
vn -0.4671 -0.7508 -0.4671
vn -0.6606 -0.7507 0.0000
vn -0.4670 -0.7508 0.4671
vn 0.0000 -0.7508 0.6606
vn 0.4671 -0.7508 0.4671
vn 0.5715 -0.5889 -0.5715
vn 0.8082 -0.5889 -0.0000
vn -0.0000 -0.5889 -0.8082
vn -0.5715 -0.5889 -0.5715
vn -0.8082 -0.5889 0.0000
vn -0.5715 -0.5889 0.5715
vn 0.0000 -0.5889 0.8082
vn 0.5715 -0.5889 0.5715
vn 0.6540 0.3803 -0.6540
vn 0.9249 0.3803 -0.0000
vn 0.0000 0.3803 -0.9249
vn -0.6540 0.3803 -0.6540
vn -0.9249 0.3803 0.0000
vn -0.6540 0.3803 0.6540
vn 0.0000 0.3803 0.9249
vn 0.6540 0.3803 0.6540
vn -0.0000 1.0000 -0.0000
vn 1.0000 0.0000 0.0000
vn 0.7071 -0.0000 -0.7071
vn 0.7603 0.0803 -0.6445
vn 0.9586 0.2805 0.0494
vn 0.0000 -0.0000 -1.0000
vn 0.0765 -0.2296 -0.9703
vn -0.7071 -0.0000 -0.7071
vn -0.6637 -0.3723 -0.6488
vn -1.0000 0.0000 -0.0000
vn -0.9632 -0.2590 0.0714
vn -0.7071 -0.0000 0.7071
vn -0.6404 0.0601 0.7657
vn 0.0000 0.0000 1.0000
vn 0.0454 0.2648 0.9632
vn 0.7071 -0.0000 0.7071
vn 0.6657 0.3163 0.6758
vn 0.7493 -0.6622 -0.0000
vn 0.5299 -0.6621 -0.5299
vn 0.0000 -0.6622 -0.7494
vn -0.5299 -0.6622 -0.5299
vn -0.7494 -0.6622 0.0000
vn -0.5299 -0.6622 0.5299
vn 0.0000 -0.6622 0.7494
vn 0.5299 -0.6621 0.5299
vn 0.5275 0.6677 -0.5253
vn 0.7420 0.6704 0.0000
vn 0.0014 0.6634 -0.7483
vn -0.5296 0.6622 -0.5302
vn -0.7490 0.6625 0.0000
vn -0.5296 0.6622 0.5302
vn 0.0014 0.6634 0.7483
vn 0.5275 0.6677 0.5253
vn 0.4538 -0.7536 -0.4756
vn 0.6572 -0.7537 -0.0000
vn -0.0223 -0.7506 -0.6604
vn -0.4836 -0.7442 -0.4608
vn -0.6719 -0.7406 -0.0000
vn -0.4836 -0.7442 0.4608
vn -0.0223 -0.7506 0.6604
vn 0.4538 -0.7536 0.4756
vn 0.4806 -0.6833 -0.5496
vn 0.6871 -0.7266 0.0000
vn -0.0690 -0.5767 -0.8140
vn -0.6537 -0.4772 -0.5873
vn -0.8981 -0.4398 0.0000
vn -0.6537 -0.4772 0.5873
vn -0.0690 -0.5767 0.8140
vn 0.4806 -0.6833 0.5496
vn 0.7054 0.2090 -0.6773
vn 0.9900 0.1410 -0.0000
vn 0.0405 0.3694 -0.9284
vn -0.5776 0.5242 -0.6258
vn -0.8114 0.5845 0.0000
vn -0.5776 0.5242 0.6258
vn 0.0405 0.3694 0.9284
vn 0.7054 0.2090 0.6773
vn 0.1756 0.9845 0.0000
vn 0.3947 -0.6790 -0.6190
vn 0.6421 -0.4298 -0.6348
vn 0.7533 -0.6554 0.0554
vn 0.4418 -0.8970 0.0161
vn -0.1434 -0.4268 -0.8929
vn 0.0262 0.2256 -0.9739
vn -0.6945 -0.3382 -0.6350
vn -0.5511 0.6342 -0.5422
vn -0.9333 -0.3512 -0.0744
vn -0.7661 0.6408 0.0506
vn -0.6724 -0.5074 0.5389
vn -0.6234 0.2794 0.7302
vn -0.0753 -0.7256 0.6840
vn -0.0384 -0.2218 0.9743
vn 0.2472 -0.8802 0.4051
vn 0.5115 -0.5801 0.6339
vn 0.0267 -0.9976 0.0645
vn 0.5547 0.8315 -0.0312
vn 0.4197 0.6380 -0.6455
vn 0.0045 1.0000 0.0048
vn -0.1246 0.3656 -0.9224
vn -0.6591 0.3382 -0.6718
vn -0.8831 0.4592 -0.0961
vn -0.6234 0.6109 0.4881
vn -0.0382 0.7817 0.6225
vn 0.3168 0.8578 0.4047
vn 0.9988 -0.0482 -0.0000
vn 0.7007 -0.0338 -0.7126
vn 0.7129 -0.0000 -0.7013
vn 1.0000 0.0000 -0.0000
vn -0.0118 0.0006 -0.9999
vn 0.0118 0.0000 -0.9999
vn -0.7125 0.0344 -0.7009
vn -0.7011 0.0000 -0.7130
vn -0.9988 0.0482 -0.0000
vn -1.0000 -0.0000 0.0000
vn -0.7125 0.0344 0.7009
vn -0.7011 0.0000 0.7130
vn -0.0118 0.0006 0.9999
vn 0.0118 0.0000 0.9999
vn 0.7007 -0.0338 0.7126
vn 0.7129 -0.0000 0.7013
vn 0.7646 -0.6445 -0.0000
vn 0.5343 -0.6499 -0.5406
vn -0.0062 -0.6624 -0.7492
vn -0.5251 -0.6744 -0.5191
vn -0.7339 -0.6792 0.0000
vn -0.5251 -0.6744 0.5191
vn -0.0062 -0.6624 0.7492
vn -0.0000 0.0011 1.0000
vn 0.5343 -0.6499 0.5406
vn 0.7483 0.6634 -0.0000
vn -0.7483 0.6634 0.0000
vn 0.4671 -0.7508 -0.4671
vn 0.6606 -0.7508 -0.0000
vn -0.6606 -0.7508 0.0000
vn -0.4671 -0.7508 0.4671
vn 0.8082 -0.5889 0.0000
vn -0.8082 -0.5889 -0.0000
vn -0.0000 -0.5889 0.8082
vn -0.9248 0.3803 -0.0000
vn -0.6539 0.3803 0.6540
vn -0.0000 0.3803 0.9249
vn -0.0000 1.0000 0.0000
vn 0.9531 0.3025 -0.0038
vn 0.7235 0.2251 -0.6526
vn 0.4647 0.6857 -0.5602
vn 0.6375 0.7701 0.0250
vn 0.0710 0.0582 -0.9958
vn -0.0371 0.7340 -0.6781
vn -0.6505 -0.2199 -0.7270
vn -0.6265 0.5192 -0.5813
vn -0.9532 -0.3024 -0.0047
vn -0.8315 0.5549 0.0238
vn -0.6498 -0.2157 0.7289
vn -0.5727 0.5484 0.6094
vn 0.0782 0.0624 0.9950
vn -0.0526 0.6111 0.7898
vn 0.7219 0.2312 0.6522
vn 0.4030 0.7047 0.5839
vn 0.7494 -0.6622 -0.0000
vn 0.5299 -0.6622 -0.5299
vn 0.5299 -0.6622 0.5299
vn 0.5135 0.6999 -0.4965
vn 0.7011 0.7131 -0.0000
vn 0.0185 0.6652 -0.7464
vn -0.5410 0.6265 -0.5610
vn -0.7928 0.6094 0.0000
vn -0.5410 0.6265 0.5610
vn 0.0185 0.6652 0.7464
vn 0.5135 0.6999 0.4965
vn 0.4981 -0.7101 -0.4977
vn 0.7230 -0.6909 0.0000
vn 0.0011 -0.7521 -0.6590
vn -0.4342 -0.7882 -0.4361
vn -0.5979 -0.8015 -0.0000
vn -0.4342 -0.7882 0.4361
vn 0.0011 -0.7521 0.6590
vn 0.4981 -0.7101 0.4977
vn 0.6537 -0.4772 -0.5873
vn 0.8981 -0.4398 -0.0000
vn 0.0690 -0.5767 -0.8140
vn -0.4806 -0.6833 -0.5496
vn -0.6871 -0.7266 0.0000
vn -0.4806 -0.6833 0.5496
vn 0.0690 -0.5767 0.8140
vn 0.6537 -0.4772 0.5873
vn 0.5776 0.5242 -0.6258
vn 0.8114 0.5845 -0.0000
vn -0.0405 0.3694 -0.9284
vn -0.7054 0.2090 -0.6773
vn -0.9900 0.1410 0.0000
vn -0.7054 0.2090 0.6773
vn -0.0405 0.3694 0.9284
vn 0.5776 0.5242 0.6258
vn -0.1756 0.9845 0.0000
vn 0.4490 -0.7973 -0.4033
vn 0.6776 -0.2463 -0.6929
vn 0.9786 -0.2032 -0.0323
vn 0.6937 -0.7003 0.1684
vn -0.0490 -0.7719 -0.6338
vn 0.0186 -0.1888 -0.9818
vn -0.5942 -0.6593 -0.4607
vn -0.6696 -0.0278 -0.7422
vn -0.9104 -0.4112 0.0464
vn -0.9810 0.1901 -0.0400
vn -0.6096 -0.4037 0.6822
vn -0.6836 0.2782 0.6748
vn 0.0155 -0.3989 0.9169
vn 0.0329 0.1413 0.9894
vn 0.4865 -0.5140 0.7065
vn 0.7346 -0.0635 0.6755
vn -0.0003 0.9984 0.0557
vn 0.0020 -0.9903 0.1388
vn 0.7071 0.0000 -0.7071
vn 0.7494 -0.6622 0.0000
vn 0.0000 0.0000 -1.0000
vn -0.0000 -0.6622 -0.7494
vn -0.7071 0.0000 -0.7071
vn -0.7070 0.0000 0.7072
vn 0.7071 0.0000 0.7071
vn 0.0000 0.6635 0.7482
vn -0.0000 -0.7508 0.6605
vn 0.4671 -0.7508 0.4670
vn -0.5298 -0.6622 -0.5299
vn -1.0000 0.0000 0.0001
vn -0.7494 -0.6621 -0.0000
vn 0.5122 0.6824 -0.5215
vn 0.7480 0.6637 -0.0074
vn -0.0000 0.6920 -0.7219
vn -0.5122 0.6824 -0.5215
vn -0.7480 0.6637 -0.0074
vn -0.5374 0.6539 0.5325
vn -0.0000 0.6532 0.7572
vn 0.5374 0.6539 0.5325
vn 0.4743 -0.7169 -0.5110
vn 0.6602 -0.7503 -0.0341
vn 0.0000 -0.6994 -0.7147
vn -0.4743 -0.7169 -0.5110
vn -0.6602 -0.7503 -0.0341
vn -0.4658 -0.7711 0.4341
vn 0.0000 -0.7759 0.6309
vn 0.4658 -0.7711 0.4341
vn 0.5975 -0.3672 -0.7129
vn 0.8285 -0.5452 -0.1276
vn 0.0000 -0.3092 -0.9510
vn -0.5975 -0.3672 -0.7129
vn -0.8285 -0.5452 -0.1276
vn -0.5223 -0.7539 0.3985
vn 0.0000 -0.8274 0.5616
vn 0.5223 -0.7539 0.3985
vn 0.4906 0.7955 -0.3556
vn 0.8089 0.5669 0.1558
vn 0.0000 0.8374 -0.5466
vn -0.4872 0.7908 -0.3705
vn -0.7903 0.5932 0.1538
vn -0.5761 0.3925 0.7169
vn 0.0129 0.3667 0.9302
vn 0.5960 0.3826 0.7060
vn 0.0164 0.9981 0.0602
vn -0.0000 0.6634 0.7483
vn 0.5298 -0.6622 -0.5299
vn -0.7071 0.0000 0.7071
vn -0.0000 0.0011 -1.0000
vn 0.0000 1.0000 0.0000
vn 1.0000 -0.0014 -0.0000
vn 0.7069 -0.0010 -0.7073
vn 0.5080 -0.6780 -0.5313
vn 0.7291 -0.6844 -0.0000
vn -0.0004 0.0000 -1.0000
vn -0.0256 -0.6609 -0.7501
vn -0.7073 0.0013 -0.7069
vn -0.5563 -0.6416 -0.5281
vn -1.0000 0.0019 -0.0000
vn -0.7742 -0.6330 0.0000
vn -0.7073 0.0013 0.7069
vn -0.5563 -0.6416 0.5281
vn -0.0004 0.0000 1.0000
vn -0.0256 -0.6609 0.7501
vn 0.7069 -0.0010 0.7073
vn 0.5080 -0.6780 0.5313
vn 0.7056 -0.0339 -0.7078
vn 0.9988 -0.0487 -0.0000
vn 0.0002 0.0011 -1.0000
vn -0.7054 0.0360 -0.7079
vn -0.9987 0.0509 -0.0000
vn -0.7054 0.0360 0.7079
vn 0.0002 0.0010 1.0000
vn 0.7056 -0.0339 0.7078
vn 0.5776 0.5524 -0.6010
vn 0.8691 0.4946 -0.0000
vn -0.0172 0.6722 -0.7402
vn -0.4638 0.7613 -0.4531
vn -0.6129 0.7902 -0.0000
vn -0.4638 0.7613 0.4531
vn -0.0172 0.6722 0.7402
vn 0.5776 0.5524 0.6010
vn 0.4036 -0.8289 -0.3874
vn 0.5251 -0.8511 -0.0000
vn 0.0248 -0.7592 -0.6504
vn -0.5116 -0.6634 -0.5461
vn -0.7874 -0.6164 -0.0000
vn -0.5116 -0.6634 0.5461
vn 0.0248 -0.7592 0.6504
vn 0.4036 -0.8289 0.3874
vn 0.6871 -0.7266 -0.0000
vn 0.9900 0.1410 0.0000
vn 0.1756 0.9845 -0.0000
vn -0.5774 -0.5774 0.5774
vn -0.5774 -0.5774 -0.5774
vn 0.0000 -0.7071 -0.7071
vn 0.0000 -0.7071 0.7071
vn -0.5774 0.5774 0.5774
vn 0.5774 0.5774 0.5774
vn 0.5774 0.5774 -0.5774
vn -0.5774 0.5774 -0.5774
vn 0.3015 0.3015 0.9045
vn 0.3015 0.3015 -0.9045
vn 0.3093 0.3020 0.9017
vn 0.3093 0.3020 -0.9017
vn 0.2940 -0.3009 0.9072
vn 0.2940 -0.3009 -0.9072
vn 0.3015 -0.3015 0.9045
vn 0.3015 -0.3015 -0.9045
vn -0.0275 -0.7029 -0.7108
vn -0.0275 -0.7029 0.7108
vn 0.0290 0.7103 -0.7033
vn 0.0290 0.7103 0.7033
vn -0.0484 -0.7024 -0.7102
vn -0.0484 -0.7024 0.7102
vn 0.0514 0.7085 -0.7038
vn 0.0514 0.7085 0.7038
vn -0.0731 -0.6982 -0.7121
vn -0.0731 -0.6982 0.7121
vn 0.0789 0.7080 -0.7018
vn 0.0789 0.7080 0.7018
vn -0.1075 -0.6924 -0.7135
vn -0.1075 -0.6924 0.7135
vn 0.1139 0.7036 -0.7014
vn 0.1139 0.7036 0.7014
vn -0.0464 0.0043 -0.9989
vn -0.0464 0.0043 0.9989
vn 0.6228 0.5164 -0.5878
vn 0.6228 0.5164 0.5878
vn -0.3015 -0.3015 -0.9045
vn -0.3015 -0.3015 0.9045
vn 0.5774 -0.5774 -0.5774
vn 0.5774 -0.5774 0.5774
vn -0.3015 0.3015 0.9045
vn -0.3015 0.3015 -0.9045
vn 0.7120 -0.2474 -0.6571
vn 0.9532 -0.3024 0.0061
vn 0.0764 -0.0582 -0.9954
vn -0.6425 0.2290 -0.7313
vn -0.9382 0.3461 0.0000
vn -0.6458 0.2343 0.7267
vn 0.0768 -0.0643 0.9950
vn 0.7069 -0.2498 0.6617
vn 0.7111 -0.0253 -0.7026
vn 0.9994 -0.0355 0.0004
vn 0.0087 -0.0006 -1.0000
vn -0.7022 0.0253 -0.7116
vn -0.9994 0.0355 -0.0000
vn -0.7023 0.0254 0.7115
vn 0.0086 -0.0007 1.0000
vn 0.7109 -0.0252 0.7029
# 408 vertex normals

vt 0.5069 0.3453 -0.2504
vt 0.5153 0.3453 -0.7496
vt 0.5153 0.5542 -0.7496
vt 0.5069 0.5542 -0.5000
vt 0.5231 0.3453 -0.7496
vt 0.5231 0.5542 -0.7496
vt 0.5304 0.3453 -0.7496
vt 0.5304 0.5542 -0.7496
vt 0.5367 0.3453 -0.7496
vt 0.5367 0.5542 -0.7496
vt 0.4754 0.3453 -0.7496
vt 0.4819 0.3453 -0.7496
vt 0.4819 0.5542 -0.7496
vt 0.4754 0.5542 -0.7496
vt 0.4898 0.3453 -0.7496
vt 0.4898 0.5542 -0.7496
vt 0.4982 0.3453 -0.7496
vt 0.4982 0.5542 -0.7496
vt 0.5069 0.7632 -0.7496
vt 0.5153 0.7632 -0.7496
vt 0.5176 0.7757 -0.7496
vt 0.5071 0.7757 -0.7496
vt 0.5231 0.7632 -0.7496
vt 0.5281 0.7757 -0.7496
vt 0.5304 0.7632 -0.7496
vt 0.5393 0.7757 -0.7496
vt 0.5367 0.7632 -0.7496
vt 0.5525 0.7757 -0.7496
vt 0.4754 0.7632 -0.7496
vt 0.4819 0.7632 -0.7496
vt 0.4755 0.7757 -0.7496
vt 0.4626 0.7757 -0.7496
vt 0.4898 0.7632 -0.7496
vt 0.4864 0.7757 -0.7496
vt 0.4982 0.7632 -0.7496
vt 0.4968 0.7757 -0.7496
vt 0.5181 0.7903 -0.7496
vt 0.5070 0.7903 -0.7496
vt 0.5285 0.7903 -0.7496
vt 0.5379 0.7903 -0.7496
vt 0.5451 0.7903 -0.7496
vt 0.4758 0.7903 -0.7496
vt 0.4686 0.7903 -0.7496
vt 0.4852 0.7903 -0.7496
vt 0.4958 0.7903 -0.7496
vt 0.5181 0.7940 -0.7496
vt 0.5070 0.7940 -0.7496
vt 0.5285 0.7940 -0.7496
vt 0.5379 0.7940 -0.7496
vt 0.5451 0.7940 -0.7496
vt 0.4758 0.7940 -0.7496
vt 0.4686 0.7940 -0.7496
vt 0.4852 0.7940 -0.7496
vt 0.4958 0.7940 -0.7496
vt 0.5190 0.8128 -0.7496
vt 0.5066 0.8128 -0.7496
vt 0.5308 0.8128 -0.7496
vt 0.5431 0.8128 -0.7496
vt 0.5575 0.8128 -0.7496
vt 0.4694 0.8128 -0.7496
vt 0.4546 0.8128 -0.7496
vt 0.4820 0.8128 -0.7496
vt 0.4941 0.8128 -0.7496
vt 0.5190 0.8204 -0.7496
vt 0.5066 0.8204 -0.7496
vt 0.5308 0.8204 -0.7496
vt 0.5431 0.8204 -0.7496
vt 0.5575 0.8204 -0.7496
vt 0.4694 0.8204 -0.7496
vt 0.4546 0.8204 -0.7496
vt 0.4820 0.8204 -0.7496
vt 0.4941 0.8204 -0.7496
vt 0.5056 0.8439 0.7496
vt 0.6439 0.3453 -0.2504
vt 0.6523 0.3453 -0.7496
vt 0.6523 0.4497 -0.7496
vt 0.6439 0.4497 -0.3752
vt 0.6601 0.3453 -0.7496
vt 0.6601 0.4497 -0.7496
vt 0.6674 0.3453 -0.7496
vt 0.6674 0.4497 -0.7496
vt 0.6737 0.3453 -0.7496
vt 0.6737 0.4497 -0.7496
vt 0.6124 0.3453 -0.7496
vt 0.6189 0.3453 -0.7496
vt 0.6189 0.4497 -0.7496
vt 0.6124 0.4497 -0.7496
vt 0.6268 0.3453 -0.7496
vt 0.6268 0.4497 -0.7496
vt 0.6352 0.3453 -0.7496
vt 0.6352 0.4497 -0.7496
vt 0.6439 0.7632 -0.7496
vt 0.6523 0.7632 -0.7496
vt 0.6545 0.7757 -0.7496
vt 0.6441 0.7757 -0.7496
vt 0.6601 0.7632 -0.7496
vt 0.6651 0.7757 -0.7496
vt 0.6674 0.7632 -0.7496
vt 0.6762 0.7757 -0.7496
vt 0.6737 0.7632 -0.7496
vt 0.6895 0.7757 -0.7496
vt 0.6124 0.7632 -0.7496
vt 0.6189 0.7632 -0.7496
vt 0.6124 0.7757 -0.7496
vt 0.5996 0.7757 -0.7496
vt 0.6268 0.7632 -0.7496
vt 0.6234 0.7757 -0.7496
vt 0.6352 0.7632 -0.7496
vt 0.6338 0.7757 -0.7496
vt 0.6551 0.7903 -0.7496
vt 0.6439 0.7903 -0.7496
vt 0.6655 0.7903 -0.7496
vt 0.6749 0.7903 -0.7496
vt 0.6821 0.7903 -0.7496
vt 0.6128 0.7903 -0.7496
vt 0.6056 0.7903 -0.7496
vt 0.6222 0.7903 -0.7496
vt 0.6328 0.7903 -0.7496
vt 0.6551 0.7940 -0.7496
vt 0.6439 0.7940 -0.7496
vt 0.6655 0.7940 -0.7496
vt 0.6749 0.7940 -0.7496
vt 0.6821 0.7940 -0.7496
vt 0.6128 0.7940 -0.7496
vt 0.6056 0.7940 -0.7496
vt 0.6222 0.7940 -0.7496
vt 0.6328 0.7940 -0.7496
vt 0.6559 0.8128 -0.7496
vt 0.6436 0.8128 -0.7496
vt 0.6678 0.8128 -0.7496
vt 0.6800 0.8128 -0.7496
vt 0.6945 0.8128 -0.7496
vt 0.6064 0.8128 -0.7496
vt 0.5916 0.8128 -0.7496
vt 0.6190 0.8128 -0.7496
vt 0.6311 0.8128 -0.7496
vt 0.6559 0.8204 -0.7496
vt 0.6436 0.8204 -0.7496
vt 0.6678 0.8204 -0.7496
vt 0.6800 0.8204 -0.7496
vt 0.6945 0.8204 -0.7496
vt 0.6064 0.8204 -0.7496
vt 0.5916 0.8204 -0.7496
vt 0.6190 0.8204 -0.7496
vt 0.6311 0.8204 -0.7496
vt 0.6426 0.8439 0.7496
vt 0.6523 0.6587 -0.7496
vt 0.6523 0.7109 -0.7496
vt 0.6439 0.7109 -0.6872
vt 0.6439 0.6587 -0.6248
vt 0.6601 0.6587 -0.7496
vt 0.6601 0.7109 -0.7496
vt 0.6674 0.6587 -0.7496
vt 0.6674 0.7109 -0.7496
vt 0.6737 0.6587 -0.7496
vt 0.6737 0.7109 -0.7496
vt 0.6189 0.6587 -0.7496
vt 0.6189 0.7109 -0.7496
vt 0.6124 0.7109 -0.7496
vt 0.6124 0.6587 -0.7496
vt 0.6268 0.6587 -0.7496
vt 0.6268 0.7109 -0.7496
vt 0.6352 0.6587 -0.7496
vt 0.6352 0.7109 -0.7496
vt 0.6992 0.5509 0.3335
vt 0.7210 0.5413 0.3335
vt 0.7218 0.5725 0.3335
vt 0.6905 0.5732 0.3335
vt 0.7001 0.5950 0.3335
vt 0.7218 0.6038 -0.3335
vt 0.7439 0.5947 0.3335
vt 0.7531 0.5721 0.3335
vt 0.7437 0.5502 0.3335
vt 0.7217 0.6682 0.4277
vt 0.6997 0.6591 0.4277
vt 0.7217 0.6369 0.4277
vt 0.6905 0.6368 0.4277
vt 0.6998 0.6148 0.4277
vt 0.7220 0.6056 -0.4277
vt 0.7435 0.6144 0.4277
vt 0.7529 0.6366 0.4277
vt 0.7440 0.6588 0.4277
vt 0.3658 0.3453 -0.2504
vt 0.3742 0.3453 -0.7496
vt 0.3742 0.5542 -0.7496
vt 0.3658 0.5542 -0.5000
vt 0.3820 0.3453 -0.7496
vt 0.3820 0.5542 -0.7496
vt 0.3893 0.3453 -0.7496
vt 0.3893 0.5542 -0.7496
vt 0.3956 0.3453 -0.7496
vt 0.3956 0.5542 -0.7496
vt 0.3343 0.3453 -0.7496
vt 0.3409 0.3453 -0.7496
vt 0.3409 0.5542 -0.7496
vt 0.3343 0.5542 -0.7496
vt 0.3487 0.3453 -0.7496
vt 0.3487 0.5542 -0.7496
vt 0.3571 0.3453 -0.7496
vt 0.3571 0.5542 -0.7496
vt 0.3658 0.7632 -0.7496
vt 0.3742 0.7632 -0.7496
vt 0.3765 0.7757 -0.7496
vt 0.3660 0.7757 -0.7496
vt 0.3820 0.7632 -0.7496
vt 0.3870 0.7757 -0.7496
vt 0.3893 0.7632 -0.7496
vt 0.3982 0.7757 -0.7496
vt 0.3956 0.7632 -0.7496
vt 0.4114 0.7757 -0.7496
vt 0.3343 0.7632 -0.7496
vt 0.3409 0.7632 -0.7496
vt 0.3344 0.7757 -0.7496
vt 0.3215 0.7757 -0.7496
vt 0.3487 0.7632 -0.7496
vt 0.3453 0.7757 -0.7496
vt 0.3571 0.7632 -0.7496
vt 0.3557 0.7757 -0.7496
vt 0.3770 0.7903 -0.7496
vt 0.3659 0.7903 -0.7496
vt 0.3875 0.7903 -0.7496
vt 0.3968 0.7903 -0.7496
vt 0.4040 0.7903 -0.7496
vt 0.3347 0.7903 -0.7496
vt 0.3275 0.7903 -0.7496
vt 0.3441 0.7903 -0.7496
vt 0.3547 0.7903 -0.7496
vt 0.3770 0.7940 -0.7496
vt 0.3659 0.7940 -0.7496
vt 0.3875 0.7940 -0.7496
vt 0.3968 0.7940 -0.7496
vt 0.4040 0.7940 -0.7496
vt 0.3347 0.7940 -0.7496
vt 0.3275 0.7940 -0.7496
vt 0.3441 0.7940 -0.7496
vt 0.3547 0.7940 -0.7496
vt 0.3779 0.8128 -0.7496
vt 0.3655 0.8128 -0.7496
vt 0.3897 0.8128 -0.7496
vt 0.4020 0.8128 -0.7496
vt 0.4164 0.8128 -0.7496
vt 0.3283 0.8128 -0.7496
vt 0.3136 0.8128 -0.7496
vt 0.3409 0.8128 -0.7496
vt 0.3530 0.8128 -0.7496
vt 0.3779 0.8204 -0.7496
vt 0.3655 0.8204 -0.7496
vt 0.3897 0.8204 -0.7496
vt 0.4020 0.8204 -0.7496
vt 0.4164 0.8204 -0.7496
vt 0.3283 0.8204 -0.7496
vt 0.3136 0.8204 -0.7496
vt 0.3409 0.8204 -0.7496
vt 0.3530 0.8204 -0.7496
vt 0.3646 0.8439 0.7496
vt 0.8528 0.3453 -0.2504
vt 0.8612 0.3453 -0.7496
vt 0.8612 0.5542 -0.7496
vt 0.8528 0.5542 -0.5000
vt 0.8690 0.3453 -0.7496
vt 0.8690 0.5542 -0.7496
vt 0.8763 0.3453 -0.7496
vt 0.8763 0.5542 -0.7496
vt 0.8826 0.3453 -0.7496
vt 0.8826 0.5542 -0.7496
vt 0.8213 0.3453 -0.7496
vt 0.8278 0.3453 -0.7496
vt 0.8278 0.5542 -0.7496
vt 0.8213 0.5542 -0.7496
vt 0.8357 0.3453 -0.7496
vt 0.8357 0.5542 -0.7496
vt 0.8441 0.3453 -0.7496
vt 0.8441 0.5542 -0.7496
vt 0.8528 0.7632 -0.7496
vt 0.8612 0.7632 -0.7496
vt 0.8634 0.7757 -0.7496
vt 0.8530 0.7757 -0.7496
vt 0.8690 0.7632 -0.7496
vt 0.8740 0.7757 -0.7496
vt 0.8763 0.7632 -0.7496
vt 0.8851 0.7757 -0.7496
vt 0.8826 0.7632 -0.7496
vt 0.8984 0.7757 -0.7496
vt 0.8213 0.7632 -0.7496
vt 0.8278 0.7632 -0.7496
vt 0.8213 0.7757 -0.7496
vt 0.8085 0.7757 -0.7496
vt 0.8357 0.7632 -0.7496
vt 0.8323 0.7757 -0.7496
vt 0.8441 0.7632 -0.7496
vt 0.8426 0.7757 -0.7496
vt 0.8639 0.7903 -0.7496
vt 0.8528 0.7903 -0.7496
vt 0.8744 0.7903 -0.7496
vt 0.8838 0.7903 -0.7496
vt 0.8909 0.7903 -0.7496
vt 0.8216 0.7903 -0.7496
vt 0.8145 0.7903 -0.7496
vt 0.8311 0.7903 -0.7496
vt 0.8417 0.7903 -0.7496
vt 0.8639 0.7940 -0.7496
vt 0.8528 0.7940 -0.7496
vt 0.8744 0.7940 -0.7496
vt 0.8838 0.7940 -0.7496
vt 0.8909 0.7940 -0.7496
vt 0.8216 0.7940 -0.7496
vt 0.8145 0.7940 -0.7496
vt 0.8311 0.7940 -0.7496
vt 0.8417 0.7940 -0.7496
vt 0.8648 0.8128 -0.7496
vt 0.8524 0.8128 -0.7496
vt 0.8766 0.8128 -0.7496
vt 0.8889 0.8128 -0.7496
vt 0.9034 0.8128 -0.7496
vt 0.8153 0.8128 -0.7496
vt 0.8005 0.8128 -0.7496
vt 0.8279 0.8128 -0.7496
vt 0.8400 0.8128 -0.7496
vt 0.8648 0.8204 -0.7496
vt 0.8524 0.8204 -0.7496
vt 0.8766 0.8204 -0.7496
vt 0.8889 0.8204 -0.7496
vt 0.9034 0.8204 -0.7496
vt 0.8153 0.8204 -0.7496
vt 0.8005 0.8204 -0.7496
vt 0.8279 0.8204 -0.7496
vt 0.8400 0.8204 -0.7496
vt 0.8515 0.8439 0.7496
vt 0.8612 0.6587 -0.7496
vt 0.8612 0.7109 -0.7496
vt 0.8528 0.7109 -0.6872
vt 0.8528 0.6587 -0.6248
vt 0.8690 0.6587 -0.7496
vt 0.8690 0.7109 -0.7496
vt 0.8763 0.6587 -0.7496
vt 0.8763 0.7109 -0.7496
vt 0.8826 0.6587 -0.7496
vt 0.8826 0.7109 -0.7496
vt 0.8278 0.6587 -0.7496
vt 0.8278 0.7109 -0.7496
vt 0.8213 0.7109 -0.7496
vt 0.8213 0.6587 -0.7496
vt 0.8357 0.6587 -0.7496
vt 0.8357 0.7109 -0.7496
vt 0.8441 0.6587 -0.7496
vt 0.8441 0.7109 -0.7496
vt 0.9432 0.6677 0.0096
vt 0.9212 0.6583 0.0096
vt 0.9434 0.6365 0.0096
vt 0.9122 0.6360 0.0096
vt 0.9218 0.6141 0.0096
vt 0.9441 0.6053 -0.0096
vt 0.9657 0.6146 0.0096
vt 0.9746 0.6368 0.0096
vt 0.9653 0.6588 0.0096
vt 0.9655 0.5945 0.0227
vt 0.9435 0.6035 0.0227
vt 0.9436 0.5723 0.0227
vt 0.9749 0.5726 0.0227
vt 0.9660 0.5505 0.0227
vt 0.9441 0.5408 -0.0227
vt 0.9214 0.5504 0.0227
vt 0.9122 0.5724 0.0227
vt 0.9213 0.5945 0.0227
vt 0.5836 0.0265 -0.2504
vt 0.5876 0.0265 -0.7496
vt 0.5876 0.2261 -0.7496
vt 0.5836 0.2261 -0.7496
vt 0.5913 0.0265 -0.7496
vt 0.5913 0.2261 -0.7496
vt 0.5948 0.0265 -0.7496
vt 0.5948 0.2261 -0.7496
vt 0.5978 0.0265 -0.7496
vt 0.5978 0.2261 -0.7496
vt 0.5685 0.0265 -0.7496
vt 0.5717 0.0265 -0.7496
vt 0.5717 0.2261 -0.7496
vt 0.5685 0.2261 -0.7496
vt 0.5754 0.0265 -0.7496
vt 0.5754 0.2261 -0.7496
vt 0.5794 0.0265 -0.7496
vt 0.5794 0.2261 -0.7496
vt 0.5887 0.2321 -0.7496
vt 0.5837 0.2321 -0.7496
vt 0.5937 0.2321 -0.7496
vt 0.5990 0.2321 -0.7496
vt 0.6054 0.2321 -0.7496
vt 0.5686 0.2321 -0.7496
vt 0.5624 0.2321 -0.7496
vt 0.5738 0.2321 -0.7496
vt 0.5788 0.2321 -0.7496
vt 0.5889 0.2391 -0.7496
vt 0.5836 0.2391 -0.7496
vt 0.5939 0.2391 -0.7496
vt 0.5984 0.2391 -0.7496
vt 0.6018 0.2391 -0.7496
vt 0.5687 0.2391 -0.7496
vt 0.5653 0.2391 -0.7496
vt 0.5732 0.2391 -0.7496
vt 0.5783 0.2391 -0.7496
vt 0.5889 0.2408 -0.7496
vt 0.5836 0.2408 -0.7496
vt 0.5939 0.2408 -0.7496
vt 0.5984 0.2408 -0.7496
vt 0.6018 0.2408 -0.7496
vt 0.5687 0.2408 -0.7496
vt 0.5653 0.2408 -0.7496
vt 0.5732 0.2408 -0.7496
vt 0.5783 0.2408 -0.7496
vt 0.5893 0.2498 -0.7496
vt 0.5834 0.2498 -0.7496
vt 0.5950 0.2498 -0.7496
vt 0.6009 0.2498 -0.7496
vt 0.6078 0.2498 -0.7496
vt 0.5657 0.2498 -0.7496
vt 0.5586 0.2498 -0.7496
vt 0.5717 0.2498 -0.7496
vt 0.5775 0.2498 -0.7496
vt 0.5893 0.2535 -0.7496
vt 0.5834 0.2535 -0.7496
vt 0.5950 0.2535 -0.7496
vt 0.6009 0.2535 -0.7496
vt 0.6078 0.2535 -0.7496
vt 0.5657 0.2535 -0.7496
vt 0.5586 0.2535 -0.7496
vt 0.5717 0.2535 -0.7496
vt 0.5775 0.2535 -0.7496
vt 0.5830 0.2647 0.7496
vt 0.4509 0.0265 -0.2504
vt 0.4549 0.0265 -0.7496
vt 0.4549 0.2261 -0.7496
vt 0.4509 0.2261 -0.7496
vt 0.4587 0.0265 -0.7496
vt 0.4587 0.2261 -0.7496
vt 0.4621 0.0265 -0.7496
vt 0.4621 0.2261 -0.7496
vt 0.4652 0.0265 -0.7496
vt 0.4652 0.2261 -0.7496
vt 0.4359 0.0265 -0.7496
vt 0.4390 0.0265 -0.7496
vt 0.4390 0.2261 -0.7496
vt 0.4359 0.2261 -0.7496
vt 0.4428 0.0265 -0.7496
vt 0.4428 0.2261 -0.7496
vt 0.4468 0.0265 -0.7496
vt 0.4468 0.2261 -0.7496
vt 0.4560 0.2321 -0.7496
vt 0.4510 0.2321 -0.7496
vt 0.4610 0.2321 -0.7496
vt 0.4664 0.2321 -0.7496
vt 0.4727 0.2321 -0.7496
vt 0.4359 0.2321 -0.7496
vt 0.4298 0.2321 -0.7496
vt 0.4411 0.2321 -0.7496
vt 0.4461 0.2321 -0.7496
vt 0.4563 0.2391 -0.7496
vt 0.4509 0.2391 -0.7496
vt 0.4613 0.2391 -0.7496
vt 0.4657 0.2391 -0.7496
vt 0.4692 0.2391 -0.7496
vt 0.4360 0.2391 -0.7496
vt 0.4326 0.2391 -0.7496
vt 0.4406 0.2391 -0.7496
vt 0.4456 0.2391 -0.7496
vt 0.4563 0.2408 -0.7496
vt 0.4509 0.2408 -0.7496
vt 0.4613 0.2408 -0.7496
vt 0.4657 0.2408 -0.7496
vt 0.4692 0.2408 -0.7496
vt 0.4360 0.2408 -0.7496
vt 0.4326 0.2408 -0.7496
vt 0.4406 0.2408 -0.7496
vt 0.4456 0.2408 -0.7496
vt 0.4567 0.2498 -0.7496
vt 0.4508 0.2498 -0.7496
vt 0.4623 0.2498 -0.7496
vt 0.4682 0.2498 -0.7496
vt 0.4751 0.2498 -0.7496
vt 0.4330 0.2498 -0.7496
vt 0.4260 0.2498 -0.7496
vt 0.4390 0.2498 -0.7496
vt 0.4448 0.2498 -0.7496
vt 0.4567 0.2535 -0.7496
vt 0.4508 0.2535 -0.7496
vt 0.4623 0.2535 -0.7496
vt 0.4682 0.2535 -0.7496
vt 0.4751 0.2535 -0.7496
vt 0.4330 0.2535 -0.7496
vt 0.4260 0.2535 -0.7496
vt 0.4390 0.2535 -0.7496
vt 0.4448 0.2535 -0.7496
vt 0.4750 0.2879 -0.3464
vt 0.4678 0.3050 0.3464
vt 0.4508 0.2879 -0.3464
vt 0.4507 0.3121 0.3464
vt 0.4336 0.3050 0.3464
vt 0.4266 0.2879 0.3464
vt 0.4337 0.2708 0.3464
vt 0.4508 0.2637 0.3464
vt 0.4679 0.2708 0.3464
vt 0.6892 0.0265 -0.2504
vt 0.6932 0.0265 -0.7496
vt 0.6932 0.2261 -0.7496
vt 0.6892 0.2261 -0.7496
vt 0.6969 0.0265 -0.7496
vt 0.6969 0.2261 -0.7496
vt 0.7004 0.0265 -0.7496
vt 0.7004 0.2261 -0.7496
vt 0.7034 0.0265 -0.7496
vt 0.7034 0.2261 -0.7496
vt 0.6741 0.0265 -0.7496
vt 0.6773 0.0265 -0.7496
vt 0.6773 0.2261 -0.7496
vt 0.6741 0.2261 -0.7496
vt 0.6810 0.0265 -0.7496
vt 0.6810 0.2261 -0.7496
vt 0.6850 0.0265 -0.7496
vt 0.6850 0.2261 -0.7496
vt 0.6943 0.2321 -0.7496
vt 0.6893 0.2321 -0.7496
vt 0.6993 0.2321 -0.7496
vt 0.7046 0.2321 -0.7496
vt 0.7110 0.2321 -0.7496
vt 0.6742 0.2321 -0.7496
vt 0.6680 0.2321 -0.7496
vt 0.6794 0.2321 -0.7496
vt 0.6844 0.2321 -0.7496
vt 0.6945 0.2391 -0.7496
vt 0.6892 0.2391 -0.7496
vt 0.6995 0.2391 -0.7496
vt 0.7040 0.2391 -0.7496
vt 0.7074 0.2391 -0.7496
vt 0.6743 0.2391 -0.7496
vt 0.6709 0.2391 -0.7496
vt 0.6788 0.2391 -0.7496
vt 0.6839 0.2391 -0.7496
vt 0.6945 0.2408 -0.7496
vt 0.6892 0.2408 -0.7496
vt 0.6995 0.2408 -0.7496
vt 0.7040 0.2408 -0.7496
vt 0.7074 0.2408 -0.7496
vt 0.6743 0.2408 -0.7496
vt 0.6709 0.2408 -0.7496
vt 0.6788 0.2408 -0.7496
vt 0.6839 0.2408 -0.7496
vt 0.6949 0.2498 -0.7496
vt 0.6890 0.2498 -0.7496
vt 0.7006 0.2498 -0.7496
vt 0.7065 0.2498 -0.7496
vt 0.7134 0.2498 -0.7496
vt 0.6713 0.2498 -0.7496
vt 0.6642 0.2498 -0.7496
vt 0.6773 0.2498 -0.7496
vt 0.6831 0.2498 -0.7496
vt 0.6949 0.2535 -0.7496
vt 0.6890 0.2535 -0.7496
vt 0.7006 0.2535 -0.7496
vt 0.7065 0.2535 -0.7496
vt 0.7134 0.2535 -0.7496
vt 0.6713 0.2535 -0.7496
vt 0.6642 0.2535 -0.7496
vt 0.6773 0.2535 -0.7496
vt 0.6831 0.2535 -0.7496
vt 0.6886 0.2647 0.7496
vt 0.7936 0.0265 -0.2504
vt 0.7976 0.0265 -0.7496
vt 0.7976 0.2261 -0.7496
vt 0.7936 0.2261 -0.7496
vt 0.8014 0.0265 -0.7496
vt 0.8014 0.2261 -0.7496
vt 0.8049 0.0265 -0.7496
vt 0.8049 0.2261 -0.7496
vt 0.8079 0.0265 -0.7496
vt 0.8079 0.2261 -0.7496
vt 0.7786 0.0265 -0.7496
vt 0.7817 0.0265 -0.7496
vt 0.7817 0.2261 -0.7496
vt 0.7786 0.2261 -0.7496
vt 0.7855 0.0265 -0.7496
vt 0.7855 0.2261 -0.7496
vt 0.7895 0.0265 -0.7496
vt 0.7895 0.2261 -0.7496
vt 0.7987 0.2321 -0.7496
vt 0.7937 0.2321 -0.7496
vt 0.8038 0.2321 -0.7496
vt 0.8091 0.2321 -0.7496
vt 0.8154 0.2321 -0.7496
vt 0.7786 0.2321 -0.7496
vt 0.7725 0.2321 -0.7496
vt 0.7838 0.2321 -0.7496
vt 0.7888 0.2321 -0.7496
vt 0.7990 0.2391 -0.7496
vt 0.7937 0.2391 -0.7496
vt 0.8040 0.2391 -0.7496
vt 0.8085 0.2391 -0.7496
vt 0.8119 0.2391 -0.7496
vt 0.7788 0.2391 -0.7496
vt 0.7753 0.2391 -0.7496
vt 0.7833 0.2391 -0.7496
vt 0.7883 0.2391 -0.7496
vt 0.7990 0.2408 -0.7496
vt 0.7937 0.2408 -0.7496
vt 0.8040 0.2408 -0.7496
vt 0.8085 0.2408 -0.7496
vt 0.8119 0.2408 -0.7496
vt 0.7788 0.2408 -0.7496
vt 0.7753 0.2408 -0.7496
vt 0.7833 0.2408 -0.7496
vt 0.7883 0.2408 -0.7496
vt 0.7994 0.2498 -0.7496
vt 0.7935 0.2498 -0.7496
vt 0.8050 0.2498 -0.7496
vt 0.8109 0.2498 -0.7496
vt 0.8178 0.2498 -0.7496
vt 0.7757 0.2498 -0.7496
vt 0.7687 0.2498 -0.7496
vt 0.7817 0.2498 -0.7496
vt 0.7875 0.2498 -0.7496
vt 0.7994 0.2535 -0.7496
vt 0.7935 0.2535 -0.7496
vt 0.8050 0.2535 -0.7496
vt 0.8109 0.2535 -0.7496
vt 0.8178 0.2535 -0.7496
vt 0.7757 0.2535 -0.7496
vt 0.7687 0.2535 -0.7496
vt 0.7817 0.2535 -0.7496
vt 0.7875 0.2535 -0.7496
vt 0.7930 0.2647 0.7496
vt 0.8967 0.0265 -0.2504
vt 0.9007 0.0265 -0.7496
vt 0.9007 0.2261 -0.7496
vt 0.8967 0.2261 -0.7496
vt 0.9044 0.0265 -0.7496
vt 0.9044 0.2261 -0.7496
vt 0.9079 0.0265 -0.7496
vt 0.9079 0.2261 -0.7496
vt 0.9109 0.0265 -0.7496
vt 0.9109 0.2261 -0.7496
vt 0.8816 0.0265 -0.7496
vt 0.8847 0.0265 -0.7496
vt 0.8847 0.2261 -0.7496
vt 0.8816 0.2261 -0.7496
vt 0.8885 0.0265 -0.7496
vt 0.8885 0.2261 -0.7496
vt 0.8925 0.0265 -0.7496
vt 0.8925 0.2261 -0.7496
vt 0.9018 0.2321 -0.7496
vt 0.8968 0.2321 -0.7496
vt 0.9068 0.2321 -0.7496
vt 0.9121 0.2321 -0.7496
vt 0.9185 0.2321 -0.7496
vt 0.8817 0.2321 -0.7496
vt 0.8755 0.2321 -0.7496
vt 0.8869 0.2321 -0.7496
vt 0.8918 0.2321 -0.7496
vt 0.9020 0.2391 -0.7496
vt 0.8967 0.2391 -0.7496
vt 0.9070 0.2391 -0.7496
vt 0.9115 0.2391 -0.7496
vt 0.9149 0.2391 -0.7496
vt 0.8818 0.2391 -0.7496
vt 0.8784 0.2391 -0.7496
vt 0.8863 0.2391 -0.7496
vt 0.8914 0.2391 -0.7496
vt 0.9020 0.2408 -0.7496
vt 0.8967 0.2408 -0.7496
vt 0.9070 0.2408 -0.7496
vt 0.9115 0.2408 -0.7496
vt 0.9149 0.2408 -0.7496
vt 0.8818 0.2408 -0.7496
vt 0.8784 0.2408 -0.7496
vt 0.8863 0.2408 -0.7496
vt 0.8914 0.2408 -0.7496
vt 0.9024 0.2498 -0.7496
vt 0.8965 0.2498 -0.7496
vt 0.9081 0.2498 -0.7496
vt 0.9139 0.2498 -0.7496
vt 0.9208 0.2498 -0.7496
vt 0.8788 0.2498 -0.7496
vt 0.8717 0.2498 -0.7496
vt 0.8848 0.2498 -0.7496
vt 0.8905 0.2498 -0.7496
vt 0.9024 0.2535 -0.7496
vt 0.8965 0.2535 -0.7496
vt 0.9081 0.2535 -0.7496
vt 0.9139 0.2535 -0.7496
vt 0.9208 0.2535 -0.7496
vt 0.8788 0.2535 -0.7496
vt 0.8717 0.2535 -0.7496
vt 0.8848 0.2535 -0.7496
vt 0.8905 0.2535 -0.7496
vt 0.8961 0.2647 0.7496
vt 0.7646 0.9574 -0.4777
vt 0.7646 0.9662 -0.3225
vt 0.7558 0.9662 -0.3225
vt 0.7558 0.9575 -0.3225
vt 0.9458 0.9567 -0.3225
vt 0.9546 0.9566 -0.3225
vt 0.9546 0.9654 -0.3225
vt 0.9459 0.9654 -0.3225
vt 0.0406 0.5157 -0.1383
vt 0.0506 0.5157 0.1196
vt 0.0506 0.5237 -0.1383
vt 0.0406 0.5237 0.1383
vt 0.2665 0.0201 -0.1383
vt 0.2765 0.0201 0.1197
vt 0.2765 0.0281 -0.1383
vt 0.2665 0.0281 0.1383
vt 0.7677 0.9574 -0.3225
vt 0.7678 0.9662 -0.3225
vt 0.0506 0.9251 -0.1383
vt 0.0506 0.9817 -0.1383
vt 0.0406 0.9817 -0.1383
vt 0.0406 0.9251 -0.1383
vt 0.9773 0.9653 -0.3225
vt 0.9772 0.9565 -0.3225
vt 0.2765 0.4273 -0.1383
vt 0.2765 0.4840 -0.1383
vt 0.2665 0.4840 -0.1383
vt 0.2665 0.4273 -0.1383
vt 0.9232 0.9568 -0.3225
vt 0.9232 0.9655 -0.3225
vt 0.0506 0.9167 -0.1383
vt 0.0406 0.9167 -0.1383
vt 0.2765 0.4189 -0.1383
vt 0.2665 0.4189 -0.1383
vt 0.9197 0.9568 -0.3225
vt 0.9197 0.9656 -0.3225
vt 0.0506 0.8192 -0.1383
vt 0.0406 0.8192 -0.1383
vt 0.9750 0.9338 -0.2575
vt 0.8482 0.9338 0.2575
vt 0.8482 0.9250 -0.2575
vt 0.9750 0.9250 -0.2575
vt 0.2765 0.3227 -0.1383
vt 0.2665 0.3227 -0.1383
vt 0.8943 0.9569 -0.3225
vt 0.8943 0.9657 -0.3225
vt 0.9423 0.8789 0.2889
vt 0.9423 0.8877 -0.2889
vt 0.8952 0.8877 -0.2889
vt 0.8952 0.8789 -0.2889
vt 0.2201 0.4207 -0.1383
vt 0.2227 0.4140 -0.1383
vt 0.1233 0.9651 -0.3225
vt 0.1233 0.9562 -0.3225
vt 0.1734 0.9565 -0.3225
vt 0.1734 0.9653 -0.3225
vt 0.0946 0.9105 -0.1383
vt 0.0973 0.9172 -0.1383
vt 0.8479 0.8877 -0.2889
vt 0.8479 0.8789 -0.2889
vt 0.1757 0.4083 -0.1383
vt 0.1807 0.4027 -0.1383
vt 0.2235 0.9568 -0.3225
vt 0.2235 0.9656 -0.3225
vt 0.1365 0.8983 -0.1383
vt 0.1415 0.9038 -0.1383
vt 0.7996 0.8877 -0.2889
vt 0.7996 0.8789 -0.2889
vt 0.1318 0.3918 -0.1383
vt 0.1375 0.3869 -0.1383
vt 0.2727 0.9570 -0.3225
vt 0.2727 0.9658 -0.3225
vt 0.1796 0.8817 -0.1383
vt 0.1854 0.8865 -0.1383
vt 0.7520 0.8877 -0.2889
vt 0.7520 0.8789 -0.2889
vt 0.0850 0.3685 -0.1383
vt 0.0936 0.3655 -0.1383
vt 0.3232 0.9572 -0.3225
vt 0.3232 0.9661 -0.3225
vt 0.2236 0.8597 -0.1383
vt 0.2321 0.8625 -0.1383
vt 0.7036 0.8877 -0.2889
vt 0.7036 0.8789 0.1838
vt 0.0399 0.3384 -0.1383
vt 0.0509 0.3351 -0.1383
vt 0.3737 0.9574 0.4777
vt 0.3737 0.9662 -0.3225
vt 0.2659 0.8324 -0.1383
vt 0.2769 0.8320 -0.1383
vt 0.0399 0.3227 -0.1383
vt 0.0509 0.3227 -0.1383
vt 0.3783 0.9575 -0.3225
vt 0.3783 0.9663 -0.3225
vt 0.2659 0.8192 -0.1383
vt 0.2769 0.8192 -0.1383
vt 0.5190 0.9665 -0.3225
vt 0.5083 0.9665 -0.3225
vt 0.5083 0.9577 -0.3225
vt 0.5190 0.9577 -0.3225
vt 0.2659 0.5157 -0.1383
vt 0.2659 0.5237 -0.1383
vt 0.0509 0.0281 -0.1383
vt 0.0509 0.0201 -0.1383
vt 0.0399 0.0281 -0.1383
vt 0.0399 0.0201 -0.1383
vt 0.5052 0.9577 -0.3225
vt 0.5052 0.9665 -0.3225
vt 0.2769 0.5157 -0.1383
vt 0.2769 0.5237 -0.1383
vt 0.2467 0.9251 -0.2575
vt 0.4840 0.9250 -0.2575
vt 0.4840 0.9338 -0.2575
vt 0.2467 0.9339 -0.2575
vt 0.6109 0.9338 0.2575
vt 0.5475 0.9338 0.0000
vt 0.5475 0.9250 -0.2575
vt 0.6109 0.9250 -0.2575
vt 0.0399 0.1754 -0.1383
vt 0.0509 0.1754 -0.1383
vt 0.4417 0.9576 -0.3225
vt 0.4417 0.9664 -0.3225
vt 0.2659 0.6715 -0.1383
vt 0.2769 0.6715 -0.1383
vt 0.4663 0.8878 -0.2889
vt 0.4663 0.8790 -0.2889
vt 0.0506 0.8324 -0.1383
vt 0.2665 0.3351 -0.1383
vt 0.0406 0.8324 -0.1383
vt 0.2765 0.3351 -0.1383
vt 0.8974 0.9569 -0.3225
vt 0.8974 0.9657 -0.3225
vt 0.9647 0.8877 -0.2889
vt 0.9647 0.8789 -0.2889
vt 0.5158 0.9338 -0.1287
vt 0.5158 0.9250 -0.2575
vt 0.0399 0.1018 -0.1383
vt 0.0509 0.1018 -0.1383
vt 0.1459 0.6311 0.1034
vt 0.1775 0.6311 0.1034
vt 0.1775 0.6582 -0.1034
vt 0.1459 0.6582 -0.1034
vt 0.2659 0.5976 -0.1383
vt 0.2769 0.5976 -0.1383
vt 0.5078 0.9338 -0.1609
vt 0.5078 0.9250 -0.2575
vt 0.0399 0.0834 -0.1383
vt 0.0509 0.0834 -0.1383
vt 0.2869 0.8815 0.1612
vt 0.4110 0.8794 -0.1612
vt 0.4112 0.8945 0.1612
vt 0.2871 0.8965 -0.1612
vt 0.2659 0.5791 -0.1383
vt 0.2769 0.5791 -0.1383
vt 0.4999 0.9338 -0.1931
vt 0.4999 0.9250 -0.2575
vt 0.0399 0.0649 -0.1383
vt 0.0509 0.0649 -0.1383
vt 0.4893 0.9577 -0.3225
vt 0.4893 0.9665 -0.3225
vt 0.2659 0.5607 -0.1383
vt 0.2769 0.5607 -0.1383
vt 0.1458 0.1417 0.3658
vt 0.1775 0.1417 -0.3658
vt 0.1775 0.1687 0.3658
vt 0.1458 0.1687 -0.3658
vt 0.1775 0.7164 0.1034
vt 0.1459 0.7164 0.1034
vt 0.0877 0.6582 0.1034
vt 0.0877 0.6311 0.1034
vt 0.1459 0.5730 0.1034
vt 0.1775 0.5730 0.1034
vt 0.2357 0.6311 0.1034
vt 0.2357 0.6582 0.1034
vt 0.2356 0.1417 0.3658
vt 0.2356 0.1687 0.3658
vt 0.1775 0.2268 0.3658
vt 0.1458 0.2268 0.3658
vt 0.0877 0.1687 0.3658
vt 0.0877 0.1417 0.3658
vt 0.1458 0.0836 0.3658
vt 0.1775 0.0836 0.3658
vt 0.6523 0.7370 -0.7496
vt 0.6439 0.7370 -0.7184
vt 0.6601 0.7370 -0.7496
vt 0.6674 0.7370 -0.7496
vt 0.6737 0.7370 -0.7496
vt 0.6189 0.7370 -0.7496
vt 0.6124 0.7370 -0.7496
vt 0.6268 0.7370 -0.7496
vt 0.6352 0.7370 -0.7496
vt 0.6523 0.5542 -0.7496
vt 0.6439 0.5542 -0.5000
vt 0.6601 0.5542 -0.7496
vt 0.6674 0.5542 -0.7496
vt 0.6737 0.5542 -0.7496
vt 0.6189 0.5542 -0.7496
vt 0.6124 0.5542 -0.7496
vt 0.6268 0.5542 -0.7496
vt 0.6352 0.5542 -0.7496
vt 0.8612 0.7370 -0.7496
vt 0.8528 0.7370 -0.7184
vt 0.8690 0.7370 -0.7496
vt 0.8763 0.7370 -0.7496
vt 0.8826 0.7370 -0.7496
vt 0.8278 0.7370 -0.7496
vt 0.8213 0.7370 -0.7496
vt 0.8357 0.7370 -0.7496
vt 0.8441 0.7370 -0.7496
# 901 texture coords

o Gate_Right
g Gate_Right
usemtl wire_214229166
s 8
f 1/1/1 2/2/2 3/3/3 4/4/4 
f 2/2/2 5/5/5 6/6/6 3/3/3 
f 5/5/5 7/7/7 8/8/8 6/6/6 
f 7/7/7 9/9/9 10/10/10 8/8/8 
f 9/11/9 11/12/11 12/13/12 10/14/10 
f 11/12/11 13/15/13 14/16/14 12/13/12 
f 13/15/13 15/17/15 16/18/16 14/16/14 
f 15/17/15 1/1/1 4/4/4 16/18/16 
s off
f 17/19/17 18/20/18 19/21/19 20/22/20 
f 18/20/18 21/23/21 22/24/22 19/21/19 
f 21/23/21 23/25/23 24/26/24 22/24/22 
f 23/25/23 25/27/25 26/28/26 24/26/24 
f 25/29/25 27/30/27 28/31/28 26/32/26 
f 27/30/27 29/33/29 30/34/30 28/31/28 
f 29/33/29 31/35/31 32/36/32 30/34/30 
f 31/35/31 17/19/17 20/22/20 32/36/32 
f 20/22/20 19/21/19 33/37/33 34/38/34 
f 19/21/19 22/24/22 35/39/35 33/37/33 
f 22/24/22 24/26/24 36/40/36 35/39/35 
f 24/26/24 26/28/26 37/41/37 36/40/36 
f 26/32/26 28/31/28 38/42/38 37/43/37 
f 28/31/28 30/34/30 39/44/39 38/42/38 
f 30/34/30 32/36/32 40/45/40 39/44/39 
f 32/36/32 20/22/20 34/38/34 40/45/40 
f 34/38/34 33/37/33 41/46/41 42/47/42 
f 33/37/33 35/39/35 43/48/43 41/46/41 
f 35/39/35 36/40/36 44/49/44 43/48/43 
f 36/40/36 37/41/37 45/50/45 44/49/44 
f 37/43/37 38/42/38 46/51/46 45/52/45 
f 38/42/38 39/44/39 47/53/47 46/51/46 
f 39/44/39 40/45/40 48/54/48 47/53/47 
f 40/45/40 34/38/34 42/47/42 48/54/48 
f 42/47/42 41/46/41 49/55/49 50/56/50 
f 41/46/41 43/48/43 51/57/51 49/55/49 
f 43/48/43 44/49/44 52/58/52 51/57/51 
f 44/49/44 45/50/45 53/59/53 52/58/52 
f 45/52/45 46/51/46 54/60/54 53/61/53 
f 46/51/46 47/53/47 55/62/55 54/60/54 
f 47/53/47 48/54/48 56/63/56 55/62/55 
f 48/54/48 42/47/42 50/56/50 56/63/56 
f 50/56/50 49/55/49 57/64/57 58/65/58 
f 49/55/49 51/57/51 59/66/59 57/64/57 
f 51/57/51 52/58/52 60/67/60 59/66/59 
f 52/58/52 53/59/53 61/68/61 60/67/60 
f 53/61/53 54/60/54 62/69/62 61/70/61 
f 54/60/54 55/62/55 63/71/63 62/69/62 
f 55/62/55 56/63/56 64/72/64 63/71/63 
f 56/63/56 50/56/50 58/65/58 64/72/64 
f 58/65/58 57/64/57 65/73/65 
f 57/64/57 59/66/59 65/73/65 
f 59/66/59 60/67/60 65/73/65 
f 60/67/60 61/68/61 65/73/65 
f 61/70/61 62/69/62 65/73/65 
f 62/69/62 63/71/63 65/73/65 
f 63/71/63 64/72/64 65/73/65 
f 64/72/64 58/65/58 65/73/65 
s 8
f 66/74/66 67/75/67 68/76/68 69/77/69 
f 67/75/67 70/78/70 71/79/71 68/76/68 
f 70/78/70 72/80/72 73/81/73 71/79/71 
f 72/80/72 74/82/74 75/83/75 73/81/73 
f 74/84/74 76/85/76 77/86/77 75/87/75 
f 76/85/76 78/88/78 79/89/79 77/86/77 
f 78/88/78 80/90/80 81/91/81 79/89/79 
f 80/90/80 66/74/66 69/77/69 81/91/81 
s off
f 82/92/82 83/93/83 84/94/19 85/95/20 
f 83/93/83 86/96/84 87/97/22 84/94/19 
f 86/96/84 88/98/85 89/99/24 87/97/22 
f 88/98/85 90/100/86 91/101/26 89/99/24 
f 90/102/86 92/103/87 93/104/28 91/105/26 
f 92/103/87 94/106/88 95/107/30 93/104/28 
f 94/106/88 96/108/89 97/109/32 95/107/30 
f 96/108/89 82/92/82 85/95/20 97/109/32 
f 85/95/20 84/94/19 98/110/90 99/111/91 
f 84/94/19 87/97/22 100/112/92 98/110/90 
f 87/97/22 89/99/24 101/113/93 100/112/92 
f 89/99/24 91/101/26 102/114/94 101/113/93 
f 91/105/26 93/104/28 103/115/95 102/116/94 
f 93/104/28 95/107/30 104/117/96 103/115/95 
f 95/107/30 97/109/32 105/118/97 104/117/96 
f 97/109/32 85/95/20 99/111/91 105/118/97 
f 99/111/91 98/110/90 106/119/98 107/120/99 
f 98/110/90 100/112/92 108/121/100 106/119/98 
f 100/112/92 101/113/93 109/122/101 108/121/100 
f 101/113/93 102/114/94 110/123/102 109/122/101 
f 102/116/94 103/115/95 111/124/103 110/125/102 
f 103/115/95 104/117/96 112/126/104 111/124/103 
f 104/117/96 105/118/97 113/127/105 112/126/104 
f 105/118/97 99/111/91 107/120/99 113/127/105 
f 107/120/99 106/119/98 114/128/106 115/129/107 
f 106/119/98 108/121/100 116/130/108 114/128/106 
f 108/121/100 109/122/101 117/131/109 116/130/108 
f 109/122/101 110/123/102 118/132/110 117/131/109 
f 110/125/102 111/124/103 119/133/111 118/134/110 
f 111/124/103 112/126/104 120/135/112 119/133/111 
f 112/126/104 113/127/105 121/136/113 120/135/112 
f 113/127/105 107/120/99 115/129/107 121/136/113 
f 115/129/107 114/128/106 122/137/114 123/138/115 
f 114/128/106 116/130/108 124/139/116 122/137/114 
f 116/130/108 117/131/109 125/140/117 124/139/116 
f 117/131/109 118/132/110 126/141/118 125/140/117 
f 118/134/110 119/133/111 127/142/119 126/143/118 
f 119/133/111 120/135/112 128/144/120 127/142/119 
f 120/135/112 121/136/113 129/145/121 128/144/120 
f 121/136/113 115/129/107 123/138/115 129/145/121 
f 123/138/115 122/137/114 130/146/122 
f 122/137/114 124/139/116 130/146/122 
f 124/139/116 125/140/117 130/146/122 
f 125/140/117 126/141/118 130/146/122 
f 126/143/118 127/142/119 130/146/122 
f 127/142/119 128/144/120 130/146/122 
f 128/144/120 129/145/121 130/146/122 
f 129/145/121 123/138/115 130/146/122 
s 8
f 131/147/123 132/148/124 133/149/125 134/150/126 
f 135/151/127 136/152/128 132/148/124 131/147/123 
f 137/153/129 138/154/130 136/152/128 135/151/127 
f 139/155/131 140/156/132 138/154/130 137/153/129 
f 141/157/133 142/158/134 140/159/132 139/160/131 
f 143/161/135 144/162/136 142/158/134 141/157/133 
f 145/163/137 146/164/138 144/162/136 143/161/135 
f 134/150/126 133/149/125 146/164/138 145/163/137 
s off
f 131/165/123 134/166/126 147/167/139 
f 135/168/127 131/165/123 147/167/139 
f 137/169/129 135/168/127 147/167/139 
f 139/170/131 137/169/129 147/167/139 
f 141/171/133 139/170/131 147/167/139 
f 143/172/135 141/171/133 147/167/139 
f 145/173/137 143/172/135 147/167/139 
f 134/166/126 145/173/137 147/167/139 
f 148/174/140 149/175/141 150/176/142 
f 149/175/141 151/177/143 150/176/142 
f 151/177/143 152/178/144 150/176/142 
f 152/178/144 153/179/145 150/176/142 
f 153/179/145 154/180/146 150/176/142 
f 154/180/146 155/181/147 150/176/142 
f 155/181/147 156/182/148 150/176/142 
f 156/182/148 148/174/140 150/176/142 
s 8
f 157/183/149 158/184/150 159/185/151 160/186/152 
f 158/184/150 161/187/153 162/188/154 159/185/151 
f 161/187/153 163/189/155 164/190/156 162/188/154 
f 163/189/155 165/191/157 166/192/158 164/190/156 
f 165/193/157 167/194/159 168/195/160 166/196/158 
f 167/194/159 169/197/161 170/198/162 168/195/160 
f 169/197/161 171/199/163 172/200/164 170/198/162 
f 171/199/163 157/183/149 160/186/152 172/200/164 
s off
f 173/201/165 174/202/166 175/203/19 176/204/20 
f 174/202/166 177/205/167 178/206/22 175/203/19 
f 177/205/167 179/207/168 180/208/24 178/206/22 
f 179/207/168 181/209/169 182/210/26 180/208/24 
f 181/211/169 183/212/170 184/213/28 182/214/26 
f 183/212/170 185/215/171 186/216/172 184/213/28 
f 185/215/171 187/217/173 188/218/32 186/216/172 
f 187/217/173 173/201/165 176/204/20 188/218/32 
f 176/204/20 175/203/19 189/219/33 190/220/174 
f 175/203/19 178/206/22 191/221/35 189/219/33 
f 178/206/22 180/208/24 192/222/36 191/221/35 
f 180/208/24 182/210/26 193/223/175 192/222/36 
f 182/214/26 184/213/28 194/224/38 193/225/175 
f 184/213/28 186/216/172 195/226/39 194/224/38 
f 186/216/172 188/218/32 196/227/40 195/226/39 
f 188/218/32 176/204/20 190/220/174 196/227/40 
f 190/220/174 189/219/33 197/228/176 198/229/177 
f 189/219/33 191/221/35 199/230/43 197/228/176 
f 191/221/35 192/222/36 200/231/44 199/230/43 
f 192/222/36 193/223/175 201/232/178 200/231/44 
f 193/225/175 194/224/38 202/233/179 201/234/178 
f 194/224/38 195/226/39 203/235/47 202/233/179 
f 195/226/39 196/227/40 204/236/48 203/235/47 
f 196/227/40 190/220/174 198/229/177 204/236/48 
f 198/229/177 197/228/176 205/237/49 206/238/180 
f 197/228/176 199/230/43 207/239/51 205/237/49 
f 199/230/43 200/231/44 208/240/52 207/239/51 
f 200/231/44 201/232/178 209/241/181 208/240/52 
f 201/234/178 202/233/179 210/242/54 209/243/181 
f 202/233/179 203/235/47 211/244/182 210/242/54 
f 203/235/47 204/236/48 212/245/56 211/244/182 
f 204/236/48 198/229/177 206/238/180 212/245/56 
f 206/238/180 205/237/49 213/246/57 214/247/58 
f 205/237/49 207/239/51 215/248/59 213/246/57 
f 207/239/51 208/240/52 216/249/60 215/248/59 
f 208/240/52 209/241/181 217/250/183 216/249/60 
f 209/243/181 210/242/54 218/251/184 217/252/183 
f 210/242/54 211/244/182 219/253/185 218/251/184 
f 211/244/182 212/245/56 220/254/64 219/253/185 
f 212/245/56 206/238/180 214/247/58 220/254/64 
f 214/247/58 213/246/57 221/255/186 
f 213/246/57 215/248/59 221/255/186 
f 215/248/59 216/249/60 221/255/186 
f 216/249/60 217/250/183 221/255/186 
f 217/252/183 218/251/184 221/255/186 
f 218/251/184 219/253/185 221/255/186 
f 219/253/185 220/254/64 221/255/186 
f 220/254/64 214/247/58 221/255/186 
s 8
f 222/256/187 223/257/188 224/258/189 225/259/190 
f 223/257/188 226/260/191 227/261/192 224/258/189 
f 226/260/191 228/262/193 229/263/194 227/261/192 
f 228/262/193 230/264/195 231/265/196 229/263/194 
f 230/266/195 232/267/197 233/268/198 231/269/196 
f 232/267/197 234/270/199 235/271/200 233/268/198 
f 234/270/199 236/272/201 237/273/202 235/271/200 
f 236/272/201 222/256/187 225/259/190 237/273/202 
s off
f 238/274/203 239/275/204 240/276/19 241/277/20 
f 239/275/204 242/278/84 243/279/22 240/276/19 
f 242/278/84 244/280/85 245/281/24 243/279/22 
f 244/280/85 246/282/86 247/283/26 245/281/24 
f 246/284/86 248/285/87 249/286/28 247/287/26 
f 248/285/87 250/288/88 251/289/172 249/286/28 
f 250/288/88 252/290/205 253/291/32 251/289/172 
f 252/290/205 238/274/203 241/277/20 253/291/32 
f 241/277/20 240/276/19 254/292/206 255/293/207 
f 240/276/19 243/279/22 256/294/208 254/292/206 
f 243/279/22 245/281/24 257/295/209 256/294/208 
f 245/281/24 247/283/26 258/296/210 257/295/209 
f 247/287/26 249/286/28 259/297/211 258/298/210 
f 249/286/28 251/289/172 260/299/212 259/297/211 
f 251/289/172 253/291/32 261/300/213 260/299/212 
f 253/291/32 241/277/20 255/293/207 261/300/213 
f 255/293/207 254/292/206 262/301/214 263/302/215 
f 254/292/206 256/294/208 264/303/216 262/301/214 
f 256/294/208 257/295/209 265/304/217 264/303/216 
f 257/295/209 258/296/210 266/305/218 265/304/217 
f 258/298/210 259/297/211 267/306/219 266/307/218 
f 259/297/211 260/299/212 268/308/220 267/306/219 
f 260/299/212 261/300/213 269/309/221 268/308/220 
f 261/300/213 255/293/207 263/302/215 269/309/221 
f 263/302/215 262/301/214 270/310/222 271/311/223 
f 262/301/214 264/303/216 272/312/224 270/310/222 
f 264/303/216 265/304/217 273/313/225 272/312/224 
f 265/304/217 266/305/218 274/314/226 273/313/225 
f 266/307/218 267/306/219 275/315/227 274/316/226 
f 267/306/219 268/308/220 276/317/228 275/315/227 
f 268/308/220 269/309/221 277/318/229 276/317/228 
f 269/309/221 263/302/215 271/311/223 277/318/229 
f 271/311/223 270/310/222 278/319/230 279/320/231 
f 270/310/222 272/312/224 280/321/232 278/319/230 
f 272/312/224 273/313/225 281/322/233 280/321/232 
f 273/313/225 274/314/226 282/323/234 281/322/233 
f 274/316/226 275/315/227 283/324/235 282/325/234 
f 275/315/227 276/317/228 284/326/236 283/324/235 
f 276/317/228 277/318/229 285/327/237 284/326/236 
f 277/318/229 271/311/223 279/320/231 285/327/237 
f 279/320/231 278/319/230 286/328/238 
f 278/319/230 280/321/232 286/328/238 
f 280/321/232 281/322/233 286/328/238 
f 281/322/233 282/323/234 286/328/238 
f 282/325/234 283/324/235 286/328/238 
f 283/324/235 284/326/236 286/328/238 
f 284/326/236 285/327/237 286/328/238 
f 285/327/237 279/320/231 286/328/238 
s 8
f 287/329/239 288/330/240 289/331/241 290/332/242 
f 291/333/243 292/334/244 288/330/240 287/329/239 
f 293/335/245 294/336/246 292/334/244 291/333/243 
f 295/337/247 296/338/248 294/336/246 293/335/245 
f 297/339/249 298/340/250 296/341/248 295/342/247 
f 299/343/251 300/344/252 298/340/250 297/339/249 
f 301/345/253 302/346/254 300/344/252 299/343/251 
f 290/332/242 289/331/241 302/346/254 301/345/253 
s off
f 225/347/190 224/348/189 303/349/255 
f 224/348/189 227/350/192 303/349/255 
f 227/350/192 229/351/194 303/349/255 
f 229/351/194 231/352/196 303/349/255 
f 231/352/196 233/353/198 303/349/255 
f 233/353/198 235/354/200 303/349/255 
f 235/354/200 237/355/202 303/349/255 
f 237/355/202 225/347/190 303/349/255 
f 287/356/239 290/357/242 304/358/256 
f 291/359/243 287/356/239 304/358/256 
f 293/360/245 291/359/243 304/358/256 
f 295/361/247 293/360/245 304/358/256 
f 297/362/249 295/361/247 304/358/256 
f 299/363/251 297/362/249 304/358/256 
f 301/364/253 299/363/251 304/358/256 
f 290/357/242 301/364/253 304/358/256 
s 8
f 305/365/152 306/366/257 307/367/204 308/368/258 
f 306/366/257 309/369/259 310/370/260 307/367/204 
f 309/369/259 311/371/261 312/372/85 310/370/260 
f 311/371/261 313/373/74 314/374/86 312/372/85 
f 313/375/74 315/376/262 316/377/87 314/378/86 
f 315/376/262 317/379/78 318/380/88 316/377/87 
f 317/379/78 319/381/263 320/382/205 318/380/88 
f 319/381/263 305/365/152 308/368/258 320/382/205 
s off
f 308/368/258 307/367/204 321/383/19 322/384/20 
f 307/367/204 310/370/260 323/385/22 321/383/19 
f 310/370/260 312/372/85 324/386/24 323/385/22 
f 312/372/85 314/374/86 325/387/26 324/386/24 
f 314/378/86 316/377/87 326/388/28 325/389/26 
f 316/377/87 318/380/88 327/390/172 326/388/28 
f 318/380/88 320/382/205 328/391/32 327/390/172 
f 320/382/205 308/368/258 322/384/20 328/391/32 
f 322/384/20 321/383/19 329/392/33 330/393/174 
f 321/383/19 323/385/22 331/394/35 329/392/33 
f 323/385/22 324/386/24 332/395/36 331/394/35 
f 324/386/24 325/387/26 333/396/175 332/395/36 
f 325/389/26 326/388/28 334/397/38 333/398/175 
f 326/388/28 327/390/172 335/399/264 334/397/38 
f 327/390/172 328/391/32 336/400/40 335/399/264 
f 328/391/32 322/384/20 330/393/174 336/400/40 
f 330/393/174 329/392/33 337/401/176 338/402/177 
f 329/392/33 331/394/35 339/403/43 337/401/176 
f 331/394/35 332/395/36 340/404/44 339/403/43 
f 332/395/36 333/396/175 341/405/178 340/404/44 
f 333/398/175 334/397/38 342/406/179 341/407/178 
f 334/397/38 335/399/264 343/408/265 342/406/179 
f 335/399/264 336/400/40 344/409/266 343/408/265 
f 336/400/40 330/393/174 338/402/177 344/409/266 
f 338/402/177 337/401/176 345/410/49 346/411/50 
f 337/401/176 339/403/43 347/412/51 345/410/49 
f 339/403/43 340/404/44 348/413/52 347/412/51 
f 340/404/44 341/405/178 349/414/53 348/413/52 
f 341/407/178 342/406/179 350/415/54 349/416/53 
f 342/406/179 343/408/265 351/417/182 350/415/54 
f 343/408/265 344/409/266 352/418/56 351/417/182 
f 344/409/266 338/402/177 346/411/50 352/418/56 
f 346/411/50 345/410/49 353/419/57 354/420/58 
f 345/410/49 347/412/51 355/421/59 353/419/57 
f 347/412/51 348/413/52 356/422/60 355/421/59 
f 348/413/52 349/414/53 357/423/61 356/422/60 
f 349/416/53 350/415/54 358/424/62 357/425/61 
f 350/415/54 351/417/182 359/426/185 358/424/62 
f 351/417/182 352/418/56 360/427/64 359/426/185 
f 352/418/56 346/411/50 354/420/58 360/427/64 
f 354/420/58 353/419/57 361/428/186 
f 353/419/57 355/421/59 361/428/186 
f 355/421/59 356/422/60 361/428/186 
f 356/422/60 357/423/61 361/428/186 
f 357/425/61 358/424/62 361/428/186 
f 358/424/62 359/426/185 361/428/186 
f 359/426/185 360/427/64 361/428/186 
f 360/427/64 354/420/58 361/428/186 
s 8
f 362/429/152 363/430/257 364/431/204 365/432/203 
f 363/430/257 366/433/259 367/434/260 364/431/204 
f 366/433/259 368/435/261 369/436/267 367/434/260 
f 368/435/261 370/437/268 371/438/269 369/436/267 
f 370/439/268 372/440/262 373/441/87 371/442/269 
f 372/440/262 374/443/78 375/444/88 373/441/87 
f 374/443/78 376/445/263 377/446/205 375/444/88 
f 376/445/263 362/429/152 365/432/203 377/446/205 
s off
f 365/432/203 364/431/204 378/447/19 379/448/20 
f 364/431/204 367/434/260 380/449/22 378/447/19 
f 367/434/260 369/436/267 381/450/24 380/449/22 
f 369/436/267 371/438/269 382/451/26 381/450/24 
f 371/442/269 373/441/87 383/452/28 382/453/26 
f 373/441/87 375/444/88 384/454/30 383/452/28 
f 375/444/88 377/446/205 385/455/32 384/454/30 
f 377/446/205 365/432/203 379/448/20 385/455/32 
f 379/448/20 378/447/19 386/456/270 387/457/271 
f 378/447/19 380/449/22 388/458/272 386/456/270 
f 380/449/22 381/450/24 389/459/273 388/458/272 
f 381/450/24 382/451/26 390/460/274 389/459/273 
f 382/453/26 383/452/28 391/461/275 390/462/274 
f 383/452/28 384/454/30 392/463/276 391/461/275 
f 384/454/30 385/455/32 393/464/277 392/463/276 
f 385/455/32 379/448/20 387/457/271 393/464/277 
f 387/457/271 386/456/270 394/465/278 395/466/279 
f 386/456/270 388/458/272 396/467/280 394/465/278 
f 388/458/272 389/459/273 397/468/281 396/467/280 
f 389/459/273 390/460/274 398/469/282 397/468/281 
f 390/462/274 391/461/275 399/470/283 398/471/282 
f 391/461/275 392/463/276 400/472/284 399/470/283 
f 392/463/276 393/464/277 401/473/285 400/472/284 
f 393/464/277 387/457/271 395/466/279 401/473/285 
f 395/466/279 394/465/278 402/474/286 403/475/287 
f 394/465/278 396/467/280 404/476/288 402/474/286 
f 396/467/280 397/468/281 405/477/289 404/476/288 
f 397/468/281 398/469/282 406/478/290 405/477/289 
f 398/471/282 399/470/283 407/479/291 406/480/290 
f 399/470/283 400/472/284 408/481/292 407/479/291 
f 400/472/284 401/473/285 409/482/293 408/481/292 
f 401/473/285 395/466/279 403/475/287 409/482/293 
f 403/475/287 402/474/286 410/483/294 411/484/295 
f 402/474/286 404/476/288 412/485/296 410/483/294 
f 404/476/288 405/477/289 413/486/297 412/485/296 
f 405/477/289 406/478/290 414/487/298 413/486/297 
f 406/480/290 407/479/291 415/488/299 414/489/298 
f 407/479/291 408/481/292 416/490/300 415/488/299 
f 408/481/292 409/482/293 417/491/301 416/490/300 
f 409/482/293 403/475/287 411/484/295 417/491/301 
f 411/492/295 410/493/294 418/494/302 
f 410/493/294 412/495/296 418/494/302 
f 412/495/296 413/496/297 418/494/302 
f 413/496/297 414/497/298 418/494/302 
f 414/497/298 415/498/299 418/494/302 
f 415/498/299 416/499/300 418/494/302 
f 416/499/300 417/500/301 418/494/302 
f 417/500/301 411/492/295 418/494/302 
s 8
f 419/501/152 420/502/257 421/503/204 422/504/203 
f 420/502/257 423/505/259 424/506/260 421/503/204 
f 423/505/259 425/507/261 426/508/267 424/506/260 
f 425/507/261 427/509/268 428/510/269 426/508/267 
f 427/511/268 429/512/262 430/513/87 428/514/269 
f 429/512/262 431/515/78 432/516/88 430/513/87 
f 431/515/78 433/517/263 434/518/205 432/516/88 
f 433/517/263 419/501/152 422/504/203 434/518/205 
s off
f 422/504/203 421/503/204 435/519/19 436/520/20 
f 421/503/204 424/506/260 437/521/22 435/519/19 
f 424/506/260 426/508/267 438/522/24 437/521/22 
f 426/508/267 428/510/269 439/523/26 438/522/24 
f 428/514/269 430/513/87 440/524/28 439/525/26 
f 430/513/87 432/516/88 441/526/30 440/524/28 
f 432/516/88 434/518/205 442/527/32 441/526/30 
f 434/518/205 422/504/203 436/520/20 442/527/32 
f 436/520/20 435/519/19 443/528/33 444/529/174 
f 435/519/19 437/521/22 445/530/35 443/528/33 
f 437/521/22 438/522/24 446/531/36 445/530/35 
f 438/522/24 439/523/26 447/532/175 446/531/36 
f 439/525/26 440/524/28 448/533/38 447/534/175 
f 440/524/28 441/526/30 449/535/303 448/533/38 
f 441/526/30 442/527/32 450/536/40 449/535/303 
f 442/527/32 436/520/20 444/529/174 450/536/40 
f 444/529/174 443/528/33 451/537/176 452/538/177 
f 443/528/33 445/530/35 453/539/43 451/537/176 
f 445/530/35 446/531/36 454/540/44 453/539/43 
f 446/531/36 447/532/175 455/541/178 454/540/44 
f 447/534/175 448/533/38 456/542/179 455/543/178 
f 448/533/38 449/535/303 457/544/47 456/542/179 
f 449/535/303 450/536/40 458/545/48 457/544/47 
f 450/536/40 444/529/174 452/538/177 458/545/48 
f 452/538/177 451/537/176 459/546/49 460/547/180 
f 451/537/176 453/539/43 461/548/51 459/546/49 
f 453/539/43 454/540/44 462/549/52 461/548/51 
f 454/540/44 455/541/178 463/550/181 462/549/52 
f 455/543/178 456/542/179 464/551/54 463/552/181 
f 456/542/179 457/544/47 465/553/182 464/551/54 
f 457/544/47 458/545/48 466/554/56 465/553/182 
f 458/545/48 452/538/177 460/547/180 466/554/56 
f 460/547/180 459/546/49 467/555/57 468/556/58 
f 459/546/49 461/548/51 469/557/59 467/555/57 
f 461/548/51 462/549/52 470/558/60 469/557/59 
f 462/549/52 463/550/181 471/559/183 470/558/60 
f 463/552/181 464/551/54 472/560/184 471/561/183 
f 464/551/54 465/553/182 473/562/185 472/560/184 
f 465/553/182 466/554/56 474/563/64 473/562/185 
f 466/554/56 460/547/180 468/556/58 474/563/64 
f 468/556/58 467/555/57 475/564/186 
f 467/555/57 469/557/59 475/564/186 
f 469/557/59 470/558/60 475/564/186 
f 470/558/60 471/559/183 475/564/186 
f 471/561/183 472/560/184 475/564/186 
f 472/560/184 473/562/185 475/564/186 
f 473/562/185 474/563/64 475/564/186 
f 474/563/64 468/556/58 475/564/186 
s 8
f 476/565/66 477/566/257 478/567/304 479/568/82 
f 477/566/257 480/569/259 481/570/84 478/567/304 
f 480/569/259 482/571/261 483/572/85 481/570/84 
f 482/571/261 484/573/74 485/574/86 483/572/85 
f 484/575/74 486/576/305 487/577/87 485/578/86 
f 486/576/305 488/579/78 489/580/88 487/577/87 
f 488/579/78 490/581/263 491/582/89 489/580/88 
f 490/581/263 476/565/66 479/568/82 491/582/89 
s off
f 479/568/82 478/567/304 492/583/19 493/584/20 
f 478/567/304 481/570/84 494/585/306 492/583/19 
f 481/570/84 483/572/85 495/586/24 494/585/306 
f 483/572/85 485/574/86 496/587/26 495/586/24 
f 485/578/86 487/577/87 497/588/28 496/589/26 
f 487/577/87 489/580/88 498/590/30 497/588/28 
f 489/580/88 491/582/89 499/591/32 498/590/30 
f 491/582/89 479/568/82 493/584/20 499/591/32 
f 493/584/20 492/583/19 500/592/33 501/593/34 
f 492/583/19 494/585/306 502/594/35 500/592/33 
f 494/585/306 495/586/24 503/595/36 502/594/35 
f 495/586/24 496/587/26 504/596/37 503/595/36 
f 496/589/26 497/588/28 505/597/38 504/598/37 
f 497/588/28 498/590/30 506/599/303 505/597/38 
f 498/590/30 499/591/32 507/600/40 506/599/303 
f 499/591/32 493/584/20 501/593/34 507/600/40 
f 501/593/34 500/592/33 508/601/41 509/602/42 
f 500/592/33 502/594/35 510/603/43 508/601/41 
f 502/594/35 503/595/36 511/604/44 510/603/43 
f 503/595/36 504/596/37 512/605/45 511/604/44 
f 504/598/37 505/597/38 513/606/46 512/607/45 
f 505/597/38 506/599/303 514/608/47 513/606/46 
f 506/599/303 507/600/40 515/609/48 514/608/47 
f 507/600/40 501/593/34 509/602/42 515/609/48 
f 509/602/42 508/601/41 516/610/49 517/611/50 
f 508/601/41 510/603/43 518/612/51 516/610/49 
f 510/603/43 511/604/44 519/613/52 518/612/51 
f 511/604/44 512/605/45 520/614/53 519/613/52 
f 512/607/45 513/606/46 521/615/54 520/616/53 
f 513/606/46 514/608/47 522/617/182 521/615/54 
f 514/608/47 515/609/48 523/618/56 522/617/182 
f 515/609/48 509/602/42 517/611/50 523/618/56 
f 517/611/50 516/610/49 524/619/57 525/620/58 
f 516/610/49 518/612/51 526/621/59 524/619/57 
f 518/612/51 519/613/52 527/622/60 526/621/59 
f 519/613/52 520/614/53 528/623/61 527/622/60 
f 520/616/53 521/615/54 529/624/62 528/625/61 
f 521/615/54 522/617/182 530/626/63 529/624/62 
f 522/617/182 523/618/56 531/627/64 530/626/63 
f 523/618/56 517/611/50 525/620/58 531/627/64 
f 525/620/58 524/619/57 532/628/307 
f 524/619/57 526/621/59 532/628/307 
f 526/621/59 527/622/60 532/628/307 
f 527/622/60 528/623/61 532/628/307 
f 528/625/61 529/624/62 532/628/307 
f 529/624/62 530/626/63 532/628/307 
f 530/626/63 531/627/64 532/628/307 
f 531/627/64 525/620/58 532/628/307 
s 8
f 533/629/308 534/630/309 535/631/310 536/632/311 
f 534/630/309 537/633/312 538/634/313 535/631/310 
f 537/633/312 539/635/314 540/636/315 538/634/313 
f 539/635/314 541/637/316 542/638/317 540/636/315 
f 541/639/316 543/640/318 544/641/319 542/642/317 
f 543/640/318 545/643/320 546/644/321 544/641/319 
f 545/643/320 547/645/322 548/646/323 546/644/321 
f 547/645/322 533/629/308 536/632/311 548/646/323 
s off
f 536/632/311 535/631/310 549/647/324 550/648/325 
f 535/631/310 538/634/313 551/649/326 549/647/324 
f 538/634/313 540/636/315 552/650/327 551/649/326 
f 540/636/315 542/638/317 553/651/328 552/650/327 
f 542/642/317 544/641/319 554/652/329 553/653/328 
f 544/641/319 546/644/321 555/654/330 554/652/329 
f 546/644/321 548/646/323 556/655/331 555/654/330 
f 548/646/323 536/632/311 550/648/325 556/655/331 
f 550/648/325 549/647/324 557/656/332 558/657/333 
f 549/647/324 551/649/326 559/658/334 557/656/332 
f 551/649/326 552/650/327 560/659/335 559/658/334 
f 552/650/327 553/651/328 561/660/336 560/659/335 
f 553/653/328 554/652/329 562/661/337 561/662/336 
f 554/652/329 555/654/330 563/663/338 562/661/337 
f 555/654/330 556/655/331 564/664/339 563/663/338 
f 556/655/331 550/648/325 558/657/333 564/664/339 
f 558/657/333 557/656/332 565/665/340 566/666/341 
f 557/656/332 559/658/334 567/667/342 565/665/340 
f 559/658/334 560/659/335 568/668/343 567/667/342 
f 560/659/335 561/660/336 569/669/344 568/668/343 
f 561/662/336 562/661/337 570/670/345 569/671/344 
f 562/661/337 563/663/338 571/672/346 570/670/345 
f 563/663/338 564/664/339 572/673/347 571/672/346 
f 564/664/339 558/657/333 566/666/341 572/673/347 
f 566/666/341 565/665/340 573/674/106 574/675/348 
f 565/665/340 567/667/342 575/676/108 573/674/106 
f 567/667/342 568/668/343 576/677/109 575/676/108 
f 568/668/343 569/669/344 577/678/110 576/677/109 
f 569/671/344 570/670/345 578/679/111 577/680/110 
f 570/670/345 571/672/346 579/681/112 578/679/111 
f 571/672/346 572/673/347 580/682/113 579/681/112 
f 572/673/347 566/666/341 574/675/348 580/682/113 
f 574/675/348 573/674/106 581/683/114 582/684/349 
f 573/674/106 575/676/108 583/685/116 581/683/114 
f 575/676/108 576/677/109 584/686/117 583/685/116 
f 576/677/109 577/678/110 585/687/118 584/686/117 
f 577/680/110 578/679/111 586/688/119 585/689/118 
f 578/679/111 579/681/112 587/690/120 586/688/119 
f 579/681/112 580/682/113 588/691/121 587/690/120 
f 580/682/113 574/675/348 582/684/349 588/691/121 
f 582/684/349 581/683/114 589/692/350 
f 581/683/114 583/685/116 589/692/350 
f 583/685/116 584/686/117 589/692/350 
f 584/686/117 585/687/118 589/692/350 
f 585/689/118 586/688/119 589/692/350 
f 586/688/119 587/690/120 589/692/350 
f 587/690/120 588/691/121 589/692/350 
f 588/691/121 582/684/349 589/692/350 
s 1
f 590/693/351 591/694/352 592/695/353 593/696/354 
f 594/697/355 595/698/356 596/699/357 597/700/358 
s 2
f 590/701/351 593/702/354 598/703/359 599/704/305 
f 592/705/353 591/706/352 600/707/261 601/708/360 
s 4
f 591/694/352 590/693/351 599/709/305 600/710/261 
s 2
f 602/711/361 595/712/356 594/713/355 603/714/305 
s 4
f 604/715/362 596/699/357 595/698/356 602/716/361 
s 2
f 605/717/261 597/718/358 596/719/357 604/720/362 
s 4
f 603/721/305 594/697/355 597/700/358 605/722/261 
s 2
f 606/723/363 602/711/361 603/714/305 607/724/305 
f 608/725/261 605/717/261 604/720/362 609/726/364 
s 4
f 607/727/305 603/721/305 605/722/261 608/728/261 
s 2
f 598/703/359 610/729/365 611/730/305 599/704/305 
s 4
f 601/731/360 612/732/366 610/733/365 598/734/359 
s 2
f 600/707/261 613/735/261 612/736/366 601/708/360 
s 4
f 599/709/305 611/737/305 613/738/261 600/710/261 
s off
f 606/739/363 609/740/364 614/741/367 615/742/368 
f 609/726/364 604/720/362 616/743/369 614/744/367 
f 604/745/362 602/746/361 617/747/370 616/748/369 
f 602/711/361 606/723/363 615/749/368 617/750/370 
f 615/742/368 614/741/367 618/751/371 619/752/372 
f 614/744/367 616/743/369 620/753/373 618/754/371 
f 616/748/369 617/747/370 621/755/374 620/756/373 
f 617/750/370 615/749/368 619/757/372 621/758/374 
f 619/752/372 618/751/371 622/759/375 623/760/376 
f 618/754/371 620/753/373 624/761/377 622/762/375 
f 620/756/373 621/755/374 625/763/378 624/764/377 
f 621/758/374 619/757/372 623/765/376 625/766/378 
f 623/760/376 622/759/375 626/767/379 627/768/380 
f 622/762/375 624/761/377 628/769/381 626/770/379 
f 624/764/377 625/763/378 629/771/382 628/772/381 
f 625/766/378 623/765/376 627/773/380 629/774/382 
f 627/768/380 626/767/379 630/775/383 631/776/384 
f 626/770/379 628/769/381 632/777/385 630/778/383 
f 628/772/381 629/771/382 633/779/386 632/780/385 
f 629/774/382 627/773/380 631/781/384 633/782/386 
f 630/778/383 632/777/385 634/783/257 635/784/387 
f 632/780/385 633/779/386 636/785/263 634/786/257 
f 633/782/386 631/781/384 637/787/388 636/788/263 
f 638/789/353 639/790/389 640/791/390 641/792/354 
s 2
f 593/696/354 592/695/353 638/789/353 641/792/354 
s 1
f 598/703/359 593/702/354 641/793/354 642/794/391 
f 592/705/353 601/708/360 643/795/392 638/796/353 
s off
f 644/797/67 639/798/389 638/796/353 643/795/392 
f 645/799/80 640/791/390 639/790/389 644/800/67 
f 642/794/391 641/793/354 640/801/390 645/802/80 
f 598/803/359 642/804/391 643/805/392 601/806/360 
f 635/807/387 646/808/261 647/809/305 637/810/388 
f 634/783/257 648/811/360 646/812/261 635/784/387 
f 636/785/263 649/813/359 648/814/360 634/786/257 
f 637/787/388 647/815/305 649/816/359 636/788/263 
f 631/776/384 630/775/383 650/817/360 651/818/359 
f 637/787/388 631/781/384 651/819/359 610/729/365 
f 630/778/383 635/784/387 612/736/366 650/820/360 
f 635/807/387 637/810/388 610/733/365 612/732/366 
s 2
f 610/729/365 651/819/359 652/821/305 611/730/305 
f 613/735/261 653/822/261 650/820/360 612/736/366 
s 4
f 611/737/305 652/823/305 653/824/261 613/738/261 
s 2
f 651/819/359 606/723/363 607/724/305 652/821/305 
s 4
f 650/825/360 609/740/364 606/739/363 651/826/359 
s 2
f 653/822/261 608/725/261 609/726/364 650/820/360 
s 4
f 652/823/305 607/727/305 608/728/261 653/824/261 
s off
f 646/808/261 654/827/261 655/828/305 647/809/305 
f 648/811/360 656/829/366 654/830/261 646/812/261 
f 657/831/356 658/832/390 659/833/389 660/834/357 
f 647/815/305 655/835/305 661/836/365 649/816/359 
f 654/827/261 662/837/261 663/838/305 655/828/305 
f 656/829/366 664/839/360 662/840/261 654/830/261 
f 661/841/365 665/842/359 664/843/360 656/844/366 
f 655/835/305 663/845/305 665/846/359 661/836/365 
f 666/847/261 643/805/392 642/804/391 667/848/305 
f 668/849/366 644/797/67 643/795/392 666/850/261 
f 669/851/365 645/799/80 644/800/67 668/852/366 
f 667/853/305 642/794/391 645/802/80 669/854/365 
f 662/837/261 666/847/261 667/848/305 663/838/305 
f 664/839/360 668/849/366 666/850/261 662/840/261 
f 670/855/356 671/856/390 672/857/389 673/858/357 
f 663/845/305 667/853/305 669/854/365 665/846/359 
f 656/859/366 648/860/360 660/834/357 659/833/389 
f 648/861/360 649/862/359 657/831/356 660/834/357 
f 649/863/359 661/864/365 658/832/390 657/831/356 
f 661/865/365 656/866/366 659/833/389 658/832/390 
f 669/867/365 668/868/366 672/857/389 671/856/390 
f 668/869/366 664/870/360 673/858/357 672/857/389 
f 664/871/360 665/872/359 670/855/356 673/858/357 
f 665/873/359 669/874/365 671/856/390 670/855/356 
s 8
f 132/148/124 674/875/393 675/876/394 133/149/125 
f 136/152/128 676/877/395 674/875/393 132/148/124 
f 138/154/130 677/878/396 676/877/395 136/152/128 
f 140/156/132 678/879/397 677/878/396 138/154/130 
f 142/158/134 679/880/398 678/881/397 140/159/132 
f 144/162/136 680/882/399 679/880/398 142/158/134 
f 146/164/138 681/883/400 680/882/399 144/162/136 
f 133/149/125 675/876/394 681/883/400 146/164/138 
f 68/76/68 149/884/141 148/885/140 69/77/69 
f 71/79/71 151/886/143 149/884/141 68/76/68 
f 73/81/73 152/887/144 151/886/143 71/79/71 
f 75/83/75 153/888/145 152/887/144 73/81/73 
f 77/86/77 154/889/146 153/890/145 75/87/75 
f 79/89/79 155/891/147 154/889/146 77/86/77 
f 81/91/81 156/892/148 155/891/147 79/89/79 
f 69/77/69 148/885/140 156/892/148 81/91/81 
f 674/875/393 83/93/83 82/92/82 675/876/394 
f 676/877/395 86/96/84 83/93/83 674/875/393 
f 677/878/396 88/98/85 86/96/84 676/877/395 
f 678/879/397 90/100/86 88/98/85 677/878/396 
f 679/880/398 92/103/87 90/102/86 678/881/397 
f 680/882/399 94/106/88 92/103/87 679/880/398 
f 681/883/400 96/108/89 94/106/88 680/882/399 
f 675/876/394 82/92/82 96/108/89 681/883/400 
f 159/185/151 174/202/166 173/201/165 160/186/152 
f 162/188/154 177/205/167 174/202/166 159/185/151 
f 164/190/156 179/207/168 177/205/167 162/188/154 
f 166/192/158 181/209/169 179/207/168 164/190/156 
f 168/195/160 183/212/170 181/211/169 166/196/158 
f 170/198/162 185/215/171 183/212/170 168/195/160 
f 172/200/164 187/217/173 185/215/171 170/198/162 
f 160/186/152 173/201/165 187/217/173 172/200/164 
f 3/3/3 18/20/18 17/19/17 4/4/4 
f 6/6/6 21/23/21 18/20/18 3/3/3 
f 8/8/8 23/25/23 21/23/21 6/6/6 
f 10/10/10 25/27/25 23/25/23 8/8/8 
f 12/13/12 27/30/27 25/29/25 10/14/10 
f 14/16/14 29/33/29 27/30/27 12/13/12 
f 16/18/16 31/35/31 29/33/29 14/16/14 
f 4/4/4 17/19/17 31/35/31 16/18/16 
f 288/330/240 682/893/401 683/894/402 289/331/241 
f 292/334/244 684/895/403 682/893/401 288/330/240 
f 294/336/246 685/896/404 684/895/403 292/334/244 
f 296/338/248 686/897/405 685/896/404 294/336/246 
f 298/340/250 687/898/406 686/899/405 296/341/248 
f 300/344/252 688/900/407 687/898/406 298/340/250 
f 302/346/254 689/901/408 688/900/407 300/344/252 
f 289/331/241 683/894/402 689/901/408 302/346/254 
f 682/893/401 239/275/204 238/274/203 683/894/402 
f 684/895/403 242/278/84 239/275/204 682/893/401 
f 685/896/404 244/280/85 242/278/84 684/895/403 
f 686/897/405 246/282/86 244/280/85 685/896/404 
f 687/898/406 248/285/87 246/284/86 686/899/405 
f 688/900/407 250/288/88 248/285/87 687/898/406 
f 689/901/408 252/290/205 250/288/88 688/900/407 
f 683/894/402 238/274/203 252/290/205 689/901/408 
# 590 polygons - 104 triangles

