# 3ds Max Wavefront OBJ Exporter v0.97b - (c)2007 guruware
# File Created: 21.03.2020 20:39:57

mtllib GateLeft_low.mtl

#
# object Gate_Left
#

v  -1.0134 0.0763 -0.0000
v  -1.0409 2.0091 -0.0000
v  -1.0350 2.0091 -0.0144
v  -1.0075 0.0763 -0.0144
v  -1.0206 2.0091 -0.0203
v  -0.9931 0.0763 -0.0203
v  -1.0062 2.0091 -0.0144
v  -0.9787 0.0763 -0.0144
v  -1.0003 2.0091 -0.0000
v  -0.9728 0.0763 -0.0000
v  -1.0062 2.0091 0.0144
v  -0.9787 0.0763 0.0144
v  -1.0206 2.0091 0.0203
v  -0.9931 0.0763 0.0203
v  -1.0350 2.0091 0.0144
v  -1.0075 0.0763 0.0144
v  -1.0134 3.9419 -0.0000
v  -1.0495 3.9910 -0.0000
v  -1.0330 3.9910 -0.0399
v  -1.0075 3.9419 -0.0144
v  -0.9931 3.9910 -0.0564
v  -0.9931 3.9419 -0.0203
v  -0.9533 3.9910 -0.0399
v  -0.9787 3.9419 -0.0144
v  -0.9367 3.9910 -0.0000
v  -0.9728 3.9419 -0.0000
v  -0.9533 3.9910 0.0399
v  -0.9787 3.9419 0.0144
v  -0.9931 3.9910 0.0564
v  -0.9931 3.9419 0.0203
v  -1.0330 3.9910 0.0399
v  -1.0075 3.9419 0.0144
v  -1.0133 4.0398 -0.0000
v  -1.0074 4.0398 -0.0143
v  -0.9931 4.0398 -0.0202
v  -0.9788 4.0398 -0.0143
v  -0.9729 4.0398 -0.0000
v  -0.9788 4.0398 0.0143
v  -0.9931 4.0398 0.0202
v  -1.0074 4.0398 0.0143
v  -1.0133 4.0780 -0.0000
v  -1.0074 4.0780 -0.0143
v  -0.9931 4.0780 -0.0202
v  -0.9788 4.0780 -0.0143
v  -0.9729 4.0780 -0.0000
v  -0.9788 4.0780 0.0143
v  -0.9931 4.0780 0.0202
v  -1.0074 4.0780 0.0143
v  -1.0670 4.1066 -0.0000
v  -1.0453 4.1066 -0.0522
v  -0.9931 4.1066 -0.0739
v  -0.9409 4.1066 -0.0522
v  -0.9192 4.1066 -0.0000
v  -0.9409 4.1066 0.0522
v  -0.9931 4.1066 0.0739
v  -1.0453 4.1066 0.0522
v  -1.0670 4.1467 -0.0000
v  -1.0453 4.1467 -0.0522
v  -0.9931 4.1467 -0.0739
v  -0.9409 4.1467 -0.0522
v  -0.9192 4.1467 -0.0000
v  -0.9409 4.1467 0.0522
v  -0.9931 4.1467 0.0739
v  -1.0453 4.1467 0.0522
v  -0.9931 4.4071 -0.0000
v  -0.7052 0.0763 -0.0000
v  -0.6927 0.2249 0.0082
v  -0.6877 0.2216 -0.0075
v  -0.6993 0.0763 -0.0144
v  -0.6734 0.2289 -0.0128
v  -0.6849 0.0763 -0.0203
v  -0.6590 0.2211 -0.0092
v  -0.6705 0.0763 -0.0144
v  -0.6521 0.2243 0.0059
v  -0.6645 0.0763 -0.0000
v  -0.6573 0.2213 0.0203
v  -0.6705 0.0763 0.0144
v  -0.6715 0.2156 0.0259
v  -0.6849 0.0763 0.0203
v  -0.6860 0.2218 0.0219
v  -0.6993 0.0763 0.0144
v  -0.6999 4.0449 -0.0000
v  -0.7359 4.0939 -0.0000
v  -0.7194 4.0939 -0.0399
v  -0.6939 4.0449 -0.0144
v  -0.6795 4.0939 -0.0564
v  -0.6795 4.0449 -0.0203
v  -0.6397 4.0939 -0.0399
v  -0.6652 4.0449 -0.0144
v  -0.6232 4.0939 -0.0000
v  -0.6592 4.0449 -0.0000
v  -0.6397 4.0939 0.0399
v  -0.6652 4.0449 0.0144
v  -0.6795 4.0939 0.0564
v  -0.6795 4.0449 0.0203
v  -0.7194 4.0939 0.0399
v  -0.6939 4.0449 0.0144
v  -0.6997 4.1428 -0.0000
v  -0.6938 4.1428 -0.0143
v  -0.6795 4.1428 -0.0202
v  -0.6653 4.1428 -0.0143
v  -0.6593 4.1428 -0.0000
v  -0.6653 4.1428 0.0143
v  -0.6795 4.1428 0.0202
v  -0.6938 4.1428 0.0143
v  -0.6994 4.1794 -0.0000
v  -0.6935 4.1799 -0.0143
v  -0.6793 4.1811 -0.0202
v  -0.6651 4.1824 -0.0143
v  -0.6592 4.1829 -0.0000
v  -0.6651 4.1824 0.0143
v  -0.6793 4.1811 0.0202
v  -0.6935 4.1799 0.0143
v  -0.7554 4.2032 -0.0000
v  -0.7338 4.2051 -0.0522
v  -0.6818 4.2097 -0.0739
v  -0.6298 4.2142 -0.0522
v  -0.6082 4.2161 -0.0000
v  -0.6298 4.2142 0.0522
v  -0.6818 4.2097 0.0739
v  -0.7338 4.2051 0.0522
v  -0.7589 4.2431 -0.0000
v  -0.7373 4.2450 -0.0522
v  -0.6853 4.2495 -0.0739
v  -0.6332 4.2541 -0.0522
v  -0.6117 4.2560 -0.0000
v  -0.6332 4.2541 0.0522
v  -0.6853 4.2495 0.0739
v  -0.7373 4.2450 0.0522
v  -0.7080 4.5090 -0.0000
v  -0.6857 0.4077 -0.0143
v  -0.6919 0.4080 -0.0001
v  -0.7099 0.4680 -0.0000
v  -0.7039 0.4685 -0.0144
v  -0.6714 0.4097 -0.0201
v  -0.6897 0.4698 -0.0203
v  -0.6574 0.4130 -0.0140
v  -0.6754 0.4710 -0.0144
v  -0.6530 0.4212 -0.0003
v  -0.6700 0.4759 -0.0000
v  -0.6582 0.4157 0.0146
v  -0.6754 0.4710 0.0144
v  -0.6734 0.4186 0.0199
v  -0.6901 0.4735 0.0203
v  -0.6875 0.4162 0.0137
v  -0.7045 0.4729 0.0144
v  -0.6726 0.2181 0.0056
v  -0.6709 0.4061 0.0007
v  -0.2231 0.0763 -0.0000
v  -0.2225 1.2450 -0.0000
v  -0.2166 1.2444 -0.0144
v  -0.2172 0.0763 -0.0144
v  -0.2022 1.2432 -0.0203
v  -0.2028 0.0763 -0.0203
v  -0.1879 1.2419 -0.0144
v  -0.1884 0.0763 -0.0144
v  -0.1820 1.2414 -0.0000
v  -0.1824 0.0763 -0.0000
v  -0.1879 1.2419 0.0144
v  -0.1884 0.0763 0.0144
v  -0.2022 1.2432 0.0203
v  -0.2028 0.0763 0.0203
v  -0.2166 1.2444 0.0144
v  -0.2172 0.0763 0.0144
v  -0.2541 1.2969 -0.0000
v  -0.2377 1.2955 -0.0399
v  -0.1980 1.2920 -0.0564
v  -0.1583 1.2886 -0.0399
v  -0.1418 1.2871 -0.0000
v  -0.1583 1.2886 0.0399
v  -0.1980 1.2920 0.0564
v  -0.2377 1.2955 0.0399
v  -0.2138 1.3424 -0.0000
v  -0.2079 1.3419 -0.0143
v  -0.1937 1.3407 -0.0202
v  -0.1795 1.3394 -0.0143
v  -0.1736 1.3389 -0.0000
v  -0.1795 1.3394 0.0143
v  -0.1937 1.3407 0.0202
v  -0.2079 1.3419 0.0143
v  -0.2105 1.3805 -0.0000
v  -0.2046 1.3800 -0.0143
v  -0.1904 1.3787 -0.0202
v  -0.1762 1.3775 -0.0143
v  -0.1703 1.3770 -0.0000
v  -0.1762 1.3775 0.0143
v  -0.1904 1.3787 0.0202
v  -0.2046 1.3800 0.0143
v  -0.2615 1.4137 -0.0000
v  -0.2399 1.4118 -0.0522
v  -0.1879 1.4073 -0.0739
v  -0.1358 1.4027 -0.0522
v  -0.1143 1.4008 -0.0000
v  -0.1358 1.4027 0.0522
v  -0.1879 1.4073 0.0739
v  -0.2399 1.4118 0.0522
v  -0.2580 1.4536 -0.0000
v  -0.2364 1.4517 -0.0522
v  -0.1844 1.4471 -0.0739
v  -0.1324 1.4426 -0.0522
v  -0.1108 1.4407 -0.0000
v  -0.1324 1.4426 0.0522
v  -0.1844 1.4471 0.0739
v  -0.2364 1.4517 0.0522
v  -0.1617 1.7066 -0.0000
v  -1.4674 0.0763 -0.0000
v  -1.4674 1.2427 -0.0000
v  -1.4614 1.2427 -0.0144
v  -1.4614 0.0763 -0.0144
v  -1.4470 1.2427 -0.0203
v  -1.4470 0.0763 -0.0203
v  -1.4326 1.2427 -0.0144
v  -1.4326 0.0763 -0.0144
v  -1.4267 1.2427 -0.0000
v  -1.4267 0.0763 -0.0000
v  -1.4326 1.2427 0.0144
v  -1.4326 0.0763 0.0144
v  -1.4470 1.2427 0.0203
v  -1.4470 0.0763 0.0203
v  -1.4614 1.2427 0.0144
v  -1.4614 0.0763 0.0144
v  -1.5034 1.2918 -0.0000
v  -1.4869 1.2918 -0.0399
v  -1.4470 1.2918 -0.0564
v  -1.4072 1.2918 -0.0399
v  -1.3907 1.2918 -0.0000
v  -1.4072 1.2918 0.0399
v  -1.4470 1.2918 0.0564
v  -1.4869 1.2918 0.0399
v  -1.4672 1.3406 -0.0000
v  -1.4613 1.3406 -0.0143
v  -1.4470 1.3406 -0.0202
v  -1.4328 1.3406 -0.0143
v  -1.4268 1.3406 -0.0000
v  -1.4328 1.3406 0.0143
v  -1.4470 1.3406 0.0202
v  -1.4613 1.3406 0.0143
v  -1.4672 1.3788 -0.0000
v  -1.4613 1.3788 -0.0143
v  -1.4470 1.3788 -0.0202
v  -1.4328 1.3788 -0.0143
v  -1.4268 1.3788 -0.0000
v  -1.4328 1.3788 0.0143
v  -1.4470 1.3788 0.0202
v  -1.4613 1.3788 0.0143
v  -1.5209 1.4075 -0.0000
v  -1.4993 1.4075 -0.0522
v  -1.4470 1.4075 -0.0739
v  -1.3948 1.4075 -0.0522
v  -1.3731 1.4075 -0.0000
v  -1.3948 1.4075 0.0522
v  -1.4470 1.4075 0.0739
v  -1.4993 1.4075 0.0522
v  -1.5209 1.4342 -0.0000
v  -1.4993 1.4475 -0.0522
v  -1.4470 1.4356 -0.0739
v  -1.3948 1.4475 -0.0522
v  -1.3731 1.4475 -0.0000
v  -1.3948 1.4352 0.0522
v  -1.4470 1.4397 0.0739
v  -1.4993 1.4274 0.0522
v  -1.4470 1.4470 -0.0000
v  -0.8576 0.0763 -0.0000
v  -0.8576 1.2427 -0.0000
v  -0.8516 1.2427 -0.0144
v  -0.8516 0.0763 -0.0144
v  -0.8372 1.2427 -0.0203
v  -0.8372 0.0763 -0.0203
v  -0.8229 1.2427 -0.0144
v  -0.8229 0.0763 -0.0144
v  -0.8169 1.2427 -0.0000
v  -0.8169 0.0763 -0.0000
v  -0.8229 1.2427 0.0144
v  -0.8229 0.0763 0.0144
v  -0.8372 1.2427 0.0203
v  -0.8372 0.0763 0.0203
v  -0.8516 1.2427 0.0144
v  -0.8516 0.0763 0.0144
v  -0.8936 1.2918 -0.0000
v  -0.8771 1.2918 -0.0399
v  -0.8372 1.2918 -0.0564
v  -0.7974 1.2918 -0.0399
v  -0.7809 1.2918 -0.0000
v  -0.7974 1.2918 0.0399
v  -0.8372 1.2918 0.0564
v  -0.8771 1.2918 0.0399
v  -0.8574 1.3406 -0.0000
v  -0.8515 1.3406 -0.0143
v  -0.8372 1.3406 -0.0202
v  -0.8230 1.3406 -0.0143
v  -0.8171 1.3406 -0.0000
v  -0.8230 1.3406 0.0143
v  -0.8372 1.3406 0.0202
v  -0.8515 1.3406 0.0143
v  -0.8574 1.3788 -0.0000
v  -0.8515 1.3788 -0.0143
v  -0.8372 1.3788 -0.0202
v  -0.8230 1.3788 -0.0143
v  -0.8171 1.3788 -0.0000
v  -0.8230 1.3788 0.0143
v  -0.8372 1.3788 0.0202
v  -0.8515 1.3788 0.0143
v  -0.9111 1.4075 -0.0000
v  -0.8895 1.4075 -0.0522
v  -0.8372 1.4075 -0.0739
v  -0.7850 1.4075 -0.0522
v  -0.7634 1.4075 -0.0000
v  -0.7850 1.4075 0.0522
v  -0.8372 1.4075 0.0739
v  -0.8895 1.4075 0.0522
v  -0.9111 1.4475 -0.0000
v  -0.8895 1.4475 -0.0522
v  -0.8372 1.4475 -0.0739
v  -0.7850 1.4475 -0.0522
v  -0.7634 1.4475 -0.0000
v  -0.7850 1.4475 0.0522
v  -0.8372 1.4475 0.0739
v  -0.8895 1.4475 0.0522
v  -0.8372 1.7079 -0.0000
v  -1.1645 0.0763 -0.0000
v  -1.1650 1.2414 -0.0000
v  -1.1591 1.2419 -0.0144
v  -1.1586 0.0763 -0.0144
v  -1.1448 1.2432 -0.0203
v  -1.1442 0.0763 -0.0203
v  -1.1304 1.2444 -0.0144
v  -1.1298 0.0763 -0.0144
v  -1.1245 1.2450 -0.0000
v  -1.1239 0.0763 -0.0000
v  -1.1304 1.2444 0.0144
v  -1.1298 0.0763 0.0144
v  -1.1448 1.2432 0.0203
v  -1.1442 0.0763 0.0203
v  -1.1591 1.2419 0.0144
v  -1.1586 0.0763 0.0144
v  -1.2052 1.2871 -0.0000
v  -1.1887 1.2886 -0.0399
v  -1.1490 1.2920 -0.0564
v  -1.1093 1.2955 -0.0399
v  -1.0929 1.2969 -0.0000
v  -1.1093 1.2955 0.0399
v  -1.1490 1.2920 0.0564
v  -1.1887 1.2886 0.0399
v  -1.1734 1.3389 -0.0000
v  -1.1675 1.3394 -0.0143
v  -1.1533 1.3407 -0.0202
v  -1.1391 1.3419 -0.0143
v  -1.1332 1.3424 -0.0000
v  -1.1391 1.3419 0.0143
v  -1.1533 1.3407 0.0202
v  -1.1675 1.3394 0.0143
v  -1.1767 1.3770 -0.0000
v  -1.1708 1.3775 -0.0143
v  -1.1566 1.3787 -0.0202
v  -1.1424 1.3800 -0.0143
v  -1.1365 1.3805 -0.0000
v  -1.1424 1.3800 0.0143
v  -1.1566 1.3787 0.0202
v  -1.1708 1.3775 0.0143
v  -1.2327 1.4008 -0.0000
v  -1.2112 1.4027 -0.0522
v  -1.1591 1.4073 -0.0739
v  -1.1071 1.4118 -0.0522
v  -1.0855 1.4137 -0.0000
v  -1.1071 1.4118 0.0522
v  -1.1591 1.4073 0.0739
v  -1.2112 1.4027 0.0522
v  -1.2362 1.4407 -0.0000
v  -1.2146 1.4426 -0.0522
v  -1.1626 1.4471 -0.0739
v  -1.1106 1.4517 -0.0522
v  -1.0890 1.4536 -0.0000
v  -1.1106 1.4517 0.0522
v  -1.1626 1.4471 0.0739
v  -1.2146 1.4426 0.0522
v  -1.1853 1.7066 -0.0000
v  -0.5518 0.0763 -0.0000
v  -0.5518 1.2427 -0.0000
v  -0.5459 1.2427 -0.0144
v  -0.5459 0.0763 -0.0144
v  -0.5315 1.2427 -0.0203
v  -0.5315 0.0763 -0.0203
v  -0.5171 1.2427 -0.0144
v  -0.5171 0.0763 -0.0144
v  -0.5111 1.2427 -0.0000
v  -0.5111 0.0763 -0.0000
v  -0.5171 1.2427 0.0144
v  -0.5171 0.0763 0.0144
v  -0.5315 1.2427 0.0203
v  -0.5315 0.0763 0.0203
v  -0.5459 1.2427 0.0144
v  -0.5459 0.0763 0.0144
v  -0.5878 1.2918 -0.0000
v  -0.5713 1.2918 -0.0399
v  -0.5315 1.2918 -0.0564
v  -0.4916 1.2918 -0.0399
v  -0.4751 1.2918 -0.0000
v  -0.4916 1.2918 0.0399
v  -0.5315 1.2918 0.0564
v  -0.5713 1.2918 0.0399
v  -0.5517 1.3406 -0.0000
v  -0.5457 1.3406 -0.0143
v  -0.5315 1.3406 -0.0202
v  -0.5172 1.3406 -0.0143
v  -0.5113 1.3406 -0.0000
v  -0.5172 1.3406 0.0143
v  -0.5315 1.3406 0.0202
v  -0.5457 1.3406 0.0143
v  -0.5517 1.3788 -0.0000
v  -0.5457 1.3788 -0.0143
v  -0.5315 1.3788 -0.0202
v  -0.5172 1.3788 -0.0143
v  -0.5113 1.3788 -0.0000
v  -0.5172 1.3788 0.0143
v  -0.5315 1.3788 0.0202
v  -0.5457 1.3788 0.0143
v  -0.6054 1.4075 -0.0000
v  -0.5837 1.4075 -0.0522
v  -0.5315 1.4075 -0.0739
v  -0.4792 1.4075 -0.0522
v  -0.4576 1.4075 -0.0000
v  -0.4792 1.4075 0.0522
v  -0.5315 1.4075 0.0739
v  -0.5837 1.4075 0.0522
v  -0.6054 1.4475 -0.0000
v  -0.5837 1.4475 -0.0522
v  -0.5315 1.4475 -0.0739
v  -0.4792 1.4475 -0.0522
v  -0.4576 1.4475 -0.0000
v  -0.4792 1.4475 0.0522
v  -0.5315 1.4475 0.0739
v  -0.5837 1.4475 0.0522
v  -0.5315 1.7079 -0.0000
v  -0.0011 0.0000 0.0280
v  -0.0572 0.0000 0.0280
v  -0.0572 -0.0000 -0.0280
v  -0.0011 -0.0000 -0.0280
v  -0.0011 4.6855 0.0280
v  -0.0011 4.6855 -0.0280
v  -0.0572 4.6855 -0.0280
v  -0.0572 4.6855 0.0280
v  -0.0011 0.0816 0.0280
v  -0.0572 0.0816 0.0280
v  -0.0572 0.0816 -0.0280
v  -0.0011 0.0816 -0.0280
v  -0.0572 4.1005 0.0280
v  -0.0011 4.1005 0.0280
v  -0.0572 4.1005 -0.0280
v  -0.0011 4.1005 -0.0280
v  -0.0572 4.0101 0.0280
v  -0.0011 4.0101 0.0280
v  -0.0011 4.0101 -0.0280
v  -0.0572 4.0101 -0.0280
v  -0.0011 3.3532 0.0280
v  -0.0572 3.3532 0.0280
v  -0.0572 3.3532 -0.0280
v  -0.0011 3.3532 -0.0280
v  -0.3576 3.9822 0.0280
v  -0.3576 3.9822 -0.0280
v  -0.3751 4.0697 -0.0280
v  -0.3751 4.0697 0.0280
v  -0.6586 3.9148 0.0280
v  -0.6586 3.9148 -0.0280
v  -0.6925 3.9954 -0.0280
v  -0.6925 3.9954 0.0280
v  -0.9654 3.8124 0.0280
v  -0.9654 3.8124 -0.0280
v  -1.0037 3.8855 -0.0280
v  -1.0037 3.8855 0.0280
v  -1.2662 3.6577 0.0280
v  -1.2662 3.6577 -0.0280
v  -1.3214 3.7111 -0.0280
v  -1.3214 3.7111 0.0280
v  -1.5693 3.4325 0.0280
v  -1.5693 3.4325 -0.0280
v  -1.6370 3.4705 -0.0280
v  -1.6370 3.4705 0.0280
v  -1.5693 3.3532 -0.0280
v  -1.6370 3.3532 -0.0280
v  -1.6370 3.3532 0.0280
v  -1.5693 3.3532 0.0280
v  -1.5693 -0.0000 -0.0280
v  -1.5693 0.0000 0.0280
v  -1.6370 0.0000 0.0280
v  -1.6370 -0.0000 -0.0280
v  -1.5693 0.0816 0.0280
v  -1.5693 0.0816 -0.0280
v  -1.6370 0.0816 -0.0280
v  -1.6370 0.0816 0.0280
v  -1.5693 2.9854 0.0280
v  -1.5693 2.9854 -0.0280
v  -1.6370 2.9854 -0.0280
v  -1.6370 2.9854 0.0280
v  -0.0572 3.4325 0.0280
v  -0.0572 3.4325 -0.0280
v  -0.0011 3.4325 0.0280
v  -0.0011 3.4325 -0.0280
v  -1.5693 2.7205 0.0280
v  -1.5693 2.7205 -0.0280
v  -1.6370 2.7205 -0.0280
v  -1.7573 2.9854 0.0280
v  -1.7573 2.9854 -0.0280
v  -1.7573 2.7205 -0.0280
v  -1.7573 2.7205 0.0280
v  -1.6370 2.7205 0.0280
v  -1.5693 0.8511 0.0280
v  -1.5693 0.8511 -0.0280
v  -1.6370 0.8511 -0.0280
v  -1.6370 0.8511 0.0280
v  -1.5693 0.5849 -0.0280
v  -1.5693 0.5849 0.0280
v  -1.6370 0.5849 -0.0280
v  -1.6370 0.5849 0.0280
v  -1.7573 0.8511 0.0280
v  -1.7573 0.8511 -0.0280
v  -1.7573 0.5849 -0.0280
v  -1.7573 0.5849 0.0280
v  -0.3864 0.0763 -0.0000
v  -0.3626 2.0946 -0.0000
v  -0.3566 2.0946 -0.0144
v  -0.3805 0.0763 -0.0144
v  -0.3422 2.0946 -0.0203
v  -0.3661 0.0763 -0.0203
v  -0.3279 2.0946 -0.0144
v  -0.3517 0.0763 -0.0144
v  -0.3219 2.0946 -0.0000
v  -0.3457 0.0763 -0.0000
v  -0.3279 2.0946 0.0144
v  -0.3517 0.0763 0.0144
v  -0.3422 2.0946 0.0203
v  -0.3661 0.0763 0.0203
v  -0.3566 2.0946 0.0144
v  -0.3805 0.0763 0.0144
v  -0.3864 4.1130 -0.0000
v  -0.4224 4.1620 -0.0000
v  -0.4059 4.1620 -0.0399
v  -0.3805 4.1130 -0.0144
v  -0.3661 4.1620 -0.0564
v  -0.3661 4.1130 -0.0203
v  -0.3262 4.1620 -0.0399
v  -0.3517 4.1130 -0.0144
v  -0.3097 4.1620 -0.0000
v  -0.3457 4.1130 -0.0000
v  -0.3262 4.1620 0.0399
v  -0.3517 4.1130 0.0144
v  -0.3661 4.1620 0.0564
v  -0.3661 4.1130 0.0203
v  -0.4059 4.1620 0.0399
v  -0.3805 4.1130 0.0144
v  -0.3863 4.2109 -0.0000
v  -0.3804 4.2109 -0.0143
v  -0.3661 4.2109 -0.0202
v  -0.3518 4.2109 -0.0143
v  -0.3459 4.2109 -0.0000
v  -0.3518 4.2109 0.0143
v  -0.3661 4.2109 0.0202
v  -0.3804 4.2109 0.0143
v  -0.3863 4.2491 -0.0000
v  -0.3804 4.2491 -0.0143
v  -0.3661 4.2491 -0.0202
v  -0.3518 4.2491 -0.0143
v  -0.3459 4.2491 -0.0000
v  -0.3518 4.2491 0.0143
v  -0.3661 4.2491 0.0202
v  -0.3804 4.2491 0.0143
v  -0.4400 4.2777 -0.0000
v  -0.4183 4.2777 -0.0522
v  -0.3661 4.2777 -0.0739
v  -0.3138 4.2777 -0.0522
v  -0.2922 4.2777 -0.0000
v  -0.3138 4.2777 0.0522
v  -0.3661 4.2777 0.0739
v  -0.4183 4.2777 0.0522
v  -0.4400 4.3177 -0.0000
v  -0.4183 4.3177 -0.0522
v  -0.3661 4.3177 -0.0739
v  -0.3138 4.3177 -0.0522
v  -0.2922 4.3177 -0.0000
v  -0.3138 4.3177 0.0522
v  -0.3661 4.3177 0.0739
v  -0.4183 4.3177 0.0522
v  -0.3661 4.5782 -0.0000
v  -1.3202 0.0763 -0.0000
v  -1.3202 1.8898 -0.0000
v  -1.3142 1.8898 -0.0144
v  -1.3142 0.0763 -0.0144
v  -1.2999 1.8854 -0.0203
v  -1.2999 0.0763 -0.0203
v  -1.2855 1.8864 -0.0144
v  -1.2855 0.0763 -0.0144
v  -1.2795 1.8898 -0.0000
v  -1.2795 0.0763 -0.0000
v  -1.2855 1.8898 0.0144
v  -1.2855 0.0763 0.0144
v  -1.2999 1.8854 0.0203
v  -1.2999 0.0763 0.0203
v  -1.3142 1.8854 0.0144
v  -1.3142 0.0763 0.0144
v  -1.3202 3.7834 -0.0000
v  -1.3562 3.8324 -0.0000
v  -1.3397 3.8324 -0.0399
v  -1.3142 3.7834 -0.0144
v  -1.2999 3.8324 -0.0564
v  -1.2999 3.7834 -0.0203
v  -1.2600 3.8324 -0.0399
v  -1.2855 3.7834 -0.0144
v  -1.2435 3.8324 -0.0000
v  -1.2795 3.7834 -0.0000
v  -1.2600 3.8324 0.0399
v  -1.2855 3.7834 0.0144
v  -1.2999 3.8324 0.0564
v  -1.2999 3.7834 0.0203
v  -1.3397 3.8324 0.0399
v  -1.3142 3.7834 0.0144
v  -1.3201 3.8812 -0.0000
v  -1.3141 3.8812 -0.0143
v  -1.2999 3.8812 -0.0202
v  -1.2856 3.8812 -0.0143
v  -1.2797 3.8812 -0.0000
v  -1.2856 3.8812 0.0143
v  -1.2999 3.8812 0.0202
v  -1.3141 3.8812 0.0143
v  -1.3196 3.9178 -0.0000
v  -1.3137 3.9183 -0.0143
v  -1.2995 3.9196 -0.0202
v  -1.2853 3.9208 -0.0143
v  -1.2794 3.9213 -0.0000
v  -1.2853 3.9208 0.0143
v  -1.2995 3.9196 0.0202
v  -1.3137 3.9183 0.0143
v  -1.3756 3.9417 -0.0000
v  -1.3540 3.9436 -0.0522
v  -1.3020 3.9481 -0.0739
v  -1.2500 3.9527 -0.0522
v  -1.2284 3.9546 -0.0000
v  -1.2500 3.9527 0.0522
v  -1.3020 3.9481 0.0739
v  -1.3540 3.9436 0.0522
v  -1.3791 3.9816 -0.0000
v  -1.3575 3.9835 -0.0522
v  -1.3055 3.9880 -0.0739
v  -1.2534 3.9926 -0.0522
v  -1.2319 3.9945 -0.0000
v  -1.2534 3.9926 0.0522
v  -1.3055 3.9880 0.0739
v  -1.3575 3.9835 0.0522
v  -1.3282 4.2475 -0.0000
v  -1.2987 2.3207 0.0013
v  -1.3045 2.3191 0.0157
v  -1.3196 2.3867 -0.0000
v  -1.3138 2.3878 -0.0144
v  -1.2848 2.3244 -0.0046
v  -1.2996 2.3903 -0.0203
v  -1.2710 2.3281 0.0013
v  -1.2854 2.3928 -0.0144
v  -1.2652 2.3297 0.0157
v  -1.2796 2.3938 -0.0000
v  -1.2710 2.3281 0.0301
v  -1.2854 2.3928 0.0144
v  -1.2881 2.3364 0.0360
v  -1.3007 2.3964 0.0203
v  -1.3020 2.3327 0.0301
v  -1.3148 2.3939 0.0144
v  -1.2865 2.3305 0.0157
v  -1.2968 2.0177 0.0154
v  -1.2814 2.0026 0.0154
v  -1.2914 2.0152 0.0010
v  -1.2821 2.0011 -0.0050
v  -1.2683 1.9968 0.0010
v  -1.2600 2.0005 0.0154
v  -1.2654 2.0030 0.0298
v  -1.2822 2.0010 0.0357
v  -1.2952 2.0071 0.0298
v  -1.3133 1.9548 0.0051
v  -1.3076 1.9533 -0.0093
v  -1.2954 1.9432 -0.0152
v  -1.2811 1.9409 -0.0093
v  -1.2740 1.9443 0.0051
v  -1.2798 1.9458 0.0195
v  -1.2954 1.9431 0.0255
v  -1.3093 1.9468 0.0195
v  -0.6966 0.5279 -0.0144
v  -0.7025 0.5279 -0.0000
v  -0.6822 0.5279 -0.0203
v  -0.6678 0.5279 -0.0144
v  -0.6619 0.5308 -0.0000
v  -0.6678 0.5279 0.0144
v  -0.6822 0.5304 0.0203
v  -0.6966 0.5308 0.0144
# 689 vertices

vn -0.9999 -0.0142 0.0000
vn -1.0000 0.0000 -0.0000
vn -0.7088 -0.0000 -0.7054
vn -0.7053 -0.0100 -0.7088
vn -0.0035 -0.0000 -1.0000
vn 0.0035 0.0000 -1.0000
vn 0.7054 -0.0000 -0.7088
vn 0.7088 0.0101 -0.7053
vn 1.0000 -0.0000 0.0000
vn 0.9999 0.0142 0.0000
vn 0.7054 0.0000 0.7088
vn 0.7088 0.0101 0.7053
vn -0.0035 0.0000 1.0000
vn 0.0035 0.0000 1.0000
vn -0.7088 -0.0000 0.7054
vn -0.7053 -0.0100 0.7088
vn -0.9440 -0.3300 0.0000
vn -1.0000 0.0018 -0.0000
vn -0.7071 0.0018 -0.7071
vn -0.6662 -0.3319 -0.6679
vn -0.0000 0.0018 -1.0000
vn 0.0017 -0.3366 -0.9416
vn 0.7071 0.0018 -0.7071
vn 0.6655 -0.3413 -0.6638
vn 1.0000 0.0018 -0.0000
vn 0.9393 -0.3432 0.0000
vn 0.7071 0.0018 0.7071
vn 0.6655 -0.3413 0.6638
vn -0.0000 0.0018 1.0000
vn 0.0017 -0.3366 0.9416
vn -0.7071 0.0018 0.7071
vn -0.6662 -0.3319 0.6679
vn -0.9408 0.3389 -0.0000
vn -0.6653 0.3388 -0.6653
vn -0.0000 0.3388 -0.9408
vn 0.6653 0.3388 -0.6653
vn 0.9408 0.3388 0.0000
vn 0.6653 0.3388 0.6653
vn 0.0000 0.3388 0.9408
vn -0.6653 0.3388 0.6653
vn -0.8155 -0.5788 0.0000
vn -0.5766 -0.5788 -0.5766
vn 0.0000 -0.5788 -0.8155
vn 0.5766 -0.5788 -0.5766
vn 0.8155 -0.5788 0.0000
vn 0.5766 -0.5788 0.5766
vn 0.0000 -0.5788 0.8155
vn -0.5766 -0.5788 0.5766
vn -0.8849 -0.4657 0.0000
vn -0.6258 -0.4657 -0.6258
vn -0.0000 -0.4657 -0.8849
vn 0.6258 -0.4657 -0.6258
vn 0.8849 -0.4657 0.0000
vn 0.6258 -0.4657 0.6258
vn -0.0000 -0.4657 0.8849
vn -0.6258 -0.4657 0.6258
vn -0.9911 0.1334 -0.0000
vn -0.7008 0.1334 -0.7008
vn -0.0000 0.1334 -0.9911
vn 0.7008 0.1334 -0.7008
vn 0.9911 0.1334 -0.0000
vn 0.7008 0.1334 0.7008
vn -0.0000 0.1334 0.9911
vn -0.7008 0.1334 0.7008
vn -0.0000 1.0000 -0.0000
vn -0.9963 0.0845 -0.0129
vn -0.6121 0.7886 0.0582
vn -0.6003 0.6218 -0.5031
vn -0.7081 0.0894 -0.7004
vn -0.0041 0.8756 -0.4831
vn -0.0179 0.0506 -0.9986
vn 0.5938 0.5575 -0.5802
vn 0.6925 -0.0292 -0.7209
vn 0.6814 0.7317 -0.0176
vn 0.9965 -0.0833 -0.0100
vn 0.4603 0.6374 0.6180
vn 0.6978 -0.0922 0.7103
vn 0.0748 0.4749 0.8769
vn -0.0236 -0.0375 0.9990
vn -0.3237 0.6789 0.6590
vn -0.7237 0.0303 0.6895
vn -0.9418 -0.3362 -0.0000
vn -0.6659 -0.3364 -0.6660
vn 0.0000 0.0018 -1.0000
vn 0.0001 -0.3366 -0.9416
vn 0.6658 -0.3368 -0.6657
vn 0.9415 -0.3370 0.0000
vn 0.6658 -0.3368 0.6657
vn 0.0000 0.0018 1.0000
vn 0.0001 -0.3366 0.9416
vn -0.6659 -0.3364 0.6660
vn -0.9395 0.3427 -0.0000
vn -0.6651 0.3413 -0.6642
vn -0.0007 0.3388 -0.9408
vn 0.6654 0.3374 -0.6659
vn 0.9415 0.3371 -0.0000
vn 0.6654 0.3374 0.6659
vn -0.0007 0.3388 0.9408
vn -0.6651 0.3413 0.6642
vn -0.7915 -0.6112 0.0000
vn -0.5330 -0.6009 -0.5957
vn 0.0620 -0.5764 -0.8148
vn 0.6192 -0.5524 -0.5580
vn 0.8400 -0.5426 0.0000
vn 0.6192 -0.5524 0.5580
vn 0.0620 -0.5764 0.8148
vn -0.5330 -0.6009 0.5957
vn -0.8410 -0.5411 0.0000
vn -0.5828 -0.5185 -0.6258
vn 0.0406 -0.4639 -0.8849
vn 0.6639 -0.4094 -0.6258
vn 0.9222 -0.3868 0.0000
vn 0.6639 -0.4094 0.6258
vn 0.0406 -0.4639 0.8849
vn -0.5828 -0.5185 0.6258
vn -0.9989 0.0465 -0.0000
vn -0.7097 0.0718 -0.7008
vn -0.0117 0.1329 -0.9911
vn 0.6865 0.1940 -0.7008
vn 0.9757 0.2193 0.0000
vn 0.6865 0.1940 0.7008
vn -0.0116 0.1329 0.9911
vn -0.7097 0.0718 0.7008
vn -0.0872 0.9962 0.0000
vn -0.4510 -0.6950 -0.5600
vn -0.6626 -0.7380 0.1278
vn -0.9949 -0.1012 0.0004
vn -0.7289 -0.0618 -0.6819
vn 0.1336 -0.5696 -0.8110
vn -0.0513 -0.0060 -0.9987
vn 0.7533 -0.4430 -0.4860
vn 0.6757 0.0705 -0.7338
vn 0.9920 -0.1254 0.0125
vn 0.9994 0.0343 0.0004
vn 0.6662 -0.4368 0.6045
vn 0.6751 0.0837 0.7330
vn 0.0125 -0.3985 0.9171
vn -0.0544 -0.0145 0.9984
vn -0.4985 -0.5111 0.7002
vn -0.7377 -0.0375 0.6741
vn 0.0254 0.9868 0.1602
vn 0.1976 -0.9608 0.1944
vn -1.0000 0.0005 -0.0000
vn -0.9558 -0.2941 0.0000
vn -0.6924 -0.3060 -0.6533
vn -0.7072 0.0004 -0.7071
vn -0.0396 -0.3353 -0.9413
vn -0.0001 0.0000 -1.0000
vn 0.6380 -0.3650 -0.6780
vn 0.7071 -0.0003 -0.7071
vn 0.9260 -0.3775 0.0000
vn 1.0000 -0.0004 0.0000
vn 0.6380 -0.3650 0.6780
vn 0.7071 -0.0003 0.7071
vn -0.0396 -0.3353 0.9413
vn -0.0001 0.0000 1.0000
vn -0.6924 -0.3060 0.6533
vn -0.7072 0.0004 0.7070
vn -0.9960 0.0889 -0.0000
vn -0.7043 0.0634 -0.7071
vn 0.0002 0.0018 -1.0000
vn 0.7046 -0.0599 -0.7071
vn 0.9963 -0.0854 0.0000
vn 0.7046 -0.0599 0.7071
vn 0.0002 0.0018 1.0000
vn -0.7043 0.0634 0.7071
vn -0.9077 0.4195 -0.0000
vn -0.6332 0.3955 -0.6653
vn 0.0295 0.3375 -0.9409
vn 0.6923 0.2796 -0.6653
vn 0.9668 0.2556 -0.0000
vn 0.6923 0.2796 0.6653
vn 0.0296 0.3376 0.9408
vn -0.6332 0.3955 0.6653
vn -0.8628 -0.5055 0.0000
vn -0.6249 -0.5264 -0.5766
vn -0.0504 -0.5766 -0.8155
vn 0.5240 -0.6269 -0.5766
vn 0.7619 -0.6477 0.0000
vn 0.5240 -0.6269 0.5766
vn -0.0505 -0.5766 0.8155
vn -0.6249 -0.5264 0.5766
vn -0.9222 -0.3868 0.0000
vn -0.6639 -0.4094 -0.6258
vn -0.0406 -0.4640 -0.8849
vn 0.5828 -0.5184 -0.6258
vn 0.8410 -0.5411 0.0000
vn 0.5828 -0.5185 0.6257
vn -0.0406 -0.4639 0.8850
vn -0.6640 -0.4094 0.6257
vn -0.9757 0.2193 -0.0000
vn -0.6865 0.1940 -0.7008
vn 0.0116 0.1329 -0.9911
vn 0.7097 0.0718 -0.7008
vn 0.9989 0.0465 -0.0000
vn 0.7097 0.0718 0.7008
vn 0.0116 0.1329 0.9911
vn -0.6865 0.1940 0.7008
vn 0.0872 0.9962 -0.0000
vn -1.0000 -0.0000 -0.0000
vn -0.9416 -0.3366 0.0000
vn -0.6658 -0.3366 -0.6658
vn -0.7071 -0.0000 -0.7071
vn -0.0000 -0.3366 -0.9416
vn -0.0000 -0.0000 -1.0000
vn 0.6659 -0.3366 -0.6658
vn 0.7071 -0.0000 -0.7071
vn 0.9416 -0.3366 0.0000
vn 1.0000 -0.0000 -0.0000
vn 0.6658 -0.3366 0.6658
vn 0.7071 0.0000 0.7071
vn -0.0000 -0.3366 0.9416
vn -0.0000 0.0000 1.0000
vn -0.6658 -0.3366 0.6658
vn -0.7071 0.0000 0.7071
vn -0.9408 0.3388 -0.0000
vn 0.9408 0.3388 -0.0000
vn -0.0000 0.3388 0.9408
vn -0.0000 -0.5788 -0.8155
vn -0.0000 -0.5788 0.8155
vn -0.8278 0.5560 0.0743
vn -0.5224 0.6808 -0.5134
vn -0.0000 0.5283 -0.8491
vn 0.4976 0.6537 -0.5702
vn 0.7544 0.6543 0.0530
vn 0.5744 0.5422 0.6132
vn -0.0327 0.6322 0.7741
vn -0.6232 0.5043 0.5977
vn -0.0623 0.9961 0.0622
vn 0.0000 -0.3366 -0.9416
vn 0.0000 -0.0000 -1.0000
vn 0.6658 -0.3366 -0.6658
vn 1.0000 0.0000 0.0000
vn 0.0000 -0.3366 0.9416
vn 0.0000 0.0000 1.0000
vn 1.0000 0.0018 0.0000
vn 0.6257 -0.4657 -0.6258
vn 0.8849 -0.4657 -0.0001
vn 0.6258 -0.4657 0.6257
vn 0.0000 -0.4657 0.8849
vn 0.0000 0.1334 -0.9911
vn 0.9911 0.1334 0.0000
vn 0.0000 0.1334 0.9911
vn 0.0000 1.0000 -0.0000
vn -1.0000 -0.0004 0.0000
vn -0.9260 -0.3775 0.0000
vn -0.6380 -0.3650 -0.6780
vn -0.7070 -0.0003 -0.7072
vn 0.0396 -0.3353 -0.9413
vn 0.0001 0.0000 -1.0000
vn 0.6924 -0.3060 -0.6533
vn 0.7072 0.0004 -0.7070
vn 0.9558 -0.2940 -0.0000
vn 1.0000 0.0006 -0.0000
vn 0.6924 -0.3060 0.6533
vn 0.7072 0.0004 0.7070
vn 0.0396 -0.3353 0.9413
vn 0.0001 0.0000 1.0000
vn -0.6380 -0.3650 0.6780
vn -0.7070 -0.0003 0.7072
vn -0.9963 -0.0854 0.0000
vn -0.7046 -0.0599 -0.7071
vn -0.0002 0.0018 -1.0000
vn 0.7043 0.0634 -0.7071
vn 0.9960 0.0889 -0.0000
vn 0.7043 0.0634 0.7071
vn -0.0002 0.0018 1.0000
vn -0.7046 -0.0599 0.7071
vn -0.9668 0.2556 -0.0000
vn -0.6923 0.2796 -0.6653
vn -0.0295 0.3375 -0.9408
vn 0.6332 0.3955 -0.6653
vn 0.9078 0.4195 -0.0000
vn 0.6332 0.3955 0.6653
vn -0.0295 0.3375 0.9408
vn -0.6923 0.2796 0.6653
vn -0.7620 -0.6476 0.0000
vn -0.5239 -0.6269 -0.5766
vn 0.0504 -0.5766 -0.8155
vn 0.6249 -0.5263 -0.5766
vn 0.8628 -0.5055 0.0000
vn 0.6248 -0.5264 0.5766
vn 0.0505 -0.5766 0.8155
vn -0.5239 -0.6269 0.5766
vn 0.0406 -0.4640 -0.8849
vn 0.6640 -0.4094 0.6258
vn -0.5828 -0.5185 0.6257
vn -0.7098 0.0718 -0.7008
vn -0.0116 0.1329 -0.9911
vn -0.0872 0.9962 -0.0000
vn -0.6659 -0.3366 -0.6658
vn -0.0000 -0.3366 -0.9417
vn 0.7070 -0.0000 -0.7072
vn 0.6658 -0.3366 0.6659
vn 0.0000 0.3388 -0.9408
vn 0.9408 0.3389 -0.0000
vn -0.8849 -0.4657 -0.0001
vn -0.6257 -0.4657 -0.6258
vn 0.0000 -0.4657 -0.8849
vn 0.8849 -0.4657 -0.0000
vn -0.6258 -0.4657 0.6257
vn -0.9911 0.1334 0.0000
vn 0.5774 -0.5774 0.5774
vn 0.0000 -0.7071 0.7071
vn 0.0000 -0.7071 -0.7071
vn 0.5774 -0.5774 -0.5774
vn 0.5774 0.5774 0.5774
vn 0.5774 0.5774 -0.5774
vn -0.5774 0.5774 -0.5774
vn -0.5774 0.5774 0.5774
vn -0.3015 0.3015 0.9045
vn -0.3015 0.3015 -0.9045
vn -0.3332 0.3025 0.8930
vn -0.3332 0.3025 -0.8930
vn 0.7071 0.0000 -0.7071
vn -0.2715 -0.2978 0.9152
vn -0.2715 -0.2980 -0.9152
vn -0.3015 -0.3015 0.9045
vn -0.3015 -0.3015 -0.9045
vn 0.1078 -0.6838 0.7217
vn 0.1078 -0.6837 -0.7218
vn -0.1173 0.7119 -0.6924
vn -0.1173 0.7119 0.6924
vn 0.1862 -0.6699 0.7188
vn 0.1862 -0.6699 -0.7188
vn -0.2019 0.6901 -0.6950
vn -0.2019 0.6900 0.6951
vn 0.2674 -0.6350 0.7247
vn 0.2675 -0.6351 -0.7247
vn -0.2959 0.6613 -0.6893
vn -0.2959 0.6614 0.6892
vn 0.3636 -0.5837 0.7260
vn 0.3636 -0.5836 -0.7261
vn -0.3943 0.6061 -0.6907
vn -0.3943 0.6061 0.6907
vn 0.1635 0.0541 0.9851
vn 0.1635 0.0541 -0.9851
vn -0.7035 0.3483 -0.6195
vn -0.7035 0.3483 0.6195
vn 0.3015 -0.3015 -0.9045
vn 0.3015 -0.3015 0.9045
vn -0.5774 -0.5774 0.5774
vn -0.5774 -0.5774 -0.5774
vn 0.3015 0.3015 0.9045
vn 0.3015 0.3015 -0.9045
vn -0.7071 -0.0000 0.7071
vn -0.9999 0.0118 -0.0000
vn -0.7057 -0.0000 -0.7085
vn -0.7085 0.0084 -0.7056
vn 0.0029 -0.0000 -1.0000
vn -0.0029 0.0000 -1.0000
vn 0.7085 -0.0000 -0.7057
vn 0.7056 -0.0083 -0.7085
vn 0.9999 -0.0118 0.0000
vn 0.7085 0.0000 0.7057
vn 0.7056 -0.0083 0.7085
vn 0.0029 0.0000 1.0000
vn -0.0029 0.0000 1.0000
vn -0.7057 0.0000 0.7085
vn -0.7085 0.0084 0.7056
vn -0.9397 -0.3421 0.0000
vn -0.6655 -0.3405 -0.6642
vn -0.0014 -0.3366 -0.9416
vn 0.6661 -0.3327 -0.6675
vn 0.9436 -0.3311 0.0000
vn 0.6661 -0.3327 0.6675
vn -0.0014 -0.3366 0.9416
vn -0.6655 -0.3405 0.6642
vn 0.8154 -0.5788 0.0000
vn 0.8850 -0.4657 -0.0000
vn 0.0000 -0.4657 0.8850
vn -0.9985 0.0555 -0.0039
vn -0.7005 0.0694 -0.7103
vn -0.0032 0.0383 -0.9993
vn 0.6970 0.0087 -0.7170
vn 0.9986 -0.0522 -0.0079
vn 0.7122 -0.0750 0.6979
vn -0.0032 -0.0391 0.9992
vn -0.7152 -0.0018 0.6990
vn -0.9416 -0.3368 0.0000
vn -0.6658 -0.3367 -0.6658
vn 0.6658 -0.3366 -0.6659
vn -0.6658 -0.3365 0.6659
vn -0.9388 0.3446 -0.0000
vn -0.6650 0.3426 -0.6636
vn -0.0012 0.3388 -0.9408
vn 0.6655 0.3362 -0.6664
vn 0.9421 0.3354 -0.0000
vn 0.6655 0.3362 0.6664
vn -0.0012 0.3388 0.9408
vn -0.6650 0.3426 0.6636
vn -0.7927 -0.6096 0.0000
vn -0.5334 -0.5998 -0.5965
vn 0.0624 -0.5765 -0.8147
vn 0.6190 -0.5535 -0.5572
vn 0.8390 -0.5441 -0.0000
vn 0.6190 -0.5535 0.5572
vn 0.0624 -0.5765 0.8147
vn -0.5334 -0.5998 0.5965
vn -0.8410 -0.5411 -0.0001
vn -0.5828 -0.5184 -0.6258
vn 0.6640 -0.4094 -0.6258
vn 0.0406 -0.4640 0.8849
vn -0.9989 0.0465 0.0001
vn -0.2762 -0.8589 -0.4314
vn -0.4245 -0.8778 0.2220
vn -0.9911 -0.1259 -0.0432
vn -0.6906 -0.1549 -0.7065
vn 0.1966 -0.7669 -0.6109
vn -0.0076 -0.1105 -0.9938
vn 0.6489 -0.6332 -0.4220
vn 0.6863 -0.0119 -0.7273
vn 0.8494 -0.5251 0.0523
vn 0.9945 0.1012 -0.0286
vn 0.4980 -0.6063 0.6201
vn 0.7023 0.1801 0.6887
vn 0.0132 -0.3176 0.9481
vn -0.0321 0.1096 0.9935
vn -0.4862 -0.4708 0.7362
vn -0.7583 0.0113 0.6518
vn 0.1464 -0.9556 0.2557
vn -0.3204 0.9332 0.1625
vn 0.4058 0.9138 0.0203
vn -0.0292 0.8454 -0.5333
vn 0.2957 0.5135 -0.8055
vn 0.6351 0.4648 -0.6170
vn 0.8662 0.4903 -0.0968
vn 0.5966 0.5581 0.5767
vn 0.0652 0.4548 0.8882
vn -0.3803 0.6212 0.6852
vn -0.9806 0.1932 -0.0319
vn -0.6634 0.2147 -0.7168
vn 0.0160 0.1151 -0.9932
vn 0.6803 0.0025 -0.7329
vn 0.9849 -0.1706 -0.0300
vn 0.6831 -0.2247 0.6949
vn -0.0348 -0.1202 0.9921
vn -0.7525 0.0269 0.6581
vn -0.6986 0.0435 -0.7141
vn -0.9978 0.0658 -0.0063
vn 0.0155 -0.0020 -0.9999
vn 0.7183 -0.0522 -0.6937
vn 0.9979 -0.0642 -0.0000
vn 0.7169 -0.0533 0.6952
vn 0.0150 -0.0004 0.9999
vn -0.7013 0.0437 0.7116
# 446 vertex normals

vt 0.6494 0.3453 -0.2504
vt 0.6494 0.5542 -0.5000
vt 0.6411 0.5542 -0.7496
vt 0.6411 0.3453 -0.7496
vt 0.6333 0.5542 -0.7496
vt 0.6333 0.3453 -0.7496
vt 0.6260 0.5542 -0.7496
vt 0.6260 0.3453 -0.7496
vt 0.6196 0.5542 -0.7496
vt 0.6196 0.3453 -0.7496
vt 0.6810 0.3453 -0.7496
vt 0.6810 0.5542 -0.7496
vt 0.6744 0.5542 -0.7496
vt 0.6744 0.3453 -0.7496
vt 0.6665 0.5542 -0.7496
vt 0.6665 0.3453 -0.7496
vt 0.6581 0.5542 -0.7496
vt 0.6581 0.3453 -0.7496
vt 0.6494 0.7632 -0.7496
vt 0.6492 0.7757 -0.7496
vt 0.6388 0.7757 -0.7496
vt 0.6411 0.7632 -0.7496
vt 0.6283 0.7757 -0.7496
vt 0.6333 0.7632 -0.7496
vt 0.6171 0.7757 -0.7496
vt 0.6260 0.7632 -0.7496
vt 0.6038 0.7757 -0.7496
vt 0.6196 0.7632 -0.7496
vt 0.6810 0.7632 -0.7496
vt 0.6938 0.7757 -0.7496
vt 0.6809 0.7757 -0.7496
vt 0.6744 0.7632 -0.7496
vt 0.6700 0.7757 -0.7496
vt 0.6665 0.7632 -0.7496
vt 0.6596 0.7757 -0.7496
vt 0.6581 0.7632 -0.7496
vt 0.6494 0.7903 -0.7496
vt 0.6383 0.7903 -0.7496
vt 0.6278 0.7903 -0.7496
vt 0.6184 0.7903 -0.7496
vt 0.6113 0.7903 -0.7496
vt 0.6877 0.7903 -0.7496
vt 0.6806 0.7903 -0.7496
vt 0.6711 0.7903 -0.7496
vt 0.6606 0.7903 -0.7496
vt 0.6494 0.7940 -0.7496
vt 0.6383 0.7940 -0.7496
vt 0.6278 0.7940 -0.7496
vt 0.6184 0.7940 -0.7496
vt 0.6113 0.7940 -0.7496
vt 0.6877 0.7940 -0.7496
vt 0.6806 0.7940 -0.7496
vt 0.6711 0.7940 -0.7496
vt 0.6606 0.7940 -0.7496
vt 0.6498 0.8128 -0.7496
vt 0.6374 0.8128 -0.7496
vt 0.6256 0.8128 -0.7496
vt 0.6133 0.8128 -0.7496
vt 0.5988 0.8128 -0.7496
vt 0.7017 0.8128 -0.7496
vt 0.6869 0.8128 -0.7496
vt 0.6743 0.8128 -0.7496
vt 0.6623 0.8128 -0.7496
vt 0.6498 0.8204 -0.7496
vt 0.6374 0.8204 -0.7496
vt 0.6256 0.8204 -0.7496
vt 0.6133 0.8204 -0.7496
vt 0.5988 0.8204 -0.7496
vt 0.7017 0.8204 -0.7496
vt 0.6869 0.8204 -0.7496
vt 0.6743 0.8204 -0.7496
vt 0.6623 0.8204 -0.7496
vt 0.6507 0.8439 0.7496
vt 0.1674 0.3453 -0.2504
vt 0.1674 0.5542 -0.5000
vt 0.1590 0.5542 -0.7496
vt 0.1590 0.3453 -0.7496
vt 0.1512 0.5542 -0.7496
vt 0.1512 0.3453 -0.7496
vt 0.1439 0.5542 -0.7496
vt 0.1439 0.3453 -0.7496
vt 0.1376 0.5542 -0.7496
vt 0.1376 0.3453 -0.7496
vt 0.1989 0.3453 -0.7496
vt 0.1989 0.5542 -0.7496
vt 0.1924 0.5542 -0.7496
vt 0.1924 0.3453 -0.7496
vt 0.1845 0.5542 -0.7496
vt 0.1845 0.3453 -0.7496
vt 0.1761 0.5542 -0.7496
vt 0.1761 0.3453 -0.7496
vt 0.1674 0.7632 -0.7496
vt 0.1672 0.7757 -0.7496
vt 0.1568 0.7757 -0.7496
vt 0.1590 0.7632 -0.7496
vt 0.1462 0.7757 -0.7496
vt 0.1512 0.7632 -0.7496
vt 0.1351 0.7757 -0.7496
vt 0.1439 0.7632 -0.7496
vt 0.1218 0.7757 -0.7496
vt 0.1376 0.7632 -0.7496
vt 0.1989 0.7632 -0.7496
vt 0.2117 0.7757 -0.7496
vt 0.1989 0.7757 -0.7496
vt 0.1924 0.7632 -0.7496
vt 0.1879 0.7757 -0.7496
vt 0.1845 0.7632 -0.7496
vt 0.1775 0.7757 -0.7496
vt 0.1761 0.7632 -0.7496
vt 0.1674 0.7903 -0.7496
vt 0.1562 0.7903 -0.7496
vt 0.1458 0.7903 -0.7496
vt 0.1364 0.7903 -0.7496
vt 0.1292 0.7903 -0.7496
vt 0.2057 0.7903 -0.7496
vt 0.1985 0.7903 -0.7496
vt 0.1891 0.7903 -0.7496
vt 0.1785 0.7903 -0.7496
vt 0.1674 0.7940 -0.7496
vt 0.1562 0.7940 -0.7496
vt 0.1458 0.7940 -0.7496
vt 0.1364 0.7940 -0.7496
vt 0.1292 0.7940 -0.7496
vt 0.2057 0.7940 -0.7496
vt 0.1985 0.7940 -0.7496
vt 0.1891 0.7940 -0.7496
vt 0.1785 0.7940 -0.7496
vt 0.1677 0.8128 -0.7496
vt 0.1554 0.8128 -0.7496
vt 0.1435 0.8128 -0.7496
vt 0.1313 0.8128 -0.7496
vt 0.1168 0.8128 -0.7496
vt 0.2197 0.8128 -0.7496
vt 0.2049 0.8128 -0.7496
vt 0.1923 0.8128 -0.7496
vt 0.1802 0.8128 -0.7496
vt 0.1677 0.8204 -0.7496
vt 0.1554 0.8204 -0.7496
vt 0.1435 0.8204 -0.7496
vt 0.1313 0.8204 -0.7496
vt 0.1168 0.8204 -0.7496
vt 0.2197 0.8204 -0.7496
vt 0.2049 0.8204 -0.7496
vt 0.1923 0.8204 -0.7496
vt 0.1802 0.8204 -0.7496
vt 0.1687 0.8439 0.7496
vt 0.1590 0.6587 -0.7496
vt 0.1674 0.6587 -0.6248
vt 0.1674 0.6848 -0.6560
vt 0.1590 0.6848 -0.7496
vt 0.1512 0.6587 -0.7496
vt 0.1512 0.6848 -0.7496
vt 0.1439 0.6587 -0.7496
vt 0.1439 0.6848 -0.7496
vt 0.1376 0.6587 -0.7496
vt 0.1376 0.6848 -0.7496
vt 0.1924 0.6587 -0.7496
vt 0.1989 0.6587 -0.7496
vt 0.1989 0.6848 -0.7496
vt 0.1924 0.6848 -0.7496
vt 0.1845 0.6587 -0.7496
vt 0.1845 0.6848 -0.7496
vt 0.1761 0.6587 -0.7496
vt 0.1761 0.6848 -0.7496
vt 0.0770 0.6677 0.0096
vt 0.0767 0.6365 0.0096
vt 0.0990 0.6583 0.0096
vt 0.1080 0.6360 0.0096
vt 0.0983 0.6141 0.0096
vt 0.0760 0.6053 -0.0096
vt 0.0545 0.6146 0.0096
vt 0.0456 0.6368 0.0096
vt 0.0549 0.6588 0.0096
vt 0.0546 0.5945 0.0227
vt 0.0765 0.5723 0.0227
vt 0.0767 0.6035 0.0227
vt 0.0453 0.5726 0.0227
vt 0.0542 0.5505 0.0227
vt 0.0761 0.5408 -0.0227
vt 0.0988 0.5504 0.0227
vt 0.1080 0.5724 0.0227
vt 0.0989 0.5945 0.0227
vt 0.1830 0.0281 -0.2504
vt 0.1830 0.2277 -0.7496
vt 0.1789 0.2277 -0.7496
vt 0.1789 0.0281 -0.7496
vt 0.1752 0.2277 -0.7496
vt 0.1752 0.0281 -0.7496
vt 0.1717 0.2277 -0.7496
vt 0.1717 0.0281 -0.7496
vt 0.1687 0.2277 -0.7496
vt 0.1687 0.0281 -0.7496
vt 0.1980 0.0281 -0.7496
vt 0.1980 0.2277 -0.7496
vt 0.1949 0.2277 -0.7496
vt 0.1949 0.0281 -0.7496
vt 0.1911 0.2277 -0.7496
vt 0.1911 0.0281 -0.7496
vt 0.1871 0.2277 -0.7496
vt 0.1871 0.0281 -0.7496
vt 0.1828 0.2337 -0.7496
vt 0.1779 0.2337 -0.7496
vt 0.1728 0.2337 -0.7496
vt 0.1675 0.2337 -0.7496
vt 0.1612 0.2337 -0.7496
vt 0.2041 0.2337 -0.7496
vt 0.1980 0.2337 -0.7496
vt 0.1927 0.2337 -0.7496
vt 0.1878 0.2337 -0.7496
vt 0.1829 0.2407 -0.7496
vt 0.1776 0.2407 -0.7496
vt 0.1726 0.2407 -0.7496
vt 0.1681 0.2407 -0.7496
vt 0.1647 0.2407 -0.7496
vt 0.2012 0.2407 -0.7496
vt 0.1978 0.2407 -0.7496
vt 0.1933 0.2407 -0.7496
vt 0.1883 0.2407 -0.7496
vt 0.1829 0.2424 -0.7496
vt 0.1776 0.2424 -0.7496
vt 0.1726 0.2424 -0.7496
vt 0.1681 0.2424 -0.7496
vt 0.1647 0.2424 -0.7496
vt 0.2012 0.2424 -0.7496
vt 0.1978 0.2424 -0.7496
vt 0.1933 0.2424 -0.7496
vt 0.1883 0.2424 -0.7496
vt 0.1831 0.2514 -0.7496
vt 0.1772 0.2514 -0.7496
vt 0.1716 0.2514 -0.7496
vt 0.1657 0.2514 -0.7496
vt 0.1588 0.2514 -0.7496
vt 0.2079 0.2514 -0.7496
vt 0.2009 0.2514 -0.7496
vt 0.1948 0.2514 -0.7496
vt 0.1891 0.2514 -0.7496
vt 0.1831 0.2551 -0.7496
vt 0.1772 0.2551 -0.7496
vt 0.1716 0.2551 -0.7496
vt 0.1657 0.2551 -0.7496
vt 0.1588 0.2551 -0.7496
vt 0.2079 0.2551 -0.7496
vt 0.2009 0.2551 -0.7496
vt 0.1948 0.2551 -0.7496
vt 0.1891 0.2551 -0.7496
vt 0.1836 0.2663 0.7496
vt 0.5693 0.0265 -0.2504
vt 0.5693 0.2261 -0.7496
vt 0.5653 0.2261 -0.7496
vt 0.5653 0.0265 -0.7496
vt 0.5615 0.2261 -0.7496
vt 0.5615 0.0265 -0.7496
vt 0.5580 0.2261 -0.7496
vt 0.5580 0.0265 -0.7496
vt 0.5550 0.2261 -0.7496
vt 0.5550 0.0265 -0.7496
vt 0.5843 0.0265 -0.7496
vt 0.5843 0.2261 -0.7496
vt 0.5812 0.2261 -0.7496
vt 0.5812 0.0265 -0.7496
vt 0.5774 0.2261 -0.7496
vt 0.5774 0.0265 -0.7496
vt 0.5734 0.2261 -0.7496
vt 0.5734 0.0265 -0.7496
vt 0.5692 0.2321 -0.7496
vt 0.5642 0.2321 -0.7496
vt 0.5591 0.2321 -0.7496
vt 0.5538 0.2321 -0.7496
vt 0.5475 0.2321 -0.7496
vt 0.5904 0.2321 -0.7496
vt 0.5843 0.2321 -0.7496
vt 0.5791 0.2321 -0.7496
vt 0.5741 0.2321 -0.7496
vt 0.5692 0.2391 -0.7496
vt 0.5639 0.2391 -0.7496
vt 0.5589 0.2391 -0.7496
vt 0.5544 0.2391 -0.7496
vt 0.5510 0.2391 -0.7496
vt 0.5875 0.2391 -0.7496
vt 0.5841 0.2391 -0.7496
vt 0.5796 0.2391 -0.7496
vt 0.5746 0.2391 -0.7496
vt 0.5692 0.2408 -0.7496
vt 0.5639 0.2408 -0.7496
vt 0.5589 0.2408 -0.7496
vt 0.5544 0.2408 -0.7496
vt 0.5510 0.2408 -0.7496
vt 0.5875 0.2408 -0.7496
vt 0.5841 0.2408 -0.7496
vt 0.5796 0.2408 -0.7496
vt 0.5746 0.2408 -0.7496
vt 0.5694 0.2498 -0.7496
vt 0.5635 0.2498 -0.7496
vt 0.5579 0.2498 -0.7496
vt 0.5520 0.2498 -0.7496
vt 0.5451 0.2498 -0.7496
vt 0.5942 0.2498 -0.7496
vt 0.5872 0.2498 -0.7496
vt 0.5811 0.2498 -0.7496
vt 0.5754 0.2498 -0.7496
vt 0.5694 0.2535 -0.7496
vt 0.5635 0.2535 -0.7496
vt 0.5579 0.2535 -0.7496
vt 0.5520 0.2535 -0.7496
vt 0.5451 0.2535 -0.7496
vt 0.5942 0.2535 -0.7496
vt 0.5872 0.2535 -0.7496
vt 0.5811 0.2535 -0.7496
vt 0.5754 0.2535 -0.7496
vt 0.5452 0.2879 -0.3464
vt 0.5694 0.2879 -0.3464
vt 0.5524 0.3050 0.3464
vt 0.5695 0.3121 0.3464
vt 0.5866 0.3050 0.3464
vt 0.5936 0.2879 0.3464
vt 0.5865 0.2708 0.3464
vt 0.5694 0.2637 0.3464
vt 0.5523 0.2708 0.3464
vt 0.3811 0.0265 -0.2504
vt 0.3811 0.2261 -0.7496
vt 0.3771 0.2261 -0.7496
vt 0.3771 0.0265 -0.7496
vt 0.3734 0.2261 -0.7496
vt 0.3734 0.0265 -0.7496
vt 0.3699 0.2261 -0.7496
vt 0.3699 0.0265 -0.7496
vt 0.3669 0.2261 -0.7496
vt 0.3669 0.0265 -0.7496
vt 0.3962 0.0265 -0.7496
vt 0.3962 0.2261 -0.7496
vt 0.3930 0.2261 -0.7496
vt 0.3930 0.0265 -0.7496
vt 0.3893 0.2261 -0.7496
vt 0.3893 0.0265 -0.7496
vt 0.3853 0.2261 -0.7496
vt 0.3853 0.0265 -0.7496
vt 0.3810 0.2321 -0.7496
vt 0.3760 0.2321 -0.7496
vt 0.3710 0.2321 -0.7496
vt 0.3657 0.2321 -0.7496
vt 0.3593 0.2321 -0.7496
vt 0.4023 0.2321 -0.7496
vt 0.3961 0.2321 -0.7496
vt 0.3909 0.2321 -0.7496
vt 0.3859 0.2321 -0.7496
vt 0.3811 0.2391 -0.7496
vt 0.3758 0.2391 -0.7496
vt 0.3708 0.2391 -0.7496
vt 0.3663 0.2391 -0.7496
vt 0.3629 0.2391 -0.7496
vt 0.3994 0.2391 -0.7496
vt 0.3960 0.2391 -0.7496
vt 0.3915 0.2391 -0.7496
vt 0.3864 0.2391 -0.7496
vt 0.3811 0.2408 -0.7496
vt 0.3758 0.2408 -0.7496
vt 0.3708 0.2408 -0.7496
vt 0.3663 0.2408 -0.7496
vt 0.3629 0.2408 -0.7496
vt 0.3994 0.2408 -0.7496
vt 0.3960 0.2408 -0.7496
vt 0.3915 0.2408 -0.7496
vt 0.3864 0.2408 -0.7496
vt 0.3813 0.2498 -0.7496
vt 0.3754 0.2498 -0.7496
vt 0.3697 0.2498 -0.7496
vt 0.3638 0.2498 -0.7496
vt 0.3569 0.2498 -0.7496
vt 0.4061 0.2498 -0.7496
vt 0.3990 0.2498 -0.7496
vt 0.3930 0.2498 -0.7496
vt 0.3872 0.2498 -0.7496
vt 0.3813 0.2535 -0.7496
vt 0.3754 0.2535 -0.7496
vt 0.3697 0.2535 -0.7496
vt 0.3638 0.2535 -0.7496
vt 0.3569 0.2535 -0.7496
vt 0.4061 0.2535 -0.7496
vt 0.3990 0.2535 -0.7496
vt 0.3930 0.2535 -0.7496
vt 0.3872 0.2535 -0.7496
vt 0.3817 0.2647 0.7496
vt 0.4810 0.0265 -0.2504
vt 0.4810 0.2261 -0.7496
vt 0.4770 0.2261 -0.7496
vt 0.4770 0.0265 -0.7496
vt 0.4732 0.2261 -0.7496
vt 0.4732 0.0265 -0.7496
vt 0.4698 0.2261 -0.7496
vt 0.4698 0.0265 -0.7496
vt 0.4667 0.2261 -0.7496
vt 0.4667 0.0265 -0.7496
vt 0.4960 0.0265 -0.7496
vt 0.4960 0.2261 -0.7496
vt 0.4929 0.2261 -0.7496
vt 0.4929 0.0265 -0.7496
vt 0.4891 0.2261 -0.7496
vt 0.4891 0.0265 -0.7496
vt 0.4851 0.2261 -0.7496
vt 0.4851 0.0265 -0.7496
vt 0.4809 0.2321 -0.7496
vt 0.4759 0.2321 -0.7496
vt 0.4709 0.2321 -0.7496
vt 0.4655 0.2321 -0.7496
vt 0.4592 0.2321 -0.7496
vt 0.5021 0.2321 -0.7496
vt 0.4960 0.2321 -0.7496
vt 0.4908 0.2321 -0.7496
vt 0.4858 0.2321 -0.7496
vt 0.4810 0.2391 -0.7496
vt 0.4756 0.2391 -0.7496
vt 0.4706 0.2391 -0.7496
vt 0.4662 0.2391 -0.7496
vt 0.4627 0.2391 -0.7496
vt 0.4993 0.2391 -0.7496
vt 0.4958 0.2391 -0.7496
vt 0.4913 0.2391 -0.7496
vt 0.4863 0.2391 -0.7496
vt 0.4810 0.2408 -0.7496
vt 0.4756 0.2408 -0.7496
vt 0.4706 0.2408 -0.7496
vt 0.4662 0.2408 -0.7496
vt 0.4627 0.2408 -0.7496
vt 0.4993 0.2408 -0.7496
vt 0.4958 0.2408 -0.7496
vt 0.4913 0.2408 -0.7496
vt 0.4863 0.2408 -0.7496
vt 0.4811 0.2498 -0.7496
vt 0.4752 0.2498 -0.7496
vt 0.4696 0.2498 -0.7496
vt 0.4637 0.2498 -0.7496
vt 0.4568 0.2498 -0.7496
vt 0.5059 0.2498 -0.7496
vt 0.4989 0.2498 -0.7496
vt 0.4929 0.2498 -0.7496
vt 0.4871 0.2498 -0.7496
vt 0.4811 0.2535 -0.7496
vt 0.4752 0.2535 -0.7496
vt 0.4696 0.2535 -0.7496
vt 0.4637 0.2535 -0.7496
vt 0.4568 0.2535 -0.7496
vt 0.5059 0.2535 -0.7496
vt 0.4989 0.2535 -0.7496
vt 0.4929 0.2535 -0.7496
vt 0.4871 0.2535 -0.7496
vt 0.4816 0.2647 0.7496
vt 0.2820 0.0281 -0.2504
vt 0.2820 0.2277 -0.7496
vt 0.2780 0.2277 -0.7496
vt 0.2780 0.0281 -0.7496
vt 0.2743 0.2277 -0.7496
vt 0.2743 0.0281 -0.7496
vt 0.2708 0.2277 -0.7496
vt 0.2708 0.0281 -0.7496
vt 0.2678 0.2277 -0.7496
vt 0.2678 0.0281 -0.7496
vt 0.2971 0.0281 -0.7496
vt 0.2971 0.2277 -0.7496
vt 0.2940 0.2277 -0.7496
vt 0.2940 0.0281 -0.7496
vt 0.2902 0.2277 -0.7496
vt 0.2902 0.0281 -0.7496
vt 0.2862 0.2277 -0.7496
vt 0.2862 0.0281 -0.7496
vt 0.2819 0.2337 -0.7496
vt 0.2769 0.2337 -0.7496
vt 0.2719 0.2337 -0.7496
vt 0.2666 0.2337 -0.7496
vt 0.2602 0.2337 -0.7496
vt 0.3032 0.2337 -0.7496
vt 0.2971 0.2337 -0.7496
vt 0.2918 0.2337 -0.7496
vt 0.2869 0.2337 -0.7496
vt 0.2820 0.2407 -0.7496
vt 0.2767 0.2407 -0.7496
vt 0.2717 0.2407 -0.7496
vt 0.2672 0.2407 -0.7496
vt 0.2638 0.2407 -0.7496
vt 0.3003 0.2407 -0.7496
vt 0.2969 0.2407 -0.7496
vt 0.2924 0.2407 -0.7496
vt 0.2873 0.2407 -0.7496
vt 0.2820 0.2424 -0.7496
vt 0.2767 0.2424 -0.7496
vt 0.2717 0.2424 -0.7496
vt 0.2672 0.2424 -0.7496
vt 0.2638 0.2424 -0.7496
vt 0.3003 0.2424 -0.7496
vt 0.2969 0.2424 -0.7496
vt 0.2924 0.2424 -0.7496
vt 0.2873 0.2424 -0.7496
vt 0.2822 0.2514 -0.7496
vt 0.2763 0.2514 -0.7496
vt 0.2706 0.2514 -0.7496
vt 0.2648 0.2514 -0.7496
vt 0.2579 0.2514 -0.7496
vt 0.3070 0.2514 -0.7496
vt 0.2999 0.2514 -0.7496
vt 0.2939 0.2514 -0.7496
vt 0.2882 0.2514 -0.7496
vt 0.2822 0.2551 -0.7496
vt 0.2763 0.2551 -0.7496
vt 0.2706 0.2551 -0.7496
vt 0.2648 0.2551 -0.7496
vt 0.2579 0.2551 -0.7496
vt 0.3070 0.2551 -0.7496
vt 0.2999 0.2551 -0.7496
vt 0.2939 0.2551 -0.7496
vt 0.2882 0.2551 -0.7496
vt 0.2826 0.2663 0.7496
vt 0.2556 0.9574 -0.4777
vt 0.2644 0.9575 -0.3225
vt 0.2644 0.9662 -0.3225
vt 0.2556 0.9662 -0.3225
vt 0.0743 0.9567 -0.3225
vt 0.0743 0.9654 -0.3225
vt 0.0655 0.9654 -0.3225
vt 0.0656 0.9566 -0.3225
vt 0.9796 0.5157 -0.1383
vt 0.9796 0.5237 0.1383
vt 0.9696 0.5237 -0.1383
vt 0.9696 0.5157 0.1196
vt 0.7536 0.0201 -0.1383
vt 0.7536 0.0281 0.1383
vt 0.7437 0.0281 -0.1383
vt 0.7437 0.0201 0.1197
vt 0.2524 0.9662 -0.3225
vt 0.2525 0.9574 -0.3225
vt 0.9696 0.9251 -0.1383
vt 0.9796 0.9251 -0.1383
vt 0.9796 0.9817 -0.1383
vt 0.9696 0.9817 -0.1383
vt 0.0429 0.9653 -0.3225
vt 0.0429 0.9565 -0.3225
vt 0.7437 0.4273 -0.1383
vt 0.7536 0.4273 -0.1383
vt 0.7536 0.4840 -0.1383
vt 0.7437 0.4840 -0.1383
vt 0.0970 0.9568 -0.3225
vt 0.0969 0.9655 -0.3225
vt 0.9696 0.9167 -0.1383
vt 0.9796 0.9167 -0.1383
vt 0.7437 0.4189 -0.1383
vt 0.7536 0.4189 -0.1383
vt 0.1005 0.9568 -0.3225
vt 0.1004 0.9656 -0.3225
vt 0.9796 0.8192 -0.1383
vt 0.9696 0.8192 -0.1383
vt 0.0452 0.9338 -0.2575
vt 0.0452 0.9250 -0.2575
vt 0.1720 0.9250 -0.2575
vt 0.1720 0.9338 0.2575
vt 0.7536 0.3227 -0.1383
vt 0.7437 0.3227 -0.1383
vt 0.1259 0.9657 -0.3225
vt 0.1259 0.9569 -0.3225
vt 0.0779 0.8789 0.2889
vt 0.1250 0.8789 -0.2889
vt 0.1250 0.8877 -0.2889
vt 0.0779 0.8877 -0.2889
vt 0.7974 0.4140 -0.1383
vt 0.8001 0.4207 -0.1383
vt 0.8969 0.9651 -0.3225
vt 0.8468 0.9653 -0.3225
vt 0.8468 0.9565 -0.3225
vt 0.8969 0.9562 -0.3225
vt 0.9229 0.9172 -0.1383
vt 0.9256 0.9105 -0.1383
vt 0.1723 0.8789 -0.2889
vt 0.1723 0.8877 -0.2889
vt 0.8395 0.4027 -0.1383
vt 0.8445 0.4083 -0.1383
vt 0.7967 0.9656 -0.3225
vt 0.7967 0.9568 -0.3225
vt 0.8787 0.9038 -0.1383
vt 0.8836 0.8983 -0.1383
vt 0.2206 0.8789 -0.2889
vt 0.2206 0.8877 -0.2889
vt 0.8826 0.3869 -0.1383
vt 0.8884 0.3918 -0.1383
vt 0.7475 0.9658 -0.3225
vt 0.7475 0.9570 -0.3225
vt 0.8348 0.8865 -0.1383
vt 0.8406 0.8817 -0.1383
vt 0.2682 0.8789 -0.2889
vt 0.2682 0.8877 -0.2889
vt 0.9266 0.3655 -0.1383
vt 0.9352 0.3685 -0.1383
vt 0.6970 0.9661 -0.3225
vt 0.6970 0.9572 -0.3225
vt 0.7880 0.8625 -0.1383
vt 0.7966 0.8597 -0.1383
vt 0.3165 0.8789 0.1838
vt 0.3165 0.8877 -0.2889
vt 0.9693 0.3351 -0.1383
vt 0.9803 0.3384 -0.1383
vt 0.6465 0.9662 -0.3225
vt 0.6464 0.9574 0.4777
vt 0.7433 0.8320 -0.1383
vt 0.7543 0.8324 -0.1383
vt 0.9693 0.3227 -0.1383
vt 0.9803 0.3227 -0.1383
vt 0.6419 0.9663 -0.3225
vt 0.6419 0.9575 -0.3225
vt 0.7433 0.8192 -0.1383
vt 0.7543 0.8192 -0.1383
vt 0.5012 0.9665 -0.3225
vt 0.5012 0.9577 -0.3225
vt 0.5118 0.9577 -0.3225
vt 0.5118 0.9665 -0.3225
vt 0.7543 0.5237 -0.1383
vt 0.7543 0.5157 -0.1383
vt 0.9693 0.0201 -0.1383
vt 0.9693 0.0281 -0.1383
vt 0.9803 0.0281 -0.1383
vt 0.9803 0.0201 -0.1383
vt 0.5150 0.9577 -0.3225
vt 0.5150 0.9665 -0.3225
vt 0.7433 0.5237 -0.1383
vt 0.7433 0.5157 -0.1383
vt 0.7734 0.9251 -0.2575
vt 0.7734 0.9339 -0.2575
vt 0.5361 0.9338 -0.2575
vt 0.5361 0.9250 -0.2575
vt 0.4093 0.9338 0.2575
vt 0.4093 0.9250 -0.2575
vt 0.4727 0.9250 -0.2575
vt 0.4727 0.9338 0.0000
vt 0.9693 0.1754 -0.1383
vt 0.9803 0.1754 -0.1383
vt 0.5785 0.9664 -0.3225
vt 0.5784 0.9576 -0.3225
vt 0.7433 0.6715 -0.1383
vt 0.7543 0.6715 -0.1383
vt 0.5539 0.8790 -0.2889
vt 0.5539 0.8878 -0.2889
vt 0.9696 0.8324 -0.1383
vt 0.7536 0.3351 -0.1383
vt 0.9796 0.8324 -0.1383
vt 0.7437 0.3351 -0.1383
vt 0.1228 0.9657 -0.3225
vt 0.1228 0.9569 -0.3225
vt 0.0555 0.8877 -0.2889
vt 0.0555 0.8789 -0.2889
vt 0.5044 0.9250 -0.2575
vt 0.5044 0.9338 -0.1287
vt 0.9693 0.1018 -0.1383
vt 0.9803 0.1018 -0.1383
vt 0.8743 0.6311 0.1034
vt 0.8743 0.6582 -0.1034
vt 0.8426 0.6582 -0.1034
vt 0.8426 0.6311 0.1034
vt 0.7433 0.5976 -0.1383
vt 0.7543 0.5976 -0.1383
vt 0.5123 0.9250 -0.2575
vt 0.5123 0.9338 -0.1609
vt 0.9693 0.0834 -0.1383
vt 0.9803 0.0834 -0.1383
vt 0.7148 0.8921 0.1612
vt 0.7148 0.8771 -0.1612
vt 0.5907 0.8775 0.1612
vt 0.5907 0.8926 -0.1612
vt 0.7433 0.5791 -0.1383
vt 0.7543 0.5791 -0.1383
vt 0.5203 0.9338 -0.1931
vt 0.5203 0.9250 -0.2575
vt 0.9803 0.0649 -0.1383
vt 0.9693 0.0649 -0.1383
vt 0.5309 0.9577 -0.3225
vt 0.5309 0.9665 -0.3225
vt 0.7543 0.5607 -0.1383
vt 0.7433 0.5607 -0.1383
vt 0.8744 0.1417 0.3658
vt 0.8744 0.1687 -0.3658
vt 0.8427 0.1687 0.3658
vt 0.8427 0.1417 -0.3658
vt 0.8426 0.7164 0.1034
vt 0.8743 0.7164 0.1034
vt 0.9324 0.6582 0.1034
vt 0.9324 0.6311 0.1034
vt 0.8743 0.5730 0.1034
vt 0.8426 0.5730 0.1034
vt 0.7845 0.6311 0.1034
vt 0.7845 0.6582 0.1034
vt 0.7846 0.1417 0.3658
vt 0.7846 0.1687 0.3658
vt 0.8427 0.2268 0.3658
vt 0.8744 0.2268 0.3658
vt 0.9325 0.1687 0.3658
vt 0.9325 0.1417 0.3658
vt 0.8744 0.0836 0.3658
vt 0.8427 0.0836 0.3658
vt 0.5114 0.3453 -0.2504
vt 0.5114 0.5542 -0.5000
vt 0.5030 0.5542 -0.7496
vt 0.5030 0.3453 -0.7496
vt 0.4952 0.5542 -0.7496
vt 0.4952 0.3453 -0.7496
vt 0.4879 0.5542 -0.7496
vt 0.4879 0.3453 -0.7496
vt 0.4816 0.5542 -0.7496
vt 0.4816 0.3453 -0.7496
vt 0.5429 0.3453 -0.7496
vt 0.5429 0.5542 -0.7496
vt 0.5363 0.5542 -0.7496
vt 0.5363 0.3453 -0.7496
vt 0.5284 0.5542 -0.7496
vt 0.5284 0.3453 -0.7496
vt 0.5201 0.5542 -0.7496
vt 0.5201 0.3453 -0.7496
vt 0.5114 0.7632 -0.7496
vt 0.5111 0.7757 -0.7496
vt 0.5007 0.7757 -0.7496
vt 0.5030 0.7632 -0.7496
vt 0.4902 0.7757 -0.7496
vt 0.4952 0.7632 -0.7496
vt 0.4790 0.7757 -0.7496
vt 0.4879 0.7632 -0.7496
vt 0.4658 0.7757 -0.7496
vt 0.4816 0.7632 -0.7496
vt 0.5429 0.7632 -0.7496
vt 0.5557 0.7757 -0.7496
vt 0.5428 0.7757 -0.7496
vt 0.5363 0.7632 -0.7496
vt 0.5319 0.7757 -0.7496
vt 0.5284 0.7632 -0.7496
vt 0.5215 0.7757 -0.7496
vt 0.5201 0.7632 -0.7496
vt 0.5113 0.7903 -0.7496
vt 0.5002 0.7903 -0.7496
vt 0.4897 0.7903 -0.7496
vt 0.4803 0.7903 -0.7496
vt 0.4732 0.7903 -0.7496
vt 0.5497 0.7903 -0.7496
vt 0.5425 0.7903 -0.7496
vt 0.5331 0.7903 -0.7496
vt 0.5225 0.7903 -0.7496
vt 0.5113 0.7940 -0.7496
vt 0.5002 0.7940 -0.7496
vt 0.4897 0.7940 -0.7496
vt 0.4803 0.7940 -0.7496
vt 0.4732 0.7940 -0.7496
vt 0.5497 0.7940 -0.7496
vt 0.5425 0.7940 -0.7496
vt 0.5331 0.7940 -0.7496
vt 0.5225 0.7940 -0.7496
vt 0.5117 0.8128 -0.7496
vt 0.4993 0.8128 -0.7496
vt 0.4875 0.8128 -0.7496
vt 0.4752 0.8128 -0.7496
vt 0.4608 0.8128 -0.7496
vt 0.5636 0.8128 -0.7496
vt 0.5489 0.8128 -0.7496
vt 0.5363 0.8128 -0.7496
vt 0.5242 0.8128 -0.7496
vt 0.5117 0.8204 -0.7496
vt 0.4993 0.8204 -0.7496
vt 0.4875 0.8204 -0.7496
vt 0.4752 0.8204 -0.7496
vt 0.4608 0.8204 -0.7496
vt 0.5636 0.8204 -0.7496
vt 0.5489 0.8204 -0.7496
vt 0.5363 0.8204 -0.7496
vt 0.5242 0.8204 -0.7496
vt 0.5126 0.8439 0.7496
vt 0.3763 0.3453 -0.2504
vt 0.3763 0.4497 -0.3752
vt 0.3679 0.4497 -0.7496
vt 0.3679 0.3453 -0.7496
vt 0.3601 0.4497 -0.7496
vt 0.3601 0.3453 -0.7496
vt 0.3528 0.4497 -0.7496
vt 0.3528 0.3453 -0.7496
vt 0.3465 0.4497 -0.7496
vt 0.3465 0.3453 -0.7496
vt 0.4078 0.3453 -0.7496
vt 0.4078 0.4497 -0.7496
vt 0.4013 0.4497 -0.7496
vt 0.4013 0.3453 -0.7496
vt 0.3934 0.4497 -0.7496
vt 0.3934 0.3453 -0.7496
vt 0.3850 0.4497 -0.7496
vt 0.3850 0.3453 -0.7496
vt 0.3763 0.7632 -0.7496
vt 0.3761 0.7757 -0.7496
vt 0.3656 0.7757 -0.7496
vt 0.3679 0.7632 -0.7496
vt 0.3551 0.7757 -0.7496
vt 0.3601 0.7632 -0.7496
vt 0.3439 0.7757 -0.7496
vt 0.3528 0.7632 -0.7496
vt 0.3307 0.7757 -0.7496
vt 0.3465 0.7632 -0.7496
vt 0.4078 0.7632 -0.7496
vt 0.4206 0.7757 -0.7496
vt 0.4077 0.7757 -0.7496
vt 0.4013 0.7632 -0.7496
vt 0.3968 0.7757 -0.7496
vt 0.3934 0.7632 -0.7496
vt 0.3864 0.7757 -0.7496
vt 0.3850 0.7632 -0.7496
vt 0.3762 0.7903 -0.7496
vt 0.3651 0.7903 -0.7496
vt 0.3546 0.7903 -0.7496
vt 0.3453 0.7903 -0.7496
vt 0.3381 0.7903 -0.7496
vt 0.4146 0.7903 -0.7496
vt 0.4074 0.7903 -0.7496
vt 0.3980 0.7903 -0.7496
vt 0.3874 0.7903 -0.7496
vt 0.3762 0.7940 -0.7496
vt 0.3651 0.7940 -0.7496
vt 0.3546 0.7940 -0.7496
vt 0.3453 0.7940 -0.7496
vt 0.3381 0.7940 -0.7496
vt 0.4146 0.7940 -0.7496
vt 0.4074 0.7940 -0.7496
vt 0.3980 0.7940 -0.7496
vt 0.3874 0.7940 -0.7496
vt 0.3766 0.8128 -0.7496
vt 0.3642 0.8128 -0.7496
vt 0.3524 0.8128 -0.7496
vt 0.3401 0.8128 -0.7496
vt 0.3257 0.8128 -0.7496
vt 0.4285 0.8128 -0.7496
vt 0.4138 0.8128 -0.7496
vt 0.4012 0.8128 -0.7496
vt 0.3891 0.8128 -0.7496
vt 0.3766 0.8204 -0.7496
vt 0.3642 0.8204 -0.7496
vt 0.3524 0.8204 -0.7496
vt 0.3401 0.8204 -0.7496
vt 0.3257 0.8204 -0.7496
vt 0.4285 0.8204 -0.7496
vt 0.4138 0.8204 -0.7496
vt 0.4012 0.8204 -0.7496
vt 0.3891 0.8204 -0.7496
vt 0.3776 0.8439 0.7496
vt 0.3679 0.6587 -0.7496
vt 0.3763 0.6587 -0.6248
vt 0.3763 0.7109 -0.6872
vt 0.3679 0.7109 -0.7496
vt 0.3601 0.6587 -0.7496
vt 0.3601 0.7109 -0.7496
vt 0.3528 0.6587 -0.7496
vt 0.3528 0.7109 -0.7496
vt 0.3465 0.6587 -0.7496
vt 0.3465 0.7109 -0.7496
vt 0.4013 0.6587 -0.7496
vt 0.4078 0.6587 -0.7496
vt 0.4078 0.7109 -0.7496
vt 0.4013 0.7109 -0.7496
vt 0.3934 0.6587 -0.7496
vt 0.3934 0.7109 -0.7496
vt 0.3850 0.6587 -0.7496
vt 0.3850 0.7109 -0.7496
vt 0.3210 0.5509 0.3335
vt 0.2984 0.5725 0.3335
vt 0.2992 0.5413 0.3335
vt 0.3296 0.5732 0.3335
vt 0.3201 0.5950 0.3335
vt 0.2984 0.6038 -0.3335
vt 0.2763 0.5947 0.3335
vt 0.2671 0.5721 0.3335
vt 0.2765 0.5502 0.3335
vt 0.2985 0.6682 0.4277
vt 0.2985 0.6369 0.4277
vt 0.3205 0.6591 0.4277
vt 0.3296 0.6368 0.4277
vt 0.3204 0.6148 0.4277
vt 0.2982 0.6056 -0.4277
vt 0.2767 0.6144 0.4277
vt 0.2673 0.6366 0.4277
vt 0.2762 0.6588 0.4277
vt 0.3763 0.5020 -0.4376
vt 0.3679 0.5020 -0.7496
vt 0.3601 0.5020 -0.7496
vt 0.3528 0.5020 -0.7496
vt 0.3465 0.5020 -0.7496
vt 0.4078 0.5020 -0.7496
vt 0.4013 0.5020 -0.7496
vt 0.3934 0.5020 -0.7496
vt 0.3850 0.5020 -0.7496
vt 0.3763 0.5542 -0.5000
vt 0.3679 0.5542 -0.7496
vt 0.3601 0.5542 -0.7496
vt 0.3528 0.5542 -0.7496
vt 0.3465 0.5542 -0.7496
vt 0.4078 0.5542 -0.7496
vt 0.4013 0.5542 -0.7496
vt 0.3934 0.5542 -0.7496
vt 0.3850 0.5542 -0.7496
vt 0.1590 0.7109 -0.7496
vt 0.1674 0.7109 -0.6872
vt 0.1512 0.7109 -0.7496
vt 0.1439 0.7109 -0.7496
vt 0.1376 0.7109 -0.7496
vt 0.1924 0.7109 -0.7496
vt 0.1989 0.7109 -0.7496
vt 0.1845 0.7109 -0.7496
vt 0.1761 0.7109 -0.7496
# 901 texture coords

o Gate_Left
g Gate_Left
usemtl wire_214229166
s 8
f 1/1/1 2/2/2 3/3/3 4/4/4 
f 4/4/4 3/3/3 5/5/5 6/6/6 
f 6/6/6 5/5/5 7/7/7 8/8/8 
f 8/8/8 7/7/7 9/9/9 10/10/10 
f 10/11/10 9/12/9 11/13/11 12/14/12 
f 12/14/12 11/13/11 13/15/13 14/16/14 
f 14/16/14 13/15/13 15/17/15 16/18/16 
f 16/18/16 15/17/15 2/2/2 1/1/1 
s off
f 17/19/17 18/20/18 19/21/19 20/22/20 
f 20/22/20 19/21/19 21/23/21 22/24/22 
f 22/24/22 21/23/21 23/25/23 24/26/24 
f 24/26/24 23/25/23 25/27/25 26/28/26 
f 26/29/26 25/30/25 27/31/27 28/32/28 
f 28/32/28 27/31/27 29/33/29 30/34/30 
f 30/34/30 29/33/29 31/35/31 32/36/32 
f 32/36/32 31/35/31 18/20/18 17/19/17 
f 18/20/18 33/37/33 34/38/34 19/21/19 
f 19/21/19 34/38/34 35/39/35 21/23/21 
f 21/23/21 35/39/35 36/40/36 23/25/23 
f 23/25/23 36/40/36 37/41/37 25/27/25 
f 25/30/25 37/42/37 38/43/38 27/31/27 
f 27/31/27 38/43/38 39/44/39 29/33/29 
f 29/33/29 39/44/39 40/45/40 31/35/31 
f 31/35/31 40/45/40 33/37/33 18/20/18 
f 33/37/33 41/46/41 42/47/42 34/38/34 
f 34/38/34 42/47/42 43/48/43 35/39/35 
f 35/39/35 43/48/43 44/49/44 36/40/36 
f 36/40/36 44/49/44 45/50/45 37/41/37 
f 37/42/37 45/51/45 46/52/46 38/43/38 
f 38/43/38 46/52/46 47/53/47 39/44/39 
f 39/44/39 47/53/47 48/54/48 40/45/40 
f 40/45/40 48/54/48 41/46/41 33/37/33 
f 41/46/41 49/55/49 50/56/50 42/47/42 
f 42/47/42 50/56/50 51/57/51 43/48/43 
f 43/48/43 51/57/51 52/58/52 44/49/44 
f 44/49/44 52/58/52 53/59/53 45/50/45 
f 45/51/45 53/60/53 54/61/54 46/52/46 
f 46/52/46 54/61/54 55/62/55 47/53/47 
f 47/53/47 55/62/55 56/63/56 48/54/48 
f 48/54/48 56/63/56 49/55/49 41/46/41 
f 49/55/49 57/64/57 58/65/58 50/56/50 
f 50/56/50 58/65/58 59/66/59 51/57/51 
f 51/57/51 59/66/59 60/67/60 52/58/52 
f 52/58/52 60/67/60 61/68/61 53/59/53 
f 53/60/53 61/69/61 62/70/62 54/61/54 
f 54/61/54 62/70/62 63/71/63 55/62/55 
f 55/62/55 63/71/63 64/72/64 56/63/56 
f 56/63/56 64/72/64 57/64/57 49/55/49 
f 57/64/57 65/73/65 58/65/58 
f 58/65/58 65/73/65 59/66/59 
f 59/66/59 65/73/65 60/67/60 
f 60/67/60 65/73/65 61/68/61 
f 61/69/61 65/73/65 62/70/62 
f 62/70/62 65/73/65 63/71/63 
f 63/71/63 65/73/65 64/72/64 
f 64/72/64 65/73/65 57/64/57 
s 8
f 66/74/66 67/75/67 68/76/68 69/77/69 
f 69/77/69 68/76/68 70/78/70 71/79/71 
f 71/79/71 70/78/70 72/80/72 73/81/73 
f 73/81/73 72/80/72 74/82/74 75/83/75 
f 75/84/75 74/85/74 76/86/76 77/87/77 
f 77/87/77 76/86/76 78/88/78 79/89/79 
f 79/89/79 78/88/78 80/90/80 81/91/81 
f 81/91/81 80/90/80 67/75/67 66/74/66 
s off
f 82/92/82 83/93/18 84/94/19 85/95/83 
f 85/95/83 84/94/19 86/96/84 87/97/85 
f 87/97/85 86/96/84 88/98/23 89/99/86 
f 89/99/86 88/98/23 90/100/25 91/101/87 
f 91/102/87 90/103/25 92/104/27 93/105/88 
f 93/105/88 92/104/27 94/106/89 95/107/90 
f 95/107/90 94/106/89 96/108/31 97/109/91 
f 97/109/91 96/108/31 83/93/18 82/92/82 
f 83/93/18 98/110/92 99/111/93 84/94/19 
f 84/94/19 99/111/93 100/112/94 86/96/84 
f 86/96/84 100/112/94 101/113/95 88/98/23 
f 88/98/23 101/113/95 102/114/96 90/100/25 
f 90/103/25 102/115/96 103/116/97 92/104/27 
f 92/104/27 103/116/97 104/117/98 94/106/89 
f 94/106/89 104/117/98 105/118/99 96/108/31 
f 96/108/31 105/118/99 98/110/92 83/93/18 
f 98/110/92 106/119/100 107/120/101 99/111/93 
f 99/111/93 107/120/101 108/121/102 100/112/94 
f 100/112/94 108/121/102 109/122/103 101/113/95 
f 101/113/95 109/122/103 110/123/104 102/114/96 
f 102/115/96 110/124/104 111/125/105 103/116/97 
f 103/116/97 111/125/105 112/126/106 104/117/98 
f 104/117/98 112/126/106 113/127/107 105/118/99 
f 105/118/99 113/127/107 106/119/100 98/110/92 
f 106/119/100 114/128/108 115/129/109 107/120/101 
f 107/120/101 115/129/109 116/130/110 108/121/102 
f 108/121/102 116/130/110 117/131/111 109/122/103 
f 109/122/103 117/131/111 118/132/112 110/123/104 
f 110/124/104 118/133/112 119/134/113 111/125/105 
f 111/125/105 119/134/113 120/135/114 112/126/106 
f 112/126/106 120/135/114 121/136/115 113/127/107 
f 113/127/107 121/136/115 114/128/108 106/119/100 
f 114/128/108 122/137/116 123/138/117 115/129/109 
f 115/129/109 123/138/117 124/139/118 116/130/110 
f 116/130/110 124/139/118 125/140/119 117/131/111 
f 117/131/111 125/140/119 126/141/120 118/132/112 
f 118/133/112 126/142/120 127/143/121 119/134/113 
f 119/134/113 127/143/121 128/144/122 120/135/114 
f 120/135/114 128/144/122 129/145/123 121/136/115 
f 121/136/115 129/145/123 122/137/116 114/128/108 
f 122/137/116 130/146/124 123/138/117 
f 123/138/117 130/146/124 124/139/118 
f 124/139/118 130/146/124 125/140/119 
f 125/140/119 130/146/124 126/141/120 
f 126/142/120 130/146/124 127/143/121 
f 127/143/121 130/146/124 128/144/122 
f 128/144/122 130/146/124 129/145/123 
f 129/145/123 130/146/124 122/137/116 
s 8
f 131/147/125 132/148/126 133/149/127 134/150/128 
f 135/151/129 131/147/125 134/150/128 136/152/130 
f 137/153/131 135/151/129 136/152/130 138/154/132 
f 139/155/133 137/153/131 138/154/132 140/156/134 
f 141/157/135 139/158/133 140/159/134 142/160/136 
f 143/161/137 141/157/135 142/160/136 144/162/138 
f 145/163/139 143/161/137 144/162/138 146/164/140 
f 132/148/126 145/163/139 146/164/140 133/149/127 
s off
f 67/165/67 147/166/141 68/167/68 
f 68/167/68 147/166/141 70/168/70 
f 70/168/70 147/166/141 72/169/72 
f 72/169/72 147/166/141 74/170/74 
f 74/170/74 147/166/141 76/171/76 
f 76/171/76 147/166/141 78/172/78 
f 78/172/78 147/166/141 80/173/80 
f 80/173/80 147/166/141 67/165/67 
f 131/174/125 148/175/142 132/176/126 
f 135/177/129 148/175/142 131/174/125 
f 137/178/131 148/175/142 135/177/129 
f 139/179/133 148/175/142 137/178/131 
f 141/180/135 148/175/142 139/179/133 
f 143/181/137 148/175/142 141/180/135 
f 145/182/139 148/175/142 143/181/137 
f 132/176/126 148/175/142 145/182/139 
s 8
f 149/183/143 150/184/144 151/185/145 152/186/146 
f 152/186/146 151/185/145 153/187/147 154/188/148 
f 154/188/148 153/187/147 155/189/149 156/190/150 
f 156/190/150 155/189/149 157/191/151 158/192/152 
f 158/193/152 157/194/151 159/195/153 160/196/154 
f 160/196/154 159/195/153 161/197/155 162/198/156 
f 162/198/156 161/197/155 163/199/157 164/200/158 
f 164/200/158 163/199/157 150/184/144 149/183/143 
s off
f 150/184/144 165/201/159 166/202/160 151/185/145 
f 151/185/145 166/202/160 167/203/161 153/187/147 
f 153/187/147 167/203/161 168/204/162 155/189/149 
f 155/189/149 168/204/162 169/205/163 157/191/151 
f 157/194/151 169/206/163 170/207/164 159/195/153 
f 159/195/153 170/207/164 171/208/165 161/197/155 
f 161/197/155 171/208/165 172/209/166 163/199/157 
f 163/199/157 172/209/166 165/201/159 150/184/144 
f 165/201/159 173/210/167 174/211/168 166/202/160 
f 166/202/160 174/211/168 175/212/169 167/203/161 
f 167/203/161 175/212/169 176/213/170 168/204/162 
f 168/204/162 176/213/170 177/214/171 169/205/163 
f 169/206/163 177/215/171 178/216/172 170/207/164 
f 170/207/164 178/216/172 179/217/173 171/208/165 
f 171/208/165 179/217/173 180/218/174 172/209/166 
f 172/209/166 180/218/174 173/210/167 165/201/159 
f 173/210/167 181/219/175 182/220/176 174/211/168 
f 174/211/168 182/220/176 183/221/177 175/212/169 
f 175/212/169 183/221/177 184/222/178 176/213/170 
f 176/213/170 184/222/178 185/223/179 177/214/171 
f 177/215/171 185/224/179 186/225/180 178/216/172 
f 178/216/172 186/225/180 187/226/181 179/217/173 
f 179/217/173 187/226/181 188/227/182 180/218/174 
f 180/218/174 188/227/182 181/219/175 173/210/167 
f 181/219/175 189/228/183 190/229/184 182/220/176 
f 182/220/176 190/229/184 191/230/185 183/221/177 
f 183/221/177 191/230/185 192/231/186 184/222/178 
f 184/222/178 192/231/186 193/232/187 185/223/179 
f 185/224/179 193/233/187 194/234/188 186/225/180 
f 186/225/180 194/234/188 195/235/189 187/226/181 
f 187/226/181 195/235/189 196/236/190 188/227/182 
f 188/227/182 196/236/190 189/228/183 181/219/175 
f 189/228/183 197/237/191 198/238/192 190/229/184 
f 190/229/184 198/238/192 199/239/193 191/230/185 
f 191/230/185 199/239/193 200/240/194 192/231/186 
f 192/231/186 200/240/194 201/241/195 193/232/187 
f 193/233/187 201/242/195 202/243/196 194/234/188 
f 194/234/188 202/243/196 203/244/197 195/235/189 
f 195/235/189 203/244/197 204/245/198 196/236/190 
f 196/236/190 204/245/198 197/237/191 189/228/183 
f 197/237/191 205/246/199 198/238/192 
f 198/238/192 205/246/199 199/239/193 
f 199/239/193 205/246/199 200/240/194 
f 200/240/194 205/246/199 201/241/195 
f 201/242/195 205/246/199 202/243/196 
f 202/243/196 205/246/199 203/244/197 
f 203/244/197 205/246/199 204/245/198 
f 204/245/198 205/246/199 197/237/191 
s 8
f 206/247/200 207/248/201 208/249/202 209/250/203 
f 209/250/203 208/249/202 210/251/204 211/252/205 
f 211/252/205 210/251/204 212/253/206 213/254/207 
f 213/254/207 212/253/206 214/255/208 215/256/209 
f 215/257/209 214/258/208 216/259/210 217/260/211 
f 217/260/211 216/259/210 218/261/212 219/262/213 
f 219/262/213 218/261/212 220/263/214 221/264/215 
f 221/264/215 220/263/214 207/248/201 206/247/200 
s off
f 207/248/201 222/265/18 223/266/19 208/249/202 
f 208/249/202 223/266/19 224/267/21 210/251/204 
f 210/251/204 224/267/21 225/268/23 212/253/206 
f 212/253/206 225/268/23 226/269/25 214/255/208 
f 214/258/208 226/270/25 227/271/27 216/259/210 
f 216/259/210 227/271/27 228/272/29 218/261/212 
f 218/261/212 228/272/29 229/273/31 220/263/214 
f 220/263/214 229/273/31 222/265/18 207/248/201 
f 222/265/18 230/274/216 231/275/34 223/266/19 
f 223/266/19 231/275/34 232/276/35 224/267/21 
f 224/267/21 232/276/35 233/277/36 225/268/23 
f 225/268/23 233/277/36 234/278/217 226/269/25 
f 226/270/25 234/279/217 235/280/38 227/271/27 
f 227/271/27 235/280/38 236/281/218 228/272/29 
f 228/272/29 236/281/218 237/282/40 229/273/31 
f 229/273/31 237/282/40 230/274/216 222/265/18 
f 230/274/216 238/283/41 239/284/42 231/275/34 
f 231/275/34 239/284/42 240/285/219 232/276/35 
f 232/276/35 240/285/219 241/286/44 233/277/36 
f 233/277/36 241/286/44 242/287/45 234/278/217 
f 234/279/217 242/288/45 243/289/46 235/280/38 
f 235/280/38 243/289/46 244/290/220 236/281/218 
f 236/281/218 244/290/220 245/291/48 237/282/40 
f 237/282/40 245/291/48 238/283/41 230/274/216 
f 238/283/41 246/292/49 247/293/50 239/284/42 
f 239/284/42 247/293/50 248/294/51 240/285/219 
f 240/285/219 248/294/51 249/295/52 241/286/44 
f 241/286/44 249/295/52 250/296/53 242/287/45 
f 242/288/45 250/297/53 251/298/54 243/289/46 
f 243/289/46 251/298/54 252/299/55 244/290/220 
f 244/290/220 252/299/55 253/300/56 245/291/48 
f 245/291/48 253/300/56 246/292/49 238/283/41 
f 246/292/49 254/301/221 255/302/222 247/293/50 
f 247/293/50 255/302/222 256/303/223 248/294/51 
f 248/294/51 256/303/223 257/304/224 249/295/52 
f 249/295/52 257/304/224 258/305/225 250/296/53 
f 250/297/53 258/306/225 259/307/226 251/298/54 
f 251/298/54 259/307/226 260/308/227 252/299/55 
f 252/299/55 260/308/227 261/309/228 253/300/56 
f 253/300/56 261/309/228 254/301/221 246/292/49 
f 254/310/221 262/311/229 255/312/222 
f 255/312/222 262/311/229 256/313/223 
f 256/313/223 262/311/229 257/314/224 
f 257/314/224 262/311/229 258/315/225 
f 258/315/225 262/311/229 259/316/226 
f 259/316/226 262/311/229 260/317/227 
f 260/317/227 262/311/229 261/318/228 
f 261/318/228 262/311/229 254/310/221 
s 8
f 263/319/2 264/320/201 265/321/202 266/322/203 
f 266/322/203 265/321/202 267/323/230 268/324/231 
f 268/324/231 267/323/230 269/325/232 270/326/207 
f 270/326/207 269/325/232 271/327/208 272/328/233 
f 272/329/233 271/330/208 273/331/210 274/332/211 
f 274/332/211 273/331/210 275/333/234 276/334/235 
f 276/334/235 275/333/234 277/335/214 278/336/215 
f 278/336/215 277/335/214 264/320/201 263/319/2 
s off
f 264/320/201 279/337/18 280/338/19 265/321/202 
f 265/321/202 280/338/19 281/339/84 267/323/230 
f 267/323/230 281/339/84 282/340/23 269/325/232 
f 269/325/232 282/340/23 283/341/236 271/327/208 
f 271/330/208 283/342/236 284/343/27 273/331/210 
f 273/331/210 284/343/27 285/344/89 275/333/234 
f 275/333/234 285/344/89 286/345/31 277/335/214 
f 277/335/214 286/345/31 279/337/18 264/320/201 
f 279/337/18 287/346/33 288/347/34 280/338/19 
f 280/338/19 288/347/34 289/348/35 281/339/84 
f 281/339/84 289/348/35 290/349/36 282/340/23 
f 282/340/23 290/349/36 291/350/217 283/341/236 
f 283/342/236 291/351/217 292/352/38 284/343/27 
f 284/343/27 292/352/38 293/353/39 285/344/89 
f 285/344/89 293/353/39 294/354/40 286/345/31 
f 286/345/31 294/354/40 287/346/33 279/337/18 
f 287/346/33 295/355/41 296/356/42 288/347/34 
f 288/347/34 296/356/42 297/357/43 289/348/35 
f 289/348/35 297/357/43 298/358/44 290/349/36 
f 290/349/36 298/358/44 299/359/45 291/350/217 
f 291/351/217 299/360/45 300/361/46 292/352/38 
f 292/352/38 300/361/46 301/362/47 293/353/39 
f 293/353/39 301/362/47 302/363/48 294/354/40 
f 294/354/40 302/363/48 295/355/41 287/346/33 
f 295/355/41 303/364/49 304/365/50 296/356/42 
f 296/356/42 304/365/50 305/366/51 297/357/43 
f 297/357/43 305/366/51 306/367/237 298/358/44 
f 298/358/44 306/367/237 307/368/238 299/359/45 
f 299/360/45 307/369/238 308/370/239 300/361/46 
f 300/361/46 308/370/239 309/371/240 301/362/47 
f 301/362/47 309/371/240 310/372/56 302/363/48 
f 302/363/48 310/372/56 303/364/49 295/355/41 
f 303/364/49 311/373/57 312/374/58 304/365/50 
f 304/365/50 312/374/58 313/375/241 305/366/51 
f 305/366/51 313/375/241 314/376/60 306/367/237 
f 306/367/237 314/376/60 315/377/242 307/368/238 
f 307/369/238 315/378/242 316/379/62 308/370/239 
f 308/370/239 316/379/62 317/380/243 309/371/240 
f 309/371/240 317/380/243 318/381/64 310/372/56 
f 310/372/56 318/381/64 311/373/57 303/364/49 
f 311/373/57 319/382/244 312/374/58 
f 312/374/58 319/382/244 313/375/241 
f 313/375/241 319/382/244 314/376/60 
f 314/376/60 319/382/244 315/377/242 
f 315/378/242 319/382/244 316/379/62 
f 316/379/62 319/382/244 317/380/243 
f 317/380/243 319/382/244 318/381/64 
f 318/381/64 319/382/244 311/373/57 
s 8
f 320/383/245 321/384/246 322/385/247 323/386/248 
f 323/386/248 322/385/247 324/387/249 325/388/250 
f 325/388/250 324/387/249 326/389/251 327/390/252 
f 327/390/252 326/389/251 328/391/253 329/392/254 
f 329/393/254 328/394/253 330/395/255 331/396/256 
f 331/396/256 330/395/255 332/397/257 333/398/258 
f 333/398/258 332/397/257 334/399/259 335/400/260 
f 335/400/260 334/399/259 321/384/246 320/383/245 
s off
f 321/384/246 336/401/261 337/402/262 322/385/247 
f 322/385/247 337/402/262 338/403/263 324/387/249 
f 324/387/249 338/403/263 339/404/264 326/389/251 
f 326/389/251 339/404/264 340/405/265 328/391/253 
f 328/394/253 340/406/265 341/407/266 330/395/255 
f 330/395/255 341/407/266 342/408/267 332/397/257 
f 332/397/257 342/408/267 343/409/268 334/399/259 
f 334/399/259 343/409/268 336/401/261 321/384/246 
f 336/401/261 344/410/269 345/411/270 337/402/262 
f 337/402/262 345/411/270 346/412/271 338/403/263 
f 338/403/263 346/412/271 347/413/272 339/404/264 
f 339/404/264 347/413/272 348/414/273 340/405/265 
f 340/406/265 348/415/273 349/416/274 341/407/266 
f 341/407/266 349/416/274 350/417/275 342/408/267 
f 342/408/267 350/417/275 351/418/276 343/409/268 
f 343/409/268 351/418/276 344/410/269 336/401/261 
f 344/410/269 352/419/277 353/420/278 345/411/270 
f 345/411/270 353/420/278 354/421/279 346/412/271 
f 346/412/271 354/421/279 355/422/280 347/413/272 
f 347/413/272 355/422/280 356/423/281 348/414/273 
f 348/415/273 356/424/281 357/425/282 349/416/274 
f 349/416/274 357/425/282 358/426/283 350/417/275 
f 350/417/275 358/426/283 359/427/284 351/418/276 
f 351/418/276 359/427/284 352/419/277 344/410/269 
f 352/419/277 360/428/108 361/429/109 353/420/278 
f 353/420/278 361/429/109 362/430/285 354/421/279 
f 354/421/279 362/430/285 363/431/111 355/422/280 
f 355/422/280 363/431/111 364/432/112 356/423/281 
f 356/424/281 364/433/112 365/434/286 357/425/282 
f 357/425/282 365/434/286 366/435/114 358/426/283 
f 358/426/283 366/435/114 367/436/287 359/427/284 
f 359/427/284 367/436/287 360/428/108 352/419/277 
f 360/428/108 368/437/116 369/438/288 361/429/109 
f 361/429/109 369/438/288 370/439/289 362/430/285 
f 362/430/285 370/439/289 371/440/119 363/431/111 
f 363/431/111 371/440/119 372/441/120 364/432/112 
f 364/433/112 372/442/120 373/443/121 365/434/286 
f 365/434/286 373/443/121 374/444/122 366/435/114 
f 366/435/114 374/444/122 375/445/123 367/436/287 
f 367/436/287 375/445/123 368/437/116 360/428/108 
f 368/437/116 376/446/290 369/438/288 
f 369/438/288 376/446/290 370/439/289 
f 370/439/289 376/446/290 371/440/119 
f 371/440/119 376/446/290 372/441/120 
f 372/442/120 376/446/290 373/443/121 
f 373/443/121 376/446/290 374/444/122 
f 374/444/122 376/446/290 375/445/123 
f 375/445/123 376/446/290 368/437/116 
s 8
f 377/447/200 378/448/201 379/449/291 380/450/203 
f 380/450/203 379/449/291 381/451/292 382/452/205 
f 382/452/205 381/451/292 383/453/206 384/454/293 
f 384/454/293 383/453/206 385/455/208 386/456/209 
f 386/457/209 385/458/208 387/459/294 388/460/211 
f 388/460/211 387/459/294 389/461/212 390/462/235 
f 390/462/235 389/461/212 391/463/214 392/464/215 
f 392/464/215 391/463/214 378/448/201 377/447/200 
s off
f 378/448/201 393/465/18 394/466/19 379/449/291 
f 379/449/291 394/466/19 395/467/84 381/451/292 
f 381/451/292 395/467/84 396/468/23 383/453/206 
f 383/453/206 396/468/23 397/469/25 385/455/208 
f 385/458/208 397/470/25 398/471/27 387/459/294 
f 387/459/294 398/471/27 399/472/89 389/461/212 
f 389/461/212 399/472/89 400/473/31 391/463/214 
f 391/463/214 400/473/31 393/465/18 378/448/201 
f 393/465/18 401/474/216 402/475/34 394/466/19 
f 394/466/19 402/475/34 403/476/295 395/467/84 
f 395/467/84 403/476/295 404/477/36 396/468/23 
f 396/468/23 404/477/36 405/478/296 397/469/25 
f 397/470/25 405/479/296 406/480/38 398/471/27 
f 398/471/27 406/480/38 407/481/39 399/472/89 
f 399/472/89 407/481/39 408/482/40 400/473/31 
f 400/473/31 408/482/40 401/474/216 393/465/18 
f 401/474/216 409/483/41 410/484/42 402/475/34 
f 402/475/34 410/484/42 411/485/43 403/476/295 
f 403/476/295 411/485/43 412/486/44 404/477/36 
f 404/477/36 412/486/44 413/487/45 405/478/296 
f 405/479/296 413/488/45 414/489/46 406/480/38 
f 406/480/38 414/489/46 415/490/47 407/481/39 
f 407/481/39 415/490/47 416/491/48 408/482/40 
f 408/482/40 416/491/48 409/483/41 401/474/216 
f 409/483/41 417/492/297 418/493/298 410/484/42 
f 410/484/42 418/493/298 419/494/299 411/485/43 
f 411/485/43 419/494/299 420/495/52 412/486/44 
f 412/486/44 420/495/52 421/496/300 413/487/45 
f 413/488/45 421/497/300 422/498/239 414/489/46 
f 414/489/46 422/498/239 423/499/240 415/490/47 
f 415/490/47 423/499/240 424/500/301 416/491/48 
f 416/491/48 424/500/301 417/492/297 409/483/41 
f 417/492/297 425/501/302 426/502/58 418/493/298 
f 418/493/298 426/502/58 427/503/241 419/494/299 
f 419/494/299 427/503/241 428/504/60 420/495/52 
f 420/495/52 428/504/60 429/505/242 421/496/300 
f 421/497/300 429/506/242 430/507/62 422/498/239 
f 422/498/239 430/507/62 431/508/243 423/499/240 
f 423/499/240 431/508/243 432/509/64 424/500/301 
f 424/500/301 432/509/64 425/501/302 417/492/297 
f 425/501/302 433/510/244 426/502/58 
f 426/502/58 433/510/244 427/503/241 
f 427/503/241 433/510/244 428/504/60 
f 428/504/60 433/510/244 429/505/242 
f 429/506/242 433/510/244 430/507/62 
f 430/507/62 433/510/244 431/508/243 
f 431/508/243 433/510/244 432/509/64 
f 432/509/64 433/510/244 425/501/302 
s 1
f 434/511/303 435/512/304 436/513/305 437/514/306 
f 438/515/307 439/516/308 440/517/309 441/518/310 
s 2
f 434/519/303 442/520/211 443/521/311 435/522/304 
f 436/523/305 444/524/312 445/525/207 437/526/306 
s 4
f 437/514/306 445/527/207 442/528/211 434/511/303 
s 2
f 446/529/313 447/530/211 438/531/307 441/532/310 
s 4
f 448/533/314 446/534/313 441/518/310 440/517/309 
s 2
f 449/535/315 448/536/314 440/537/309 439/538/308 
s 4
f 447/539/211 449/540/315 439/516/308 438/515/307 
s 2
f 450/541/316 451/542/211 447/530/211 446/529/313 
f 452/543/315 453/544/317 448/536/314 449/535/315 
s 4
f 451/545/211 452/546/315 449/540/315 447/539/211 
s 2
f 443/521/311 442/520/211 454/547/211 455/548/318 
s 4
f 444/549/312 443/550/311 455/551/318 456/552/319 
s 2
f 445/525/207 444/524/312 456/553/319 457/554/207 
s 4
f 442/528/211 445/527/207 457/555/207 454/556/211 
s off
f 450/557/316 458/558/320 459/559/321 453/560/317 
f 453/544/317 459/561/321 460/562/322 448/536/314 
f 448/563/314 460/564/322 461/565/323 446/566/313 
f 446/529/313 461/567/323 458/568/320 450/541/316 
f 458/558/320 462/569/324 463/570/325 459/559/321 
f 459/561/321 463/571/325 464/572/326 460/562/322 
f 460/564/322 464/573/326 465/574/327 461/565/323 
f 461/567/323 465/575/327 462/576/324 458/568/320 
f 462/569/324 466/577/328 467/578/329 463/570/325 
f 463/571/325 467/579/329 468/580/330 464/572/326 
f 464/573/326 468/581/330 469/582/331 465/574/327 
f 465/575/327 469/583/331 466/584/328 462/576/324 
f 466/577/328 470/585/332 471/586/333 467/578/329 
f 467/579/329 471/587/333 472/588/334 468/580/330 
f 468/581/330 472/589/334 473/590/335 469/582/331 
f 469/583/331 473/591/335 470/592/332 466/584/328 
f 470/585/332 474/593/336 475/594/337 471/586/333 
f 471/587/333 475/595/337 476/596/338 472/588/334 
f 472/589/334 476/597/338 477/598/339 473/590/335 
f 473/591/335 477/599/339 474/600/336 470/592/332 
f 475/595/337 478/601/340 479/602/203 476/596/338 
f 476/597/338 479/603/203 480/604/215 477/598/339 
f 477/599/339 480/605/215 481/606/341 474/600/336 
f 482/607/305 483/608/304 484/609/342 485/610/343 
s 2
f 435/512/304 483/608/304 482/607/305 436/513/305 
s 1
f 443/521/311 486/611/344 483/612/304 435/522/304 
f 436/523/305 482/613/305 487/614/345 444/524/312 
s off
f 488/615/203 487/614/345 482/613/305 485/616/343 
f 489/617/346 488/618/203 485/610/343 484/609/342 
f 486/611/344 489/619/346 484/620/342 483/612/304 
f 443/621/311 444/622/312 487/623/345 486/624/344 
f 478/625/340 481/626/341 490/627/211 491/628/207 
f 479/602/203 478/601/340 491/629/207 492/630/312 
f 480/604/215 479/603/203 492/631/312 493/632/311 
f 481/606/341 480/605/215 493/633/311 490/634/211 
f 474/593/336 494/635/311 495/636/312 475/594/337 
f 481/606/341 455/548/318 494/637/311 474/600/336 
f 475/595/337 495/638/312 456/553/319 478/601/340 
f 478/625/340 456/552/319 455/551/318 481/626/341 
s 2
f 455/548/318 454/547/211 496/639/211 494/637/311 
f 457/554/207 456/553/319 495/638/312 497/640/207 
s 4
f 454/556/211 457/555/207 497/641/207 496/642/211 
s 2
f 494/637/311 496/639/211 451/542/211 450/541/316 
s 4
f 495/643/312 494/644/311 450/557/316 453/560/317 
s 2
f 497/640/207 495/638/312 453/544/317 452/543/315 
s 4
f 496/642/211 497/641/207 452/546/315 451/545/211 
s off
f 491/628/207 490/627/211 498/645/211 499/646/207 
f 492/630/312 491/629/207 499/647/207 500/648/319 
f 501/649/310 502/650/309 503/651/343 504/652/342 
f 490/634/211 493/633/311 505/653/318 498/654/211 
f 499/646/207 498/645/211 506/655/211 507/656/207 
f 500/648/319 499/647/207 507/657/207 508/658/312 
f 505/659/318 500/660/319 508/661/312 509/662/311 
f 498/654/211 505/653/318 509/663/311 506/664/211 
f 510/665/207 511/666/211 486/624/344 487/623/345 
f 512/667/319 510/668/207 487/614/345 488/615/203 
f 513/669/318 512/670/319 488/618/203 489/617/346 
f 511/671/211 513/672/318 489/619/346 486/611/344 
f 507/656/207 506/655/211 511/666/211 510/665/207 
f 508/658/312 507/657/207 510/668/207 512/667/319 
f 514/673/310 515/674/309 516/675/343 517/676/342 
f 506/664/211 509/663/311 513/672/318 511/671/211 
f 500/677/319 503/651/343 502/650/309 492/678/312 
f 492/679/312 502/650/309 501/649/310 493/680/311 
f 493/681/311 501/649/310 504/652/342 505/682/318 
f 505/683/318 504/652/342 503/651/343 500/684/319 
f 513/685/318 517/676/342 516/675/343 512/686/319 
f 512/687/319 516/675/343 515/674/309 508/688/312 
f 508/689/312 515/674/309 514/673/310 509/690/311 
f 509/691/311 514/673/310 517/676/342 513/692/318 
s 8
f 518/693/347 519/694/200 520/695/348 521/696/349 
f 521/696/349 520/695/348 522/697/350 523/698/351 
f 523/698/351 522/697/350 524/699/352 525/700/353 
f 525/700/353 524/699/352 526/701/233 527/702/354 
f 527/703/354 526/704/233 528/705/355 529/706/356 
f 529/706/356 528/705/355 530/707/357 531/708/358 
f 531/708/358 530/707/357 532/709/359 533/710/360 
f 533/710/360 532/709/359 519/694/200 518/693/347 
s off
f 534/711/361 535/712/18 536/713/19 537/714/362 
f 537/714/362 536/713/19 538/715/21 539/716/363 
f 539/716/363 538/715/21 540/717/23 541/718/364 
f 541/718/364 540/717/23 542/719/236 543/720/365 
f 543/721/365 542/722/236 544/723/27 545/724/366 
f 545/724/366 544/723/27 546/725/29 547/726/367 
f 547/726/367 546/725/29 548/727/31 549/728/368 
f 549/728/368 548/727/31 535/712/18 534/711/361 
f 535/712/18 550/729/216 551/730/34 536/713/19 
f 536/713/19 551/730/34 552/731/35 538/715/21 
f 538/715/21 552/731/35 553/732/36 540/717/23 
f 540/717/23 553/732/36 554/733/217 542/719/236 
f 542/722/236 554/734/217 555/735/38 544/723/27 
f 544/723/27 555/735/38 556/736/218 546/725/29 
f 546/725/29 556/736/218 557/737/40 548/727/31 
f 548/727/31 557/737/40 550/729/216 535/712/18 
f 550/729/216 558/738/41 559/739/42 551/730/34 
f 551/730/34 559/739/42 560/740/219 552/731/35 
f 552/731/35 560/740/219 561/741/44 553/732/36 
f 553/732/36 561/741/44 562/742/369 554/733/217 
f 554/734/217 562/743/369 563/744/46 555/735/38 
f 555/735/38 563/744/46 564/745/220 556/736/218 
f 556/736/218 564/745/220 565/746/48 557/737/40 
f 557/737/40 565/746/48 558/738/41 550/729/216 
f 558/738/41 566/747/49 567/748/50 559/739/42 
f 559/739/42 567/748/50 568/749/51 560/740/219 
f 560/740/219 568/749/51 569/750/237 561/741/44 
f 561/741/44 569/750/237 570/751/370 562/742/369 
f 562/743/369 570/752/370 571/753/239 563/744/46 
f 563/744/46 571/753/239 572/754/371 564/745/220 
f 564/745/220 572/754/371 573/755/56 565/746/48 
f 565/746/48 573/755/56 566/747/49 558/738/41 
f 566/747/49 574/756/57 575/757/58 567/748/50 
f 567/748/50 575/757/58 576/758/59 568/749/51 
f 568/749/51 576/758/59 577/759/60 569/750/237 
f 569/750/237 577/759/60 578/760/242 570/751/370 
f 570/752/370 578/761/242 579/762/62 571/753/239 
f 571/753/239 579/762/62 580/763/63 572/754/371 
f 572/754/371 580/763/63 581/764/64 573/755/56 
f 573/755/56 581/764/64 574/756/57 566/747/49 
f 574/756/57 582/765/65 575/757/58 
f 575/757/58 582/765/65 576/758/59 
f 576/758/59 582/765/65 577/759/60 
f 577/759/60 582/765/65 578/760/242 
f 578/761/242 582/765/65 579/762/62 
f 579/762/62 582/765/65 580/763/63 
f 580/763/63 582/765/65 581/764/64 
f 581/764/64 582/765/65 574/756/57 
s 8
f 583/766/200 584/767/372 585/768/373 586/769/203 
f 586/769/203 585/768/373 587/770/374 588/771/231 
f 588/771/231 587/770/374 589/772/375 590/773/207 
f 590/773/207 589/772/375 591/774/376 592/775/209 
f 592/776/209 591/777/376 593/778/377 594/779/211 
f 594/779/211 593/778/377 595/780/378 596/781/235 
f 596/781/235 595/780/378 597/782/379 598/783/346 
f 598/783/346 597/782/379 584/767/372 583/766/200 
s off
f 599/784/380 600/785/18 601/786/19 602/787/381 
f 602/787/381 601/786/19 603/788/21 604/789/230 
f 604/789/230 603/788/21 605/790/23 606/791/382 
f 606/791/382 605/790/23 607/792/25 608/793/208 
f 608/794/208 607/795/25 609/796/27 610/797/294 
f 610/797/294 609/796/27 611/798/29 612/799/90 
f 612/799/90 611/798/29 613/800/31 614/801/383 
f 614/801/383 613/800/31 600/785/18 599/784/380 
f 600/785/18 615/802/384 616/803/385 601/786/19 
f 601/786/19 616/803/385 617/804/386 603/788/21 
f 603/788/21 617/804/386 618/805/387 605/790/23 
f 605/790/23 618/805/387 619/806/388 607/792/25 
f 607/795/25 619/807/388 620/808/389 609/796/27 
f 609/796/27 620/808/389 621/809/390 611/798/29 
f 611/798/29 621/809/390 622/810/391 613/800/31 
f 613/800/31 622/810/391 615/802/384 600/785/18 
f 615/802/384 623/811/392 624/812/393 616/803/385 
f 616/803/385 624/812/393 625/813/394 617/804/386 
f 617/804/386 625/813/394 626/814/395 618/805/387 
f 618/805/387 626/814/395 627/815/396 619/806/388 
f 619/807/388 627/816/396 628/817/397 620/808/389 
f 620/808/389 628/817/397 629/818/398 621/809/390 
f 621/809/390 629/818/398 630/819/399 622/810/391 
f 622/810/391 630/819/399 623/811/392 615/802/384 
f 623/811/392 631/820/400 632/821/401 624/812/393 
f 624/812/393 632/821/401 633/822/110 625/813/394 
f 625/813/394 633/822/110 634/823/402 626/814/395 
f 626/814/395 634/823/402 635/824/112 627/815/396 
f 627/816/396 635/825/112 636/826/113 628/817/397 
f 628/817/397 636/826/113 637/827/403 629/818/398 
f 629/818/398 637/827/403 638/828/115 630/819/399 
f 630/819/399 638/828/115 631/820/400 623/811/392 
f 631/820/400 639/829/404 640/830/117 632/821/401 
f 632/821/401 640/830/117 641/831/289 633/822/110 
f 633/822/110 641/831/289 642/832/119 634/823/402 
f 634/823/402 642/832/119 643/833/120 635/824/112 
f 635/825/112 643/834/120 644/835/121 636/826/113 
f 636/826/113 644/835/121 645/836/122 637/827/403 
f 637/827/403 645/836/122 646/837/123 638/828/115 
f 638/828/115 646/837/123 639/829/404 631/820/400 
f 639/829/404 647/838/290 640/830/117 
f 640/830/117 647/838/290 641/831/289 
f 641/831/289 647/838/290 642/832/119 
f 642/832/119 647/838/290 643/833/120 
f 643/834/120 647/838/290 644/835/121 
f 644/835/121 647/838/290 645/836/122 
f 645/836/122 647/838/290 646/837/123 
f 646/837/123 647/838/290 639/829/404 
s 8
f 648/839/405 649/840/406 650/841/407 651/842/408 
f 652/843/409 648/839/405 651/842/408 653/844/410 
f 654/845/411 652/843/409 653/844/410 655/846/412 
f 656/847/413 654/845/411 655/846/412 657/848/414 
f 658/849/415 656/850/413 657/851/414 659/852/416 
f 660/853/417 658/849/415 659/852/416 661/854/418 
f 662/855/419 660/853/417 661/854/418 663/856/420 
f 649/840/406 662/855/419 663/856/420 650/841/407 
s off
f 648/857/405 664/858/421 649/859/406 
f 652/860/409 664/858/421 648/857/405 
f 654/861/411 664/858/421 652/860/409 
f 656/862/413 664/858/421 654/861/411 
f 658/863/415 664/858/421 656/862/413 
f 660/864/417 664/858/421 658/863/415 
f 662/865/419 664/858/421 660/864/417 
f 649/859/406 664/858/421 662/865/419 
f 665/866/422 666/867/423 667/868/424 
f 667/868/424 666/867/423 668/869/425 
f 668/869/425 666/867/423 669/870/426 
f 669/870/426 666/867/423 670/871/427 
f 670/871/427 666/867/423 671/872/428 
f 671/872/428 666/867/423 672/873/429 
f 672/873/429 666/867/423 673/874/430 
f 673/874/430 666/867/423 665/866/422 
s 8
f 585/768/373 584/767/372 674/875/431 675/876/432 
f 587/770/374 585/768/373 675/876/432 676/877/433 
f 589/772/375 587/770/374 676/877/433 677/878/434 
f 591/774/376 589/772/375 677/878/434 678/879/435 
f 593/778/377 591/777/376 678/880/435 679/881/436 
f 595/780/378 593/778/377 679/881/436 680/882/437 
f 597/782/379 595/780/378 680/882/437 681/883/438 
f 584/767/372 597/782/379 681/883/438 674/875/431 
f 675/876/432 674/875/431 665/884/422 667/885/424 
f 676/877/433 675/876/432 667/885/424 668/886/425 
f 677/878/434 676/877/433 668/886/425 669/887/426 
f 678/879/435 677/878/434 669/887/426 670/888/427 
f 679/881/436 678/880/435 670/889/427 671/890/428 
f 680/882/437 679/881/436 671/890/428 672/891/429 
f 681/883/438 680/882/437 672/891/429 673/892/430 
f 674/875/431 681/883/438 673/892/430 665/884/422 
f 651/842/408 650/841/407 599/784/380 602/787/381 
f 653/844/410 651/842/408 602/787/381 604/789/230 
f 655/846/412 653/844/410 604/789/230 606/791/382 
f 657/848/414 655/846/412 606/791/382 608/793/208 
f 659/852/416 657/851/414 608/794/208 610/797/294 
f 661/854/418 659/852/416 610/797/294 612/799/90 
f 663/856/420 661/854/418 612/799/90 614/801/383 
f 650/841/407 663/856/420 614/801/383 599/784/380 
f 682/893/439 683/894/440 82/92/82 85/95/83 
f 684/895/441 682/893/439 85/95/83 87/97/85 
f 685/896/442 684/895/441 87/97/85 89/99/86 
f 686/897/443 685/896/442 89/99/86 91/101/87 
f 687/898/444 686/899/443 91/102/87 93/105/88 
f 688/900/445 687/898/444 93/105/88 95/107/90 
f 689/901/446 688/900/445 95/107/90 97/109/91 
f 683/894/440 689/901/446 97/109/91 82/92/82 
f 520/695/348 519/694/200 534/711/361 537/714/362 
f 522/697/350 520/695/348 537/714/362 539/716/363 
f 524/699/352 522/697/350 539/716/363 541/718/364 
f 526/701/233 524/699/352 541/718/364 543/720/365 
f 528/705/355 526/704/233 543/721/365 545/724/366 
f 530/707/357 528/705/355 545/724/366 547/726/367 
f 532/709/359 530/707/357 547/726/367 549/728/368 
f 519/694/200 532/709/359 549/728/368 534/711/361 
f 3/3/3 2/2/2 17/19/17 20/22/20 
f 5/5/5 3/3/3 20/22/20 22/24/22 
f 7/7/7 5/5/5 22/24/22 24/26/24 
f 9/9/9 7/7/7 24/26/24 26/28/26 
f 11/13/11 9/12/9 26/29/26 28/32/28 
f 13/15/13 11/13/11 28/32/28 30/34/30 
f 15/17/15 13/15/13 30/34/30 32/36/32 
f 2/2/2 15/17/15 32/36/32 17/19/17 
f 134/150/128 133/149/127 683/894/440 682/893/439 
f 136/152/130 134/150/128 682/893/439 684/895/441 
f 138/154/132 136/152/130 684/895/441 685/896/442 
f 140/156/134 138/154/132 685/896/442 686/897/443 
f 142/160/136 140/159/134 686/899/443 687/898/444 
f 144/162/138 142/160/136 687/898/444 688/900/445 
f 146/164/140 144/162/138 688/900/445 689/901/446 
f 133/149/127 146/164/140 689/901/446 683/894/440 
# 590 polygons - 104 triangles

