# 3ds Max Wavefront OBJ Exporter v0.97b - (c)2007 guruware
# File Created: 02.03.2020 18:31:24

mtllib LogStump_low.mtl

#
# object Log_stump
#

v  -0.002564 0.292328 0.490628
v  -0.407062 0.292328 0.295841
v  -0.506965 0.357483 -0.141842
v  -0.227043 0.292328 -0.492837
v  0.221915 0.342773 -0.388421
v  0.501834 0.292328 -0.141842
v  0.401932 0.292328 0.295841
v  -0.001325 -0.000939 0.581626
v  -0.468173 -0.000939 0.348063
v  -0.582189 -0.000939 -0.169183
v  -0.258137 -0.000939 -0.581626
v  0.260974 -0.000939 -0.453305
v  0.582189 -0.000939 -0.162239
v  0.466424 -0.000939 0.355002
v  -0.002565 0.372833 -0.011805
v  -0.383577 0.292328 0.262694
v  -0.002564 0.292328 0.446173
v  0.378447 0.292328 0.262694
v  0.466574 0.467011 -0.123400
v  0.211385 0.425904 -0.348193
v  -0.218028 0.412964 -0.448064
v  -0.472871 0.357483 -0.128514
v  -0.002565 0.300872 0.490628
v  -0.407063 0.304596 0.295841
v  -0.506965 0.418304 -0.141842
v  -0.227043 0.458549 -0.492837
v  0.221913 0.481956 -0.388421
v  0.501834 0.512595 -0.141842
v  0.401932 0.338714 0.295841
v  -0.383577 0.304596 0.262694
v  -0.002565 0.300872 0.446172
v  0.378447 0.338714 0.262694
v  0.466573 0.512595 -0.123400
v  0.211383 0.481956 -0.348193
v  -0.218028 0.458549 -0.448064
v  -0.472872 0.418304 -0.128514
v  -0.242351 0.147949 -0.536549
v  -0.543999 0.181026 -0.155303
v  -0.437148 0.147949 0.321550
v  -0.001954 0.147949 0.535428
v  0.433682 0.147949 0.324967
v  0.541394 0.147949 -0.151884
v  0.241144 0.173559 -0.420364
# 43 vertices

vt 0.542949 0.124240 -7.805844
vt 0.473705 0.077213 -7.805844
vt 0.410361 0.066333 -7.805844
vt 0.335794 0.061938 -7.805844
vt 0.248998 0.087740 -7.805844
vt 0.184444 0.104068 -7.805844
vt 0.130249 0.139860 -7.805844
vt 0.567993 0.094982 -7.805844
vt 0.487745 0.040892 -7.805844
vt 0.416810 0.019741 -14.753860
vt 0.332858 0.022855 -7.805844
vt 0.233691 0.046693 -7.805844
vt 0.164251 0.068631 14.753860
vt 0.104463 0.110636 -7.805844
vt 0.395866 0.198407 -0.198835
vt 0.632137 0.087470 0.000000
vt 0.709969 0.030163 0.000000
vt 0.801606 0.052184 0.000000
vt 0.848962 0.106292 0.000000
vt 0.806684 0.158191 0.000000
vt 0.711122 0.197635 0.000000
vt 0.638330 0.156046 0.000000
vt 0.536687 0.133413 -7.805844
vt 0.468490 0.089417 -7.805844
vt 0.410063 0.080020 -7.805844
vt 0.337467 0.076190 -7.805844
vt 0.253241 0.100914 -7.805844
vt 0.191950 0.117009 -7.805844
vt 0.137013 0.145891 -7.805844
vt 0.626099 0.085315 0.000000
vt 0.707651 0.024760 0.000000
vt 0.806548 0.047262 0.000000
vt 0.855495 0.107117 0.000000
vt 0.811724 0.164223 0.000000
vt 0.711174 0.204535 0.000000
vt 0.631224 0.162551 0.000000
vt 0.334364 0.042645 -7.805844
vt 0.413502 0.043421 -7.805844
vt 0.480567 0.059346 -7.805844
vt 0.555264 0.109834 -7.805844
vt 0.117711 0.125544 -7.805844
vt 0.174385 0.086419 -7.805844
vt 0.241434 0.067690 -7.805844
vt 0.313617 0.180162 -0.198835
vt 0.379228 0.136887 -0.198835
vt 0.457705 0.141187 -0.198835
vt 0.489548 0.191624 0.238513
vt 0.448046 0.233289 -0.198835
vt 0.370022 0.267208 -0.198835
vt 0.310628 0.236974 -0.238513
vt 0.048240 0.189094 -7.805844
vt 0.706359 0.018791 0.000000
vt 0.619798 0.082152 0.000000
vt 0.623984 0.167084 -0.315636
vt 0.710983 0.211787 0.000000
vt 0.815503 0.169254 0.000000
vt 0.863912 0.106716 0.315636
vt 0.810258 0.041102 0.000000
vt 0.065209 0.198790 -7.805844
vt 0.081567 0.208239 -7.805844
vt 0.091590 0.212666 -7.805844
# 61 texture coords

o Log_stump
g Log_stump
usemtl wire_135059008
f 1/1 2/2 39/39 40/40 
f 2/2 3/3 38/38 39/39 
f 3/3 4/4 37/37 38/38 
f 4/4 5/5 43/43 37/37 
f 5/5 6/6 42/42 43/43 
f 6/6 7/7 41/41 42/42 
f 7/7 1/60 40/59 41/41 
f 16/44 17/45 15/15 
f 22/50 16/44 15/15 
f 21/49 22/50 15/15 
f 20/48 21/49 15/15 
f 19/47 20/48 15/15 
f 18/46 19/47 15/15 
f 17/45 18/46 15/15 
f 2/2 1/1 23/23 24/24 
f 3/3 2/2 24/24 25/25 
f 4/4 3/3 25/25 26/26 
f 5/5 4/4 26/26 27/27 
f 6/6 5/5 27/27 28/28 
f 7/7 6/6 28/28 29/29 
f 1/60 7/7 29/29 23/61 
f 17/17 16/16 30/30 31/31 
f 18/18 17/17 31/31 32/32 
f 19/19 18/18 32/32 33/33 
f 20/20 19/19 33/33 34/34 
f 21/21 20/20 34/34 35/35 
f 22/22 21/21 35/35 36/36 
f 16/16 22/22 36/36 30/30 
f 35/35 34/34 27/56 26/55 
f 36/36 35/35 26/55 25/54 
f 30/30 36/36 25/54 24/53 
f 31/31 30/30 24/53 23/52 
f 32/32 31/31 23/52 29/58 
f 33/33 32/32 29/58 28/57 
f 34/34 33/33 28/57 27/56 
f 39/39 9/9 8/8 40/40 
f 38/38 10/10 9/9 39/39 
f 37/37 11/11 10/10 38/38 
f 43/43 12/12 11/11 37/37 
f 42/42 13/13 12/12 43/43 
f 41/41 14/14 13/13 42/42 
f 40/59 8/51 14/14 41/41 
# 35 polygons - 7 triangles

